%YAML 1.1
%TAG !u! tag:unity3d.com,2011:
--- !u!114 &-2591160610925751508
MonoBehaviour:
  m_ObjectHideFlags: 0
  m_CorrespondingSourceObject: {fileID: 0}
  m_PrefabInstance: {fileID: 0}
  m_PrefabAsset: {fileID: 0}
  m_GameObject: {fileID: 0}
  m_Enabled: 1
  m_EditorHideFlags: 0
  m_Script: {fileID: 11500000, guid: 6b3d386ba5cd94485973aee1479b272e, type: 3}
  m_Name: Mask
  m_EditorClassIdentifier: 
  m_Active: 1
  settings:
    passTag: Mask
    Event: 250
    filterSettings:
      RenderQueueType: 0
      LayerMask:
        serializedVersion: 2
        m_Bits: 2048
      PassNames: []
    overrideMaterial: {fileID: 0}
    overrideMaterialPassIndex: 0
    overrideDepthState: 0
    depthCompareFunction: 4
    enableWrite: 1
    stencilSettings:
      overrideStencilState: 1
      stencilReference: 1
      stencilCompareFunction: 8
      passOperation: 2
      failOperation: 0
      zFailOperation: 0
    cameraSettings:
      overrideCamera: 0
      restoreCamera: 1
      offset: {x: 0, y: 0, z: 0, w: 0}
      cameraFieldOfView: 60
--- !u!114 &11400000
MonoBehaviour:
  m_ObjectHideFlags: 0
  m_CorrespondingSourceObject: {fileID: 0}
  m_PrefabInstance: {fileID: 0}
  m_PrefabAsset: {fileID: 0}
  m_GameObject: {fileID: 0}
  m_Enabled: 1
  m_EditorHideFlags: 0
  m_Script: {fileID: 11500000, guid: de640fe3d0db1804a85f9fc8f5cadab6, type: 3}
  m_Name: URPAsset_Renderer
  m_EditorClassIdentifier: 
  m_RendererFeatures:
  - {fileID: -2591160610925751508}
  - {fileID: 2340233654488538954}
  - {fileID: 5146846798960715897}
  - {fileID: 7982061374777779858}
  m_RendererFeatureMap: 2c53c92527590adc4a1f34131c2e7a2079e868fde4456d4792e6fe9287fac56e
  postProcessData: {fileID: 11400000, guid: 41439944d30ece34e96484bdb6645b55, type: 2}
  xrSystemData: {fileID: 11400000, guid: 60e1133243b97e347b653163a8c01b64, type: 2}
  shaders:
    blitPS: {fileID: 4800000, guid: c17132b1f77d20942aa75f8429c0f8bc, type: 3}
    copyDepthPS: {fileID: 4800000, guid: d6dae50ee9e1bfa4db75f19f99355220, type: 3}
    screenSpaceShadowPS: {fileID: 4800000, guid: 0f854b35a0cf61a429bd5dcfea30eddd, type: 3}
    samplingPS: {fileID: 4800000, guid: 04c410c9937594faa893a11dceb85f7e, type: 3}
    tileDepthInfoPS: {fileID: 0}
    tileDeferredPS: {fileID: 0}
    stencilDeferredPS: {fileID: 4800000, guid: e9155b26e1bc55942a41e518703fe304, type: 3}
    fallbackErrorPS: {fileID: 4800000, guid: e6e9a19c3678ded42a3bc431ebef7dbd, type: 3}
    materialErrorPS: {fileID: 4800000, guid: 5fd9a8feb75a4b5894c241777f519d4e, type: 3}
  m_OpaqueLayerMask:
    serializedVersion: 2
    m_Bits: 16713727
  m_TransparentLayerMask:
    serializedVersion: 2
    m_Bits: 4294967295
  m_DefaultStencilState:
    overrideStencilState: 1
    stencilReference: 0
    stencilCompareFunction: 8
    passOperation: 0
    failOperation: 0
    zFailOperation: 0
  m_ShadowTransparentReceive: 1
  m_RenderingMode: 0
  m_AccurateGbufferNormals: 0
--- !u!114 &2340233654488538954
MonoBehaviour:
  m_ObjectHideFlags: 0
  m_CorrespondingSourceObject: {fileID: 0}
  m_PrefabInstance: {fileID: 0}
  m_PrefabAsset: {fileID: 0}
  m_GameObject: {fileID: 0}
  m_Enabled: 1
  m_EditorHideFlags: 0
  m_Script: {fileID: 11500000, guid: 6b3d386ba5cd94485973aee1479b272e, type: 3}
  m_Name: SeeThrough
  m_EditorClassIdentifier: 
  m_Active: 1
  settings:
    passTag: SeeThrough
    Event: 250
    filterSettings:
      RenderQueueType: 0
      LayerMask:
        serializedVersion: 2
        m_Bits: 4096
      PassNames: []
    overrideMaterial: {fileID: 0}
    overrideMaterialPassIndex: 0
    overrideDepthState: 0
    depthCompareFunction: 4
    enableWrite: 1
    stencilSettings:
      overrideStencilState: 1
      stencilReference: 1
      stencilCompareFunction: 6
      passOperation: 0
      failOperation: 0
      zFailOperation: 0
    cameraSettings:
      overrideCamera: 0
      restoreCamera: 1
      offset: {x: 0, y: 0, z: 0, w: 0}
      cameraFieldOfView: 60
--- !u!114 &5146846798960715897
MonoBehaviour:
  m_ObjectHideFlags: 0
  m_CorrespondingSourceObject: {fileID: 0}
  m_PrefabInstance: {fileID: 0}
  m_PrefabAsset: {fileID: 0}
  m_GameObject: {fileID: 0}
  m_Enabled: 1
  m_EditorHideFlags: 0
  m_Script: {fileID: 11500000, guid: f62c9c65cf3354c93be831c8bc075510, type: 3}
  m_Name: NewScreenSpaceAmbientOcclusion
  m_EditorClassIdentifier: 
  m_Active: 1
  m_Shader: {fileID: 4800000, guid: 0849e84e3d62649e8882e9d6f056a017, type: 3}
  m_Settings:
    Downsample: 0
    Source: 1
    NormalSamples: 1
    Intensity: 0.66
    DirectLightingStrength: 0.016
    Radius: 0.4
    SampleCount: 4
--- !u!114 &7982061374777779858
MonoBehaviour:
  m_ObjectHideFlags: 0
  m_CorrespondingSourceObject: {fileID: 0}
  m_PrefabInstance: {fileID: 0}
  m_PrefabAsset: {fileID: 0}
  m_GameObject: {fileID: 0}
  m_Enabled: 1
  m_EditorHideFlags: 0
  m_Script: {fileID: 11500000, guid: 6b3d386ba5cd94485973aee1479b272e, type: 3}
  m_Name: NewRenderObjects
  m_EditorClassIdentifier: 
  m_Active: 1
  settings:
    passTag: NewRenderObjects
    Event: 300
    filterSettings:
      RenderQueueType: 0
      LayerMask:
        serializedVersion: 2
        m_Bits: 0
      PassNames: []
    overrideMaterial: {fileID: 0}
    overrideMaterialPassIndex: 0
    overrideDepthState: 0
    depthCompareFunction: 4
    enableWrite: 1
    stencilSettings:
      overrideStencilState: 0
      stencilReference: 0
      stencilCompareFunction: 8
      passOperation: 0
      failOperation: 0
      zFailOperation: 0
    cameraSettings:
      overrideCamera: 0
      restoreCamera: 1
      offset: {x: 0, y: 0, z: 0, w: 0}
      cameraFieldOfView: 60
