%YAML 1.1
%TAG !u! tag:unity3d.com,2011:
--- !u!74 &7400000
AnimationClip:
  m_ObjectHideFlags: 0
  m_CorrespondingSourceObject: {fileID: 0}
  m_PrefabInstance: {fileID: 0}
  m_PrefabAsset: {fileID: 0}
  m_Name: OneFourth
  serializedVersion: 6
  m_Legacy: 0
  m_Compressed: 0
  m_UseHighQualityCurve: 1
  m_RotationCurves: []
  m_CompressedRotationCurves: []
  m_EulerCurves: []
  m_PositionCurves: []
  m_ScaleCurves: []
  m_FloatCurves: []
  m_PPtrCurves:
  - curve:
    - time: 0
      value: {fileID: -5436819727396454788, guid: 5284a431043aead44ba309fff2688d72, type: 3}
    - time: 0.016666668
      value: {fileID: -5436819727396454788, guid: 5284a431043aead44ba309fff2688d72, type: 3}
    - time: 0.033333335
      value: {fileID: -1255847528254088043, guid: 5284a431043aead44ba309fff2688d72, type: 3}
    - time: 0.05
      value: {fileID: 946858037929077382, guid: 5284a431043aead44ba309fff2688d72, type: 3}
    - time: 0.06666667
      value: {fileID: -1669942614801796369, guid: 5284a431043aead44ba309fff2688d72, type: 3}
    - time: 0.083333336
      value: {fileID: 4924844304385403133, guid: 5284a431043aead44ba309fff2688d72, type: 3}
    - time: 0.1
      value: {fileID: 7485802708801725505, guid: 5284a431043aead44ba309fff2688d72, type: 3}
    - time: 0.11666667
      value: {fileID: 9015588599319209966, guid: 5284a431043aead44ba309fff2688d72, type: 3}
    - time: 0.13333334
      value: {fileID: 6730716563824042283, guid: 5284a431043aead44ba309fff2688d72, type: 3}
    - time: 0.15
      value: {fileID: 3832485137828321743, guid: 5284a431043aead44ba309fff2688d72, type: 3}
    - time: 0.16666667
      value: {fileID: 3586980020675572762, guid: 5284a431043aead44ba309fff2688d72, type: 3}
    - time: 0.18333334
      value: {fileID: 2014063483570349916, guid: 5284a431043aead44ba309fff2688d72, type: 3}
    - time: 0.2
      value: {fileID: 226693125794015354, guid: 5284a431043aead44ba309fff2688d72, type: 3}
    - time: 0.21666667
      value: {fileID: -5574068377371119891, guid: 5284a431043aead44ba309fff2688d72, type: 3}
    - time: 0.23333333
      value: {fileID: -2199265879133324384, guid: 5284a431043aead44ba309fff2688d72, type: 3}
    - time: 0.25
      value: {fileID: -9086076987446812041, guid: 5284a431043aead44ba309fff2688d72, type: 3}
    - time: 0.26666668
      value: {fileID: -1392831566678503814, guid: 5284a431043aead44ba309fff2688d72, type: 3}
    - time: 0.28333333
      value: {fileID: 6780879226565279388, guid: 5284a431043aead44ba309fff2688d72, type: 3}
    - time: 0.3
      value: {fileID: 4097411112846755629, guid: 5284a431043aead44ba309fff2688d72, type: 3}
    - time: 0.31666666
      value: {fileID: -1788231546594921247, guid: 5284a431043aead44ba309fff2688d72, type: 3}
    - time: 0.33333334
      value: {fileID: 3641728083282467453, guid: 5284a431043aead44ba309fff2688d72, type: 3}
    - time: 0.35
      value: {fileID: -2642080931648061142, guid: 5284a431043aead44ba309fff2688d72, type: 3}
    - time: 0.36666667
      value: {fileID: 5527661268914239561, guid: 5284a431043aead44ba309fff2688d72, type: 3}
    - time: 0.38333333
      value: {fileID: 148013620101143353, guid: 5284a431043aead44ba309fff2688d72, type: 3}
    - time: 0.4
      value: {fileID: -3581855576609568546, guid: 5284a431043aead44ba309fff2688d72, type: 3}
    - time: 0.41666666
      value: {fileID: -6764742300647865490, guid: 5284a431043aead44ba309fff2688d72, type: 3}
    - time: 0.43333334
      value: {fileID: 6376637799725999600, guid: 5284a431043aead44ba309fff2688d72, type: 3}
    - time: 0.45
      value: {fileID: -1527214916350649173, guid: 5284a431043aead44ba309fff2688d72, type: 3}
    - time: 0.46666667
      value: {fileID: -1527214916350649173, guid: 5284a431043aead44ba309fff2688d72, type: 3}
    - time: 0.48333332
      value: {fileID: 7076083414232228676, guid: 5284a431043aead44ba309fff2688d72, type: 3}
    - time: 0.5
      value: {fileID: 857101642358590633, guid: 5284a431043aead44ba309fff2688d72, type: 3}
    attribute: m_Sprite
    path: 
    classID: 114
    script: {fileID: 11500000, guid: fe87c0e1cc204ed48ad3b37840f39efc, type: 3}
  m_SampleRate: 60
  m_WrapMode: 0
  m_Bounds:
    m_Center: {x: 0, y: 0, z: 0}
    m_Extent: {x: 0, y: 0, z: 0}
  m_ClipBindingConstant:
    genericBindings:
    - serializedVersion: 2
      path: 0
      attribute: 2015549526
      script: {fileID: 11500000, guid: fe87c0e1cc204ed48ad3b37840f39efc, type: 3}
      typeID: 114
      customType: 0
      isPPtrCurve: 1
    pptrCurveMapping:
    - {fileID: -5436819727396454788, guid: 5284a431043aead44ba309fff2688d72, type: 3}
    - {fileID: -5436819727396454788, guid: 5284a431043aead44ba309fff2688d72, type: 3}
    - {fileID: -1255847528254088043, guid: 5284a431043aead44ba309fff2688d72, type: 3}
    - {fileID: 946858037929077382, guid: 5284a431043aead44ba309fff2688d72, type: 3}
    - {fileID: -1669942614801796369, guid: 5284a431043aead44ba309fff2688d72, type: 3}
    - {fileID: 4924844304385403133, guid: 5284a431043aead44ba309fff2688d72, type: 3}
    - {fileID: 7485802708801725505, guid: 5284a431043aead44ba309fff2688d72, type: 3}
    - {fileID: 9015588599319209966, guid: 5284a431043aead44ba309fff2688d72, type: 3}
    - {fileID: 6730716563824042283, guid: 5284a431043aead44ba309fff2688d72, type: 3}
    - {fileID: 3832485137828321743, guid: 5284a431043aead44ba309fff2688d72, type: 3}
    - {fileID: 3586980020675572762, guid: 5284a431043aead44ba309fff2688d72, type: 3}
    - {fileID: 2014063483570349916, guid: 5284a431043aead44ba309fff2688d72, type: 3}
    - {fileID: 226693125794015354, guid: 5284a431043aead44ba309fff2688d72, type: 3}
    - {fileID: -5574068377371119891, guid: 5284a431043aead44ba309fff2688d72, type: 3}
    - {fileID: -2199265879133324384, guid: 5284a431043aead44ba309fff2688d72, type: 3}
    - {fileID: -9086076987446812041, guid: 5284a431043aead44ba309fff2688d72, type: 3}
    - {fileID: -1392831566678503814, guid: 5284a431043aead44ba309fff2688d72, type: 3}
    - {fileID: 6780879226565279388, guid: 5284a431043aead44ba309fff2688d72, type: 3}
    - {fileID: 4097411112846755629, guid: 5284a431043aead44ba309fff2688d72, type: 3}
    - {fileID: -1788231546594921247, guid: 5284a431043aead44ba309fff2688d72, type: 3}
    - {fileID: 3641728083282467453, guid: 5284a431043aead44ba309fff2688d72, type: 3}
    - {fileID: -2642080931648061142, guid: 5284a431043aead44ba309fff2688d72, type: 3}
    - {fileID: 5527661268914239561, guid: 5284a431043aead44ba309fff2688d72, type: 3}
    - {fileID: 148013620101143353, guid: 5284a431043aead44ba309fff2688d72, type: 3}
    - {fileID: -3581855576609568546, guid: 5284a431043aead44ba309fff2688d72, type: 3}
    - {fileID: -6764742300647865490, guid: 5284a431043aead44ba309fff2688d72, type: 3}
    - {fileID: 6376637799725999600, guid: 5284a431043aead44ba309fff2688d72, type: 3}
    - {fileID: -1527214916350649173, guid: 5284a431043aead44ba309fff2688d72, type: 3}
    - {fileID: -1527214916350649173, guid: 5284a431043aead44ba309fff2688d72, type: 3}
    - {fileID: 7076083414232228676, guid: 5284a431043aead44ba309fff2688d72, type: 3}
    - {fileID: 857101642358590633, guid: 5284a431043aead44ba309fff2688d72, type: 3}
  m_AnimationClipSettings:
    serializedVersion: 2
    m_AdditiveReferencePoseClip: {fileID: 0}
    m_AdditiveReferencePoseTime: 0
    m_StartTime: 0
    m_StopTime: 0.51666665
    m_OrientationOffsetY: 0
    m_Level: 0
    m_CycleOffset: 0
    m_HasAdditiveReferencePose: 0
    m_LoopTime: 1
    m_LoopBlend: 0
    m_LoopBlendOrientation: 0
    m_LoopBlendPositionY: 0
    m_LoopBlendPositionXZ: 0
    m_KeepOriginalOrientation: 0
    m_KeepOriginalPositionY: 1
    m_KeepOriginalPositionXZ: 0
    m_HeightFromFeet: 0
    m_Mirror: 0
  m_EditorCurves: []
  m_EulerEditorCurves: []
  m_HasGenericRootTransform: 0
  m_HasMotionFloatCurves: 0
  m_Events: []
