%YAML 1.1
%TAG !u! tag:unity3d.com,2011:
--- !u!21 &2100000
Material:
  serializedVersion: 6
  m_ObjectHideFlags: 0
  m_CorrespondingSourceObject: {fileID: 0}
  m_PrefabInstance: {fileID: 0}
  m_PrefabAsset: {fileID: 0}
  m_Name: meshMaterialPass0
  m_Shader: {fileID: 4800000, guid: f4535d5bcc7c4e45b7fdcf3d539bced4, type: 3}
  m_ShaderKeywords: 
  m_LightmapFlags: 4
  m_EnableInstancingVariants: 0
  m_DoubleSidedGI: 0
  m_CustomRenderQueue: -1
  stringTagMap: {}
  disabledShaderPasses: []
  m_SavedProperties:
    serializedVersion: 3
    m_TexEnvs:
    - _MainTex:
        m_Texture: {fileID: 0}
        m_Scale: {x: 1, y: 1}
        m_Offset: {x: 0, y: 0}
    - _Mask0:
        m_Texture: {fileID: 0}
        m_Scale: {x: 1, y: 1}
        m_Offset: {x: 0, y: 0}
    - _Mask1:
        m_Texture: {fileID: 0}
        m_Scale: {x: 1, y: 1}
        m_Offset: {x: 0, y: 0}
    - _Mask2:
        m_Texture: {fileID: 0}
        m_Scale: {x: 1, y: 1}
        m_Offset: {x: 0, y: 0}
    - _Mask3:
        m_Texture: {fileID: 0}
        m_Scale: {x: 1, y: 1}
        m_Offset: {x: 0, y: 0}
    - _Normal0:
        m_Texture: {fileID: 0}
        m_Scale: {x: 1, y: 1}
        m_Offset: {x: 0, y: 0}
    - _Normal1:
        m_Texture: {fileID: 0}
        m_Scale: {x: 1, y: 1}
        m_Offset: {x: 0, y: 0}
    - _Normal2:
        m_Texture: {fileID: 0}
        m_Scale: {x: 1, y: 1}
        m_Offset: {x: 0, y: 0}
    - _Normal3:
        m_Texture: {fileID: 0}
        m_Scale: {x: 1, y: 1}
        m_Offset: {x: 0, y: 0}
    - _Splat0:
        m_Texture: {fileID: 2800000, guid: 49610e60c2112ba428498ab98401a2d6, type: 3}
        m_Scale: {x: 0.5, y: 0.5}
        m_Offset: {x: 0, y: 0}
    - _Splat1:
        m_Texture: {fileID: 0}
        m_Scale: {x: 1, y: 1}
        m_Offset: {x: 0, y: 0}
    - _Splat2:
        m_Texture: {fileID: 0}
        m_Scale: {x: 1, y: 1}
        m_Offset: {x: 0, y: 0}
    - _Splat3:
        m_Texture: {fileID: 0}
        m_Scale: {x: 1, y: 1}
        m_Offset: {x: 0, y: 0}
    m_Floats:
    - _EnableHeightBlend: 0
    - _HeightTransition: 0
    - _LayerHasMask0: 0
    - _LayerHasMask1: 0
    - _LayerHasMask2: 0
    - _LayerHasMask3: 0
    - _Metallic0: 0
    - _Metallic1: 0
    - _Metallic2: 0
    - _Metallic3: 0
    - _NormalScale0: 1
    - _NormalScale1: 1
    - _NormalScale2: 1
    - _NormalScale3: 1
    - _NumLayersCount: 1
    - _Smoothness0: 0
    - _Smoothness1: 0.5
    - _Smoothness2: 0.5
    - _Smoothness3: 0.5
    m_Colors:
    - _BaseColor: {r: 1, g: 1, b: 1, a: 1}
    - _DiffuseRemapScale0: {r: 1, g: 1, b: 1, a: 1}
    - _DiffuseRemapScale1: {r: 1, g: 1, b: 1, a: 1}
    - _DiffuseRemapScale2: {r: 1, g: 1, b: 1, a: 1}
    - _DiffuseRemapScale3: {r: 1, g: 1, b: 1, a: 1}
    - _MaskMapRemapOffset0: {r: 0, g: 0, b: 0, a: 0}
    - _MaskMapRemapOffset1: {r: 0, g: 0, b: 0, a: 0}
    - _MaskMapRemapOffset2: {r: 0, g: 0, b: 0, a: 0}
    - _MaskMapRemapOffset3: {r: 0, g: 0, b: 0, a: 0}
    - _MaskMapRemapScale0: {r: 1, g: 1, b: 1, a: 1}
    - _MaskMapRemapScale1: {r: 1, g: 1, b: 1, a: 1}
    - _MaskMapRemapScale2: {r: 1, g: 1, b: 1, a: 1}
    - _MaskMapRemapScale3: {r: 1, g: 1, b: 1, a: 1}
  m_BuildTextureStacks: []
