%YAML 1.1
%TAG !u! tag:unity3d.com,2011:
--- !u!21 &2100000
Material:
  serializedVersion: 6
  m_ObjectHideFlags: 0
  m_CorrespondingSourceObject: {fileID: 0}
  m_PrefabInstance: {fileID: 0}
  m_PrefabAsset: {fileID: 0}
  m_Name: MainMenu
  m_Shader: {fileID: 4800000, guid: 64b0353c78f90494db13ca1bd8b4fb6b, type: 3}
  m_ShaderKeywords: CLOUDS_OFF
  m_LightmapFlags: 5
  m_EnableInstancingVariants: 0
  m_DoubleSidedGI: 0
  m_CustomRenderQueue: 1000
  stringTagMap: {}
  disabledShaderPasses: []
  m_SavedProperties:
    serializedVersion: 3
    m_TexEnvs:
    - _CloudsTex:
        m_Texture: {fileID: 8900000, guid: d5d9dd79ad3016943b7f1ff5b201391e, type: 3}
        m_Scale: {x: 1, y: 1}
        m_Offset: {x: 0, y: 0}
    - _MoonTex:
        m_Texture: {fileID: 2800000, guid: 9e1c8edab15aa844082fcd05ad8b5d9f, type: 3}
        m_Scale: {x: 1, y: 1}
        m_Offset: {x: 0, y: 0}
    - _StarsTex:
        m_Texture: {fileID: 8900000, guid: 4d9b59a5208099541b49b0a8fcd22323, type: 3}
        m_Scale: {x: 1, y: 1}
        m_Offset: {x: 0, y: 0}
    - _StarsTwinklingTex:
        m_Texture: {fileID: 8900000, guid: d4680f2bc90bcbe418a597d3c9453fe9, type: 3}
        m_Scale: {x: 1, y: 1}
        m_Offset: {x: 0, y: 0}
    - _SunTex:
        m_Texture: {fileID: 2800000, guid: bec1a30e00a480146aef8d1d037a846c, type: 3}
        m_Scale: {x: 1, y: 1}
        m_Offset: {x: 0, y: 0}
    m_Floats:
    - _BottomExponent: 1
    - _CloudsHeight: 0
    - _CloudsRotation: 54.998734
    - _Exponent: 1
    - _Exposure: 1
    - _MoonHalo: 1
    - _MoonSize: 0.75
    - _StarsExtinction: 2
    - _StarsTwinklingSpeed: 4.6
    - _SunHalo: 1
    - _SunSize: 0.75
    - _TopExponent: 1
    m_Colors:
    - _BottomColor: {r: 0, g: 0, b: 0.007843138, a: 1}
    - _CloudsTint: {r: 0, g: 0, b: 0, a: 0}
    - _MiddleColor: {r: 0.9245283, g: 0.51607066, b: 0.23113208, a: 1}
    - _MoonTint: {r: 0.4039216, g: 0.47058827, b: 0.5294118, a: 0}
    - _SkyBottomColor: {r: 0.016868481, g: 0, b: 0.47794116, a: 0}
    - _SkyColor: {r: 0.03529412, g: 0.41960788, b: 0.59607846, a: 1}
    - _SkyColorBottom: {r: 0, g: 0, b: 0, a: 0}
    - _SkyColorTop: {r: 1, g: 0, b: 0, a: 0}
    - _SkyMiddleColor: {r: 1, g: 0.61764705, b: 0.9578093, a: 0}
    - _SkyTint: {r: 0.034482475, g: 0, b: 1, a: 1}
    - _SkyTopColor: {r: 0.2794118, g: 0.6421905, b: 1, a: 0}
    - _StarsTint: {r: 0.47058827, g: 0.47058827, b: 0.47058827, a: 0.5}
    - _SunTint: {r: 0.759804, g: 0.45539218, b: 0.6240196, a: 0}
    - _TopColor: {r: 0.03137255, g: 0.04705883, b: 0.20392159, a: 1}
  m_BuildTextureStacks: []
