%YAML 1.1
%TAG !u! tag:unity3d.com,2011:
--- !u!114 &-8575219301284216809
MonoBehaviour:
  m_ObjectHideFlags: 3
  m_CorrespondingSourceObject: {fileID: 0}
  m_PrefabInstance: {fileID: 0}
  m_PrefabAsset: {fileID: 0}
  m_GameObject: {fileID: 0}
  m_Enabled: 1
  m_EditorHideFlags: 0
  m_Script: {fileID: 11500000, guid: 0b2db86121404754db890f4c8dfe81b2, type: 3}
  m_Name: Bloom
  m_EditorClassIdentifier: 
  active: 1
  m_AdvancedMode: 0
  threshold:
    m_OverrideState: 1
    m_Value: 1.06
    min: 0
  intensity:
    m_OverrideState: 1
    m_Value: 2.97
    min: 0
  scatter:
    m_OverrideState: 0
    m_Value: 0
    min: 0
    max: 1
  clamp:
    m_OverrideState: 0
    m_Value: 65472
    min: 0
  tint:
    m_OverrideState: 1
    m_Value: {r: 1, g: 1, b: 1, a: 1}
    hdr: 0
    showAlpha: 0
    showEyeDropper: 1
  highQualityFiltering:
    m_OverrideState: 0
    m_Value: 0
  skipIterations:
    m_OverrideState: 0
    m_Value: 1
    min: 0
    max: 16
  dirtTexture:
    m_OverrideState: 0
    m_Value: {fileID: 2800000, guid: c50f13b664e31b442b6d365ac1093a43, type: 3}
  dirtIntensity:
    m_OverrideState: 1
    m_Value: 0.56
    min: 0
--- !u!114 &-4068197763413249032
MonoBehaviour:
  m_ObjectHideFlags: 3
  m_CorrespondingSourceObject: {fileID: 0}
  m_PrefabInstance: {fileID: 0}
  m_PrefabAsset: {fileID: 0}
  m_GameObject: {fileID: 0}
  m_Enabled: 1
  m_EditorHideFlags: 0
  m_Script: {fileID: 11500000, guid: 81180773991d8724ab7f2d216912b564, type: 3}
  m_Name: ChromaticAberration
  m_EditorClassIdentifier: 
  active: 0
  m_AdvancedMode: 0
  intensity:
    m_OverrideState: 1
    m_Value: 1
    min: 0
    max: 1
--- !u!114 &-1632112043538014580
MonoBehaviour:
  m_ObjectHideFlags: 3
  m_CorrespondingSourceObject: {fileID: 0}
  m_PrefabInstance: {fileID: 0}
  m_PrefabAsset: {fileID: 0}
  m_GameObject: {fileID: 0}
  m_Enabled: 1
  m_EditorHideFlags: 0
  m_Script: {fileID: 11500000, guid: c5e1dc532bcb41949b58bc4f2abfbb7e, type: 3}
  m_Name: LensDistortion
  m_EditorClassIdentifier: 
  active: 1
  m_AdvancedMode: 0
  intensity:
    m_OverrideState: 0
    m_Value: 0
    min: -1
    max: 1
  xMultiplier:
    m_OverrideState: 0
    m_Value: 1
    min: 0
    max: 1
  yMultiplier:
    m_OverrideState: 0
    m_Value: 1
    min: 0
    max: 1
  center:
    m_OverrideState: 0
    m_Value: {x: 0.5, y: 0.5}
  scale:
    m_OverrideState: 0
    m_Value: 1
    min: 0.01
    max: 5
--- !u!114 &-1155154515438815712
MonoBehaviour:
  m_ObjectHideFlags: 3
  m_CorrespondingSourceObject: {fileID: 0}
  m_PrefabInstance: {fileID: 0}
  m_PrefabAsset: {fileID: 0}
  m_GameObject: {fileID: 0}
  m_Enabled: 1
  m_EditorHideFlags: 0
  m_Script: {fileID: 11500000, guid: 221518ef91623a7438a71fef23660601, type: 3}
  m_Name: WhiteBalance
  m_EditorClassIdentifier: 
  active: 1
  m_AdvancedMode: 0
  temperature:
    m_OverrideState: 1
    m_Value: 0
    min: -100
    max: 100
  tint:
    m_OverrideState: 0
    m_Value: 0
    min: -100
    max: 100
--- !u!114 &11400000
MonoBehaviour:
  m_ObjectHideFlags: 0
  m_CorrespondingSourceObject: {fileID: 0}
  m_PrefabInstance: {fileID: 0}
  m_PrefabAsset: {fileID: 0}
  m_GameObject: {fileID: 0}
  m_Enabled: 1
  m_EditorHideFlags: 0
  m_Script: {fileID: 11500000, guid: d7fd9488000d3734a9e00ee676215985, type: 3}
  m_Name: Global Volume Profile
  m_EditorClassIdentifier: 
  components:
  - {fileID: 6231092104881893585}
  - {fileID: -8575219301284216809}
  - {fileID: -4068197763413249032}
  - {fileID: 8321302430437479987}
  - {fileID: 3657831182645754214}
  - {fileID: -1155154515438815712}
  - {fileID: 91619786968921885}
  - {fileID: 5903623056933310826}
  - {fileID: 5124547430916074936}
  - {fileID: -1632112043538014580}
--- !u!114 &91619786968921885
MonoBehaviour:
  m_ObjectHideFlags: 3
  m_CorrespondingSourceObject: {fileID: 0}
  m_PrefabInstance: {fileID: 0}
  m_PrefabAsset: {fileID: 0}
  m_GameObject: {fileID: 0}
  m_Enabled: 1
  m_EditorHideFlags: 0
  m_Script: {fileID: 11500000, guid: cdfbdbb87d3286943a057f7791b43141, type: 3}
  m_Name: ChannelMixer
  m_EditorClassIdentifier: 
  active: 0
  m_AdvancedMode: 0
  redOutRedIn:
    m_OverrideState: 1
    m_Value: 100
    min: -200
    max: 200
  redOutGreenIn:
    m_OverrideState: 0
    m_Value: 0
    min: -200
    max: 200
  redOutBlueIn:
    m_OverrideState: 0
    m_Value: 0
    min: -200
    max: 200
  greenOutRedIn:
    m_OverrideState: 0
    m_Value: 0
    min: -200
    max: 200
  greenOutGreenIn:
    m_OverrideState: 0
    m_Value: 100
    min: -200
    max: 200
  greenOutBlueIn:
    m_OverrideState: 0
    m_Value: 0
    min: -200
    max: 200
  blueOutRedIn:
    m_OverrideState: 0
    m_Value: 0
    min: -200
    max: 200
  blueOutGreenIn:
    m_OverrideState: 0
    m_Value: 0
    min: -200
    max: 200
  blueOutBlueIn:
    m_OverrideState: 0
    m_Value: 100
    min: -200
    max: 200
--- !u!114 &3657831182645754214
MonoBehaviour:
  m_ObjectHideFlags: 3
  m_CorrespondingSourceObject: {fileID: 0}
  m_PrefabInstance: {fileID: 0}
  m_PrefabAsset: {fileID: 0}
  m_GameObject: {fileID: 0}
  m_Enabled: 1
  m_EditorHideFlags: 0
  m_Script: {fileID: 11500000, guid: c01700fd266d6914ababb731e09af2eb, type: 3}
  m_Name: DepthOfField
  m_EditorClassIdentifier: 
  active: 0
  m_AdvancedMode: 0
  mode:
    m_OverrideState: 1
    m_Value: 1
  gaussianStart:
    m_OverrideState: 1
    m_Value: 0
    min: 0
  gaussianEnd:
    m_OverrideState: 1
    m_Value: 1500
    min: 0
  gaussianMaxRadius:
    m_OverrideState: 0
    m_Value: 1.012
    min: 0.5
    max: 1.5
  highQualitySampling:
    m_OverrideState: 0
    m_Value: 1
  focusDistance:
    m_OverrideState: 1
    m_Value: 17
    min: 0.1
  aperture:
    m_OverrideState: 1
    m_Value: 32
    min: 1
    max: 32
  focalLength:
    m_OverrideState: 1
    m_Value: 300
    min: 1
    max: 300
  bladeCount:
    m_OverrideState: 1
    m_Value: 9
    min: 3
    max: 9
  bladeCurvature:
    m_OverrideState: 1
    m_Value: 1
    min: 0
    max: 1
  bladeRotation:
    m_OverrideState: 1
    m_Value: 180
    min: -180
    max: 180
--- !u!114 &5124547430916074936
MonoBehaviour:
  m_ObjectHideFlags: 3
  m_CorrespondingSourceObject: {fileID: 0}
  m_PrefabInstance: {fileID: 0}
  m_PrefabAsset: {fileID: 0}
  m_GameObject: {fileID: 0}
  m_Enabled: 1
  m_EditorHideFlags: 0
  m_Script: {fileID: 11500000, guid: ccf1aba9553839d41ae37dd52e9ebcce, type: 3}
  m_Name: MotionBlur
  m_EditorClassIdentifier: 
  active: 0
  m_AdvancedMode: 0
  mode:
    m_OverrideState: 0
    m_Value: 0
  quality:
    m_OverrideState: 1
    m_Value: 0
  intensity:
    m_OverrideState: 1
    m_Value: 0.1
    min: 0
    max: 1
  clamp:
    m_OverrideState: 1
    m_Value: 0.013
    min: 0
    max: 0.2
--- !u!114 &5903623056933310826
MonoBehaviour:
  m_ObjectHideFlags: 3
  m_CorrespondingSourceObject: {fileID: 0}
  m_PrefabInstance: {fileID: 0}
  m_PrefabAsset: {fileID: 0}
  m_GameObject: {fileID: 0}
  m_Enabled: 1
  m_EditorHideFlags: 0
  m_Script: {fileID: 11500000, guid: 558a8e2b6826cf840aae193990ba9f2e, type: 3}
  m_Name: ShadowsMidtonesHighlights
  m_EditorClassIdentifier: 
  active: 0
  m_AdvancedMode: 0
  shadows:
    m_OverrideState: 0
    m_Value: {x: 0.9991361, y: 0.9849126, z: 1, w: 0.09966777}
  midtones:
    m_OverrideState: 0
    m_Value: {x: 1, y: 0.99850404, z: 0.9756708, w: -0.033222582}
  highlights:
    m_OverrideState: 0
    m_Value: {x: 1, y: 0.98699427, z: 0.9662628, w: -0.43189362}
  shadowsStart:
    m_OverrideState: 0
    m_Value: 0
    min: 0
  shadowsEnd:
    m_OverrideState: 0
    m_Value: 0.84
    min: 0
  highlightsStart:
    m_OverrideState: 0
    m_Value: 0.55
    min: 0
  highlightsEnd:
    m_OverrideState: 0
    m_Value: 1
    min: 0
--- !u!114 &6231092104881893585
MonoBehaviour:
  m_ObjectHideFlags: 3
  m_CorrespondingSourceObject: {fileID: 0}
  m_PrefabInstance: {fileID: 0}
  m_PrefabAsset: {fileID: 0}
  m_GameObject: {fileID: 0}
  m_Enabled: 1
  m_EditorHideFlags: 0
  m_Script: {fileID: 11500000, guid: 66f335fb1ffd8684294ad653bf1c7564, type: 3}
  m_Name: ColorAdjustments
  m_EditorClassIdentifier: 
  active: 0
  m_AdvancedMode: 0
  postExposure:
    m_OverrideState: 1
    m_Value: 0.19
  contrast:
    m_OverrideState: 1
    m_Value: 0
    min: -100
    max: 100
  colorFilter:
    m_OverrideState: 0
    m_Value: {r: 1, g: 0.9448714, b: 0.8915094, a: 1}
    hdr: 1
    showAlpha: 0
    showEyeDropper: 1
  hueShift:
    m_OverrideState: 0
    m_Value: -137
    min: -180
    max: 180
  saturation:
    m_OverrideState: 1
    m_Value: 7
    min: -100
    max: 100
--- !u!114 &8321302430437479987
MonoBehaviour:
  m_ObjectHideFlags: 3
  m_CorrespondingSourceObject: {fileID: 0}
  m_PrefabInstance: {fileID: 0}
  m_PrefabAsset: {fileID: 0}
  m_GameObject: {fileID: 0}
  m_Enabled: 1
  m_EditorHideFlags: 0
  m_Script: {fileID: 11500000, guid: 29fa0085f50d5e54f8144f766051a691, type: 3}
  m_Name: FilmGrain
  m_EditorClassIdentifier: 
  active: 0
  m_AdvancedMode: 0
  type:
    m_OverrideState: 1
    m_Value: 0
  intensity:
    m_OverrideState: 1
    m_Value: 0.308
    min: 0
    max: 1
  response:
    m_OverrideState: 1
    m_Value: 0.98
    min: 0
    max: 1
  texture:
    m_OverrideState: 0
    m_Value: {fileID: 0}
