# Blender v2.92.0 OBJ File: 'Tangent.blend'
# www.blender.org
mtllib Sine.mtl
g Sine_Z_Function.002
v -3.141595 0.000002 1.000000
v -3.141595 0.000002 0.000000
v -3.141595 0.000002 -1.000000
v -3.013366 -0.127875 1.000000
v -3.013366 -0.127875 0.000000
v -3.013366 -0.127875 -1.000000
v -2.885138 -0.253653 1.000000
v -2.885138 -0.253653 0.000000
v -2.885138 -0.253653 -1.000000
v -2.756910 -0.375265 1.000000
v -2.756910 -0.375265 0.000000
v -2.756910 -0.375265 -1.000000
v -2.628681 -0.490716 1.000000
v -2.628681 -0.490716 0.000000
v -2.628681 -0.490716 -1.000000
v -2.500453 -0.598109 1.000000
v -2.500453 -0.598109 0.000000
v -2.500453 -0.598109 -1.000000
v -2.372225 -0.695681 1.000000
v -2.372225 -0.695681 0.000000
v -2.372225 -0.695681 -1.000000
v -2.243996 -0.781830 1.000000
v -2.243996 -0.781830 0.000000
v -2.243996 -0.781830 -1.000000
v -2.115768 -0.855142 1.000000
v -2.115768 -0.855142 0.000000
v -2.115768 -0.855142 -1.000000
v -1.987540 -0.914412 1.000000
v -1.987540 -0.914412 0.000000
v -1.987540 -0.914412 -1.000000
v -1.859311 -0.958667 1.000000
v -1.859311 -0.958667 0.000000
v -1.859311 -0.958667 -1.000000
v -1.731083 -0.987182 1.000000
v -1.731083 -0.987182 0.000000
v -1.731083 -0.987182 -1.000000
v -1.602854 -0.999486 1.000000
v -1.602854 -0.999486 0.000000
v -1.602854 -0.999486 -1.000000
v -1.474626 -0.995379 1.000000
v -1.474626 -0.995379 0.000000
v -1.474626 -0.995379 -1.000000
v -1.346398 -0.974928 1.000000
v -1.346398 -0.974928 0.000000
v -1.346398 -0.974928 -1.000000
v -1.218169 -0.938469 1.000000
v -1.218169 -0.938469 0.000000
v -1.218169 -0.938469 -1.000000
v -1.089941 -0.886600 1.000000
v -1.089941 -0.886600 0.000000
v -1.089941 -0.886600 -1.000000
v -0.961713 -0.820173 1.000000
v -0.961713 -0.820173 0.000000
v -0.961713 -0.820173 -1.000000
v -0.833484 -0.740278 1.000000
v -0.833484 -0.740278 0.000000
v -0.833484 -0.740278 -1.000000
v -0.705256 -0.648229 1.000000
v -0.705256 -0.648229 0.000000
v -0.705256 -0.648229 -1.000000
v -0.577028 -0.545535 1.000000
v -0.577028 -0.545535 0.000000
v -0.577028 -0.545535 -1.000000
v -0.448799 -0.433884 1.000000
v -0.448799 -0.433884 0.000000
v -0.448799 -0.433884 -1.000000
v -0.320571 -0.315108 1.000000
v -0.320571 -0.315108 0.000000
v -0.320571 -0.315108 -1.000000
v -0.192343 -0.191159 1.000000
v -0.192343 -0.191159 0.000000
v -0.192343 -0.191159 -1.000000
v -0.064114 -0.064070 1.000000
v -0.064114 -0.064070 0.000000
v -0.064114 -0.064070 -1.000000
v 0.064114 0.064070 1.000000
v 0.064114 0.064070 0.000000
v 0.064114 0.064070 -1.000000
v 0.192343 0.191159 1.000000
v 0.192343 0.191159 0.000000
v 0.192343 0.191159 -1.000000
v 0.320571 0.315108 1.000000
v 0.320571 0.315108 0.000000
v 0.320571 0.315108 -1.000000
v 0.448799 0.433884 1.000000
v 0.448799 0.433884 0.000000
v 0.448799 0.433884 -1.000000
v 0.577028 0.545535 1.000000
v 0.577028 0.545535 0.000000
v 0.577028 0.545535 -1.000000
v 0.705256 0.648229 1.000000
v 0.705256 0.648229 0.000000
v 0.705256 0.648229 -1.000000
v 0.833484 0.740278 1.000000
v 0.833484 0.740278 0.000000
v 0.833484 0.740278 -1.000000
v 0.961713 0.820173 1.000000
v 0.961713 0.820173 0.000000
v 0.961713 0.820173 -1.000000
v 1.089941 0.886600 1.000000
v 1.089941 0.886600 0.000000
v 1.089941 0.886600 -1.000000
v 1.218169 0.938469 1.000000
v 1.218169 0.938469 0.000000
v 1.218169 0.938469 -1.000000
v 1.346398 0.974928 1.000000
v 1.346398 0.974928 0.000000
v 1.346398 0.974928 -1.000000
v 1.474626 0.995379 1.000000
v 1.474626 0.995379 0.000000
v 1.474626 0.995379 -1.000000
v 1.602854 0.999486 1.000000
v 1.602854 0.999486 0.000000
v 1.602854 0.999486 -1.000000
v 1.731083 0.987182 1.000000
v 1.731083 0.987182 0.000000
v 1.731083 0.987182 -1.000000
v 1.859311 0.958667 1.000000
v 1.859311 0.958667 0.000000
v 1.859311 0.958667 -1.000000
v 1.987540 0.914412 1.000000
v 1.987540 0.914412 0.000000
v 1.987540 0.914412 -1.000000
v 2.115768 0.855142 1.000000
v 2.115768 0.855142 0.000000
v 2.115768 0.855142 -1.000000
v 2.243996 0.781830 1.000000
v 2.243996 0.781830 0.000000
v 2.243996 0.781830 -1.000000
v 2.372225 0.695681 1.000000
v 2.372225 0.695681 0.000000
v 2.372225 0.695681 -1.000000
v 2.500453 0.598109 1.000000
v 2.500453 0.598109 0.000000
v 2.500453 0.598109 -1.000000
v 2.628681 0.490716 1.000000
v 2.628681 0.490716 0.000000
v 2.628681 0.490716 -1.000000
v 2.756910 0.375265 1.000000
v 2.756910 0.375265 0.000000
v 2.756910 0.375265 -1.000000
v 2.885138 0.253653 1.000000
v 2.885138 0.253653 0.000000
v 2.885138 0.253653 -1.000000
v 3.013366 0.127875 1.000000
v 3.013366 0.127875 0.000000
v 3.013366 0.127875 -1.000000
v 3.141595 -0.000002 1.000000
v 3.141595 -0.000002 0.000000
v 3.141595 -0.000002 -1.000000
v -3.141595 0.000002 1.000000
v -3.141595 0.000002 0.000000
v -3.141595 0.000002 -1.000000
v -3.013366 -0.127875 1.000000
v -3.013366 -0.127875 0.000000
v -3.013366 -0.127875 -1.000000
v -2.885138 -0.253653 1.000000
v -2.885138 -0.253653 0.000000
v -2.885138 -0.253653 -1.000000
v -2.756910 -0.375265 1.000000
v -2.756910 -0.375265 0.000000
v -2.756910 -0.375265 -1.000000
v -2.628681 -0.490716 1.000000
v -2.628681 -0.490716 0.000000
v -2.628681 -0.490716 -1.000000
v -2.500453 -0.598109 1.000000
v -2.500453 -0.598109 0.000000
v -2.500453 -0.598109 -1.000000
v -2.372225 -0.695681 1.000000
v -2.372225 -0.695681 0.000000
v -2.372225 -0.695681 -1.000000
v -2.243996 -0.781830 1.000000
v -2.243996 -0.781830 0.000000
v -2.243996 -0.781830 -1.000000
v -2.115768 -0.855142 1.000000
v -2.115768 -0.855142 0.000000
v -2.115768 -0.855142 -1.000000
v -1.987540 -0.914412 1.000000
v -1.987540 -0.914412 0.000000
v -1.987540 -0.914412 -1.000000
v -1.859311 -0.958667 1.000000
v -1.859311 -0.958667 0.000000
v -1.859311 -0.958667 -1.000000
v -1.731083 -0.987182 1.000000
v -1.731083 -0.987182 0.000000
v -1.731083 -0.987182 -1.000000
v -1.602854 -0.999486 1.000000
v -1.602854 -0.999486 0.000000
v -1.602854 -0.999486 -1.000000
v -1.474626 -0.995379 1.000000
v -1.474626 -0.995379 0.000000
v -1.474626 -0.995379 -1.000000
v -1.346398 -0.974928 1.000000
v -1.346398 -0.974928 0.000000
v -1.346398 -0.974928 -1.000000
v -1.218169 -0.938469 1.000000
v -1.218169 -0.938469 0.000000
v -1.218169 -0.938469 -1.000000
v -1.089941 -0.886600 1.000000
v -1.089941 -0.886600 0.000000
v -1.089941 -0.886600 -1.000000
v -0.961713 -0.820173 1.000000
v -0.961713 -0.820173 0.000000
v -0.961713 -0.820173 -1.000000
v -0.833484 -0.740278 1.000000
v -0.833484 -0.740278 0.000000
v -0.833484 -0.740278 -1.000000
v -0.705256 -0.648229 1.000000
v -0.705256 -0.648229 0.000000
v -0.705256 -0.648229 -1.000000
v -0.577028 -0.545535 1.000000
v -0.577028 -0.545535 0.000000
v -0.577028 -0.545535 -1.000000
v -0.448799 -0.433884 1.000000
v -0.448799 -0.433884 0.000000
v -0.448799 -0.433884 -1.000000
v -0.320571 -0.315108 1.000000
v -0.320571 -0.315108 0.000000
v -0.320571 -0.315108 -1.000000
v -0.192343 -0.191159 1.000000
v -0.192343 -0.191159 0.000000
v -0.192343 -0.191159 -1.000000
v -0.064114 -0.064070 1.000000
v -0.064114 -0.064070 0.000000
v -0.064114 -0.064070 -1.000000
v 0.064114 0.064070 1.000000
v 0.064114 0.064070 0.000000
v 0.064114 0.064070 -1.000000
v 0.192343 0.191159 1.000000
v 0.192343 0.191159 0.000000
v 0.192343 0.191159 -1.000000
v 0.320571 0.315108 1.000000
v 0.320571 0.315108 0.000000
v 0.320571 0.315108 -1.000000
v 0.448799 0.433884 1.000000
v 0.448799 0.433884 0.000000
v 0.448799 0.433884 -1.000000
v 0.577028 0.545535 1.000000
v 0.577028 0.545535 0.000000
v 0.577028 0.545535 -1.000000
v 0.705256 0.648229 1.000000
v 0.705256 0.648229 0.000000
v 0.705256 0.648229 -1.000000
v 0.833484 0.740278 1.000000
v 0.833484 0.740278 0.000000
v 0.833484 0.740278 -1.000000
v 0.961713 0.820173 1.000000
v 0.961713 0.820173 0.000000
v 0.961713 0.820173 -1.000000
v 1.089941 0.886600 1.000000
v 1.089941 0.886600 0.000000
v 1.089941 0.886600 -1.000000
v 1.218169 0.938469 1.000000
v 1.218169 0.938469 0.000000
v 1.218169 0.938469 -1.000000
v 1.346398 0.974928 1.000000
v 1.346398 0.974928 0.000000
v 1.346398 0.974928 -1.000000
v 1.474626 0.995379 1.000000
v 1.474626 0.995379 0.000000
v 1.474626 0.995379 -1.000000
v 1.602854 0.999486 1.000000
v 1.602854 0.999486 0.000000
v 1.602854 0.999486 -1.000000
v 1.731083 0.987182 1.000000
v 1.731083 0.987182 0.000000
v 1.731083 0.987182 -1.000000
v 1.859311 0.958667 1.000000
v 1.859311 0.958667 0.000000
v 1.859311 0.958667 -1.000000
v 1.987540 0.914412 1.000000
v 1.987540 0.914412 0.000000
v 1.987540 0.914412 -1.000000
v 2.115768 0.855142 1.000000
v 2.115768 0.855142 0.000000
v 2.115768 0.855142 -1.000000
v 2.243996 0.781830 1.000000
v 2.243996 0.781830 0.000000
v 2.243996 0.781830 -1.000000
v 2.372225 0.695681 1.000000
v 2.372225 0.695681 0.000000
v 2.372225 0.695681 -1.000000
v 2.500453 0.598109 1.000000
v 2.500453 0.598109 0.000000
v 2.500453 0.598109 -1.000000
v 2.628681 0.490716 1.000000
v 2.628681 0.490716 0.000000
v 2.628681 0.490716 -1.000000
v 2.756910 0.375265 1.000000
v 2.756910 0.375265 0.000000
v 2.756910 0.375265 -1.000000
v 2.885138 0.253653 1.000000
v 2.885138 0.253653 0.000000
v 2.885138 0.253653 -1.000000
v 3.013366 0.127875 1.000000
v 3.013366 0.127875 0.000000
v 3.013366 0.127875 -1.000000
v 3.141595 -0.000002 1.000000
v 3.141595 -0.000002 0.000000
v 3.141595 -0.000002 -1.000000
vn 0.7061 0.7081 0.0000
vn 0.7003 0.7139 0.0000
vn 0.6881 0.7256 0.0000
vn 0.6691 0.7432 0.0000
vn 0.6421 0.7666 0.0000
vn 0.6056 0.7958 0.0000
vn 0.5577 0.8301 0.0000
vn 0.4963 0.8681 0.0000
vn 0.4196 0.9077 0.0000
vn 0.3262 0.9453 0.0000
vn 0.2171 0.9762 0.0000
vn 0.0955 0.9954 0.0000
vn -0.0320 0.9995 0.0000
vn -0.1575 0.9875 0.0000
vn -0.2735 0.9619 0.0000
vn -0.3750 0.9270 0.0000
vn -0.4600 0.8879 0.0000
vn -0.5288 0.8487 0.0000
vn -0.5832 0.8124 0.0000
vn -0.6251 0.7805 0.0000
vn -0.6567 0.7542 0.0000
vn -0.6795 0.7336 0.0000
vn -0.6950 0.7190 0.0000
vn -0.7039 0.7103 0.0000
vn -0.7069 0.7073 0.0000
vn -0.7061 -0.7081 0.0000
vn -0.7003 -0.7139 0.0000
vn -0.6881 -0.7256 0.0000
vn -0.6691 -0.7432 0.0000
vn -0.6421 -0.7666 0.0000
vn -0.6056 -0.7958 0.0000
vn -0.5577 -0.8301 0.0000
vn -0.4963 -0.8681 0.0000
vn -0.4196 -0.9077 0.0000
vn -0.3262 -0.9453 0.0000
vn -0.2171 -0.9762 0.0000
vn -0.0955 -0.9954 0.0000
vn 0.0320 -0.9995 0.0000
vn 0.1575 -0.9875 0.0000
vn 0.2735 -0.9619 0.0000
vn 0.3750 -0.9270 0.0000
vn 0.4600 -0.8879 0.0000
vn 0.5288 -0.8487 0.0000
vn 0.5832 -0.8124 0.0000
vn 0.6251 -0.7805 0.0000
vn 0.6567 -0.7542 0.0000
vn 0.6795 -0.7336 0.0000
vn 0.6950 -0.7190 0.0000
vn 0.7039 -0.7103 0.0000
vn 0.7069 -0.7073 0.0000
usemtl None
s off
f 4//1 2//1 1//1
f 5//1 3//1 2//1
f 7//2 5//2 4//2
f 8//2 6//2 5//2
f 10//3 8//3 7//3
f 11//3 9//3 8//3
f 13//4 11//4 10//4
f 14//4 12//4 11//4
f 16//5 14//5 13//5
f 17//5 15//5 14//5
f 19//6 17//6 16//6
f 20//6 18//6 17//6
f 22//7 20//7 19//7
f 23//7 21//7 20//7
f 25//8 23//8 22//8
f 26//8 24//8 23//8
f 28//9 26//9 25//9
f 29//9 27//9 26//9
f 31//10 29//10 28//10
f 32//10 30//10 29//10
f 34//11 32//11 31//11
f 35//11 33//11 32//11
f 37//12 35//12 34//12
f 38//12 36//12 35//12
f 40//13 38//13 37//13
f 41//13 39//13 38//13
f 43//14 41//14 40//14
f 44//14 42//14 41//14
f 46//15 44//15 43//15
f 47//15 45//15 44//15
f 49//16 47//16 46//16
f 50//16 48//16 47//16
f 52//17 50//17 49//17
f 53//17 51//17 50//17
f 55//18 53//18 52//18
f 56//18 54//18 53//18
f 58//19 56//19 55//19
f 59//19 57//19 56//19
f 61//20 59//20 58//20
f 62//20 60//20 59//20
f 64//21 62//21 61//21
f 65//21 63//21 62//21
f 67//22 65//22 64//22
f 68//22 66//22 65//22
f 70//23 68//23 67//23
f 71//23 69//23 68//23
f 73//24 71//24 70//24
f 74//24 72//24 71//24
f 76//25 74//25 73//25
f 77//25 75//25 74//25
f 79//24 77//24 76//24
f 80//24 78//24 77//24
f 82//23 80//23 79//23
f 83//23 81//23 80//23
f 85//22 83//22 82//22
f 86//22 84//22 83//22
f 88//21 86//21 85//21
f 89//21 87//21 86//21
f 91//20 89//20 88//20
f 92//20 90//20 89//20
f 94//19 92//19 91//19
f 95//19 93//19 92//19
f 97//18 95//18 94//18
f 98//18 96//18 95//18
f 100//17 98//17 97//17
f 101//17 99//17 98//17
f 103//16 101//16 100//16
f 104//16 102//16 101//16
f 106//15 104//15 103//15
f 107//15 105//15 104//15
f 109//14 107//14 106//14
f 110//14 108//14 107//14
f 112//13 110//13 109//13
f 113//13 111//13 110//13
f 115//12 113//12 112//12
f 116//12 114//12 113//12
f 118//11 116//11 115//11
f 119//11 117//11 116//11
f 121//10 119//10 118//10
f 122//10 120//10 119//10
f 124//9 122//9 121//9
f 125//9 123//9 122//9
f 127//8 125//8 124//8
f 128//8 126//8 125//8
f 130//7 128//7 127//7
f 131//7 129//7 128//7
f 133//6 131//6 130//6
f 134//6 132//6 131//6
f 136//5 134//5 133//5
f 137//5 135//5 134//5
f 139//4 137//4 136//4
f 140//4 138//4 137//4
f 142//3 140//3 139//3
f 143//3 141//3 140//3
f 145//2 143//2 142//2
f 146//2 144//2 143//2
f 148//1 146//1 145//1
f 149//1 147//1 146//1
f 152//26 154//26 151//26
f 153//26 155//26 152//26
f 155//27 157//27 154//27
f 156//27 158//27 155//27
f 158//28 160//28 157//28
f 159//28 161//28 158//28
f 161//29 163//29 160//29
f 162//29 164//29 161//29
f 164//30 166//30 163//30
f 165//30 167//30 164//30
f 167//31 169//31 166//31
f 168//31 170//31 167//31
f 170//32 172//32 169//32
f 171//32 173//32 170//32
f 173//33 175//33 172//33
f 174//33 176//33 173//33
f 176//34 178//34 175//34
f 177//34 179//34 176//34
f 179//35 181//35 178//35
f 180//35 182//35 179//35
f 182//36 184//36 181//36
f 183//36 185//36 182//36
f 185//37 187//37 184//37
f 186//37 188//37 185//37
f 188//38 190//38 187//38
f 189//38 191//38 188//38
f 191//39 193//39 190//39
f 192//39 194//39 191//39
f 194//40 196//40 193//40
f 195//40 197//40 194//40
f 197//41 199//41 196//41
f 198//41 200//41 197//41
f 200//42 202//42 199//42
f 201//42 203//42 200//42
f 203//43 205//43 202//43
f 204//43 206//43 203//43
f 206//44 208//44 205//44
f 207//44 209//44 206//44
f 209//45 211//45 208//45
f 210//45 212//45 209//45
f 212//46 214//46 211//46
f 213//46 215//46 212//46
f 215//47 217//47 214//47
f 216//47 218//47 215//47
f 218//48 220//48 217//48
f 219//48 221//48 218//48
f 221//49 223//49 220//49
f 222//49 224//49 221//49
f 224//50 226//50 223//50
f 225//50 227//50 224//50
f 227//49 229//49 226//49
f 228//49 230//49 227//49
f 230//48 232//48 229//48
f 231//48 233//48 230//48
f 233//47 235//47 232//47
f 234//47 236//47 233//47
f 236//46 238//46 235//46
f 237//46 239//46 236//46
f 239//45 241//45 238//45
f 240//45 242//45 239//45
f 242//44 244//44 241//44
f 243//44 245//44 242//44
f 245//43 247//43 244//43
f 246//43 248//43 245//43
f 248//42 250//42 247//42
f 249//42 251//42 248//42
f 251//41 253//41 250//41
f 252//41 254//41 251//41
f 254//40 256//40 253//40
f 255//40 257//40 254//40
f 257//39 259//39 256//39
f 258//39 260//39 257//39
f 260//38 262//38 259//38
f 261//38 263//38 260//38
f 263//37 265//37 262//37
f 264//37 266//37 263//37
f 266//36 268//36 265//36
f 267//36 269//36 266//36
f 269//35 271//35 268//35
f 270//35 272//35 269//35
f 272//34 274//34 271//34
f 273//34 275//34 272//34
f 275//33 277//33 274//33
f 276//33 278//33 275//33
f 278//32 280//32 277//32
f 279//32 281//32 278//32
f 281//31 283//31 280//31
f 282//31 284//31 281//31
f 284//30 286//30 283//30
f 285//30 287//30 284//30
f 287//29 289//29 286//29
f 288//29 290//29 287//29
f 290//28 292//28 289//28
f 291//28 293//28 290//28
f 293//27 295//27 292//27
f 294//27 296//27 293//27
f 296//26 298//26 295//26
f 297//26 299//26 296//26
f 4//1 5//1 2//1
f 5//1 6//1 3//1
f 7//2 8//2 5//2
f 8//2 9//2 6//2
f 10//3 11//3 8//3
f 11//3 12//3 9//3
f 13//4 14//4 11//4
f 14//4 15//4 12//4
f 16//5 17//5 14//5
f 17//5 18//5 15//5
f 19//6 20//6 17//6
f 20//6 21//6 18//6
f 22//7 23//7 20//7
f 23//7 24//7 21//7
f 25//8 26//8 23//8
f 26//8 27//8 24//8
f 28//9 29//9 26//9
f 29//9 30//9 27//9
f 31//10 32//10 29//10
f 32//10 33//10 30//10
f 34//11 35//11 32//11
f 35//11 36//11 33//11
f 37//12 38//12 35//12
f 38//12 39//12 36//12
f 40//13 41//13 38//13
f 41//13 42//13 39//13
f 43//14 44//14 41//14
f 44//14 45//14 42//14
f 46//15 47//15 44//15
f 47//15 48//15 45//15
f 49//16 50//16 47//16
f 50//16 51//16 48//16
f 52//17 53//17 50//17
f 53//17 54//17 51//17
f 55//18 56//18 53//18
f 56//18 57//18 54//18
f 58//19 59//19 56//19
f 59//19 60//19 57//19
f 61//20 62//20 59//20
f 62//20 63//20 60//20
f 64//21 65//21 62//21
f 65//21 66//21 63//21
f 67//22 68//22 65//22
f 68//22 69//22 66//22
f 70//23 71//23 68//23
f 71//23 72//23 69//23
f 73//24 74//24 71//24
f 74//24 75//24 72//24
f 76//25 77//25 74//25
f 77//25 78//25 75//25
f 79//24 80//24 77//24
f 80//24 81//24 78//24
f 82//23 83//23 80//23
f 83//23 84//23 81//23
f 85//22 86//22 83//22
f 86//22 87//22 84//22
f 88//21 89//21 86//21
f 89//21 90//21 87//21
f 91//20 92//20 89//20
f 92//20 93//20 90//20
f 94//19 95//19 92//19
f 95//19 96//19 93//19
f 97//18 98//18 95//18
f 98//18 99//18 96//18
f 100//17 101//17 98//17
f 101//17 102//17 99//17
f 103//16 104//16 101//16
f 104//16 105//16 102//16
f 106//15 107//15 104//15
f 107//15 108//15 105//15
f 109//14 110//14 107//14
f 110//14 111//14 108//14
f 112//13 113//13 110//13
f 113//13 114//13 111//13
f 115//12 116//12 113//12
f 116//12 117//12 114//12
f 118//11 119//11 116//11
f 119//11 120//11 117//11
f 121//10 122//10 119//10
f 122//10 123//10 120//10
f 124//9 125//9 122//9
f 125//9 126//9 123//9
f 127//8 128//8 125//8
f 128//8 129//8 126//8
f 130//7 131//7 128//7
f 131//7 132//7 129//7
f 133//6 134//6 131//6
f 134//6 135//6 132//6
f 136//5 137//5 134//5
f 137//5 138//5 135//5
f 139//4 140//4 137//4
f 140//4 141//4 138//4
f 142//3 143//3 140//3
f 143//3 144//3 141//3
f 145//2 146//2 143//2
f 146//2 147//2 144//2
f 148//1 149//1 146//1
f 149//1 150//1 147//1
f 152//26 155//26 154//26
f 153//26 156//26 155//26
f 155//27 158//27 157//27
f 156//27 159//27 158//27
f 158//28 161//28 160//28
f 159//28 162//28 161//28
f 161//29 164//29 163//29
f 162//29 165//29 164//29
f 164//30 167//30 166//30
f 165//30 168//30 167//30
f 167//31 170//31 169//31
f 168//31 171//31 170//31
f 170//32 173//32 172//32
f 171//32 174//32 173//32
f 173//33 176//33 175//33
f 174//33 177//33 176//33
f 176//34 179//34 178//34
f 177//34 180//34 179//34
f 179//35 182//35 181//35
f 180//35 183//35 182//35
f 182//36 185//36 184//36
f 183//36 186//36 185//36
f 185//37 188//37 187//37
f 186//37 189//37 188//37
f 188//38 191//38 190//38
f 189//38 192//38 191//38
f 191//39 194//39 193//39
f 192//39 195//39 194//39
f 194//40 197//40 196//40
f 195//40 198//40 197//40
f 197//41 200//41 199//41
f 198//41 201//41 200//41
f 200//42 203//42 202//42
f 201//42 204//42 203//42
f 203//43 206//43 205//43
f 204//43 207//43 206//43
f 206//44 209//44 208//44
f 207//44 210//44 209//44
f 209//45 212//45 211//45
f 210//45 213//45 212//45
f 212//46 215//46 214//46
f 213//46 216//46 215//46
f 215//47 218//47 217//47
f 216//47 219//47 218//47
f 218//48 221//48 220//48
f 219//48 222//48 221//48
f 221//49 224//49 223//49
f 222//49 225//49 224//49
f 224//50 227//50 226//50
f 225//50 228//50 227//50
f 227//49 230//49 229//49
f 228//49 231//49 230//49
f 230//48 233//48 232//48
f 231//48 234//48 233//48
f 233//47 236//47 235//47
f 234//47 237//47 236//47
f 236//46 239//46 238//46
f 237//46 240//46 239//46
f 239//45 242//45 241//45
f 240//45 243//45 242//45
f 242//44 245//44 244//44
f 243//44 246//44 245//44
f 245//43 248//43 247//43
f 246//43 249//43 248//43
f 248//42 251//42 250//42
f 249//42 252//42 251//42
f 251//41 254//41 253//41
f 252//41 255//41 254//41
f 254//40 257//40 256//40
f 255//40 258//40 257//40
f 257//39 260//39 259//39
f 258//39 261//39 260//39
f 260//38 263//38 262//38
f 261//38 264//38 263//38
f 263//37 266//37 265//37
f 264//37 267//37 266//37
f 266//36 269//36 268//36
f 267//36 270//36 269//36
f 269//35 272//35 271//35
f 270//35 273//35 272//35
f 272//34 275//34 274//34
f 273//34 276//34 275//34
f 275//33 278//33 277//33
f 276//33 279//33 278//33
f 278//32 281//32 280//32
f 279//32 282//32 281//32
f 281//31 284//31 283//31
f 282//31 285//31 284//31
f 284//30 287//30 286//30
f 285//30 288//30 287//30
f 287//29 290//29 289//29
f 288//29 291//29 290//29
f 290//28 293//28 292//28
f 291//28 294//28 293//28
f 293//27 296//27 295//27
f 294//27 297//27 296//27
f 296//26 299//26 298//26
f 297//26 300//26 299//26
