%YAML 1.1
%TAG !u! tag:unity3d.com,2011:
--- !u!21 &2100000
Material:
  serializedVersion: 6
  m_ObjectHideFlags: 0
  m_CorrespondingSourceObject: {fileID: 0}
  m_PrefabInstance: {fileID: 0}
  m_PrefabAsset: {fileID: 0}
  m_Name: meshMaterialPass0
  m_Shader: {fileID: 4800000, guid: f4535d5bcc7c4e45b7fdcf3d539bced4, type: 3}
  m_ShaderKeywords: _NORMALMAP
  m_LightmapFlags: 4
  m_EnableInstancingVariants: 0
  m_DoubleSidedGI: 0
  m_CustomRenderQueue: -1
  stringTagMap: {}
  disabledShaderPasses: []
  m_SavedProperties:
    serializedVersion: 3
    m_TexEnvs:
    - _MainTex:
        m_Texture: {fileID: 0}
        m_Scale: {x: 1, y: 1}
        m_Offset: {x: 0, y: 0}
    - _Mask0:
        m_Texture: {fileID: 0}
        m_Scale: {x: 1, y: 1}
        m_Offset: {x: 0, y: 0}
    - _Mask1:
        m_Texture: {fileID: 0}
        m_Scale: {x: 1, y: 1}
        m_Offset: {x: 0, y: 0}
    - _Mask2:
        m_Texture: {fileID: 0}
        m_Scale: {x: 1, y: 1}
        m_Offset: {x: 0, y: 0}
    - _Mask3:
        m_Texture: {fileID: 0}
        m_Scale: {x: 1, y: 1}
        m_Offset: {x: 0, y: 0}
    - _Normal0:
        m_Texture: {fileID: 2800000, guid: 05855b945c86a334e94b65d83f554a9b, type: 3}
        m_Scale: {x: 1, y: 1}
        m_Offset: {x: 0, y: 0}
    - _Normal1:
        m_Texture: {fileID: 2800000, guid: 2502f75b288b9c34498455d97bc28811, type: 3}
        m_Scale: {x: 1, y: 1}
        m_Offset: {x: 0, y: 0}
    - _Normal2:
        m_Texture: {fileID: 2800000, guid: a8357f570a301b944ba1cc333e5e2fc4, type: 3}
        m_Scale: {x: 1, y: 1}
        m_Offset: {x: 0, y: 0}
    - _Normal3:
        m_Texture: {fileID: 2800000, guid: e24988a87c2274b46af8edae5996bbae, type: 3}
        m_Scale: {x: 1, y: 1}
        m_Offset: {x: 0, y: 0}
    - _Splat0:
        m_Texture: {fileID: 2800000, guid: f57ac3f3902c84a4e89778ff0c7f7118, type: 3}
        m_Scale: {x: 0.05, y: 0.05}
        m_Offset: {x: 0, y: 0}
    - _Splat1:
        m_Texture: {fileID: 2800000, guid: 34747b8529f143c48a347ad5aef7f8df, type: 3}
        m_Scale: {x: 1, y: 1}
        m_Offset: {x: 0, y: 0}
    - _Splat2:
        m_Texture: {fileID: 2800000, guid: 46e310ace67b277409d16b8054a68e97, type: 3}
        m_Scale: {x: 0.033333335, y: 0.033333335}
        m_Offset: {x: 0, y: 0}
    - _Splat3:
        m_Texture: {fileID: 2800000, guid: 81875279b4a1ac6409fadb17f31492e1, type: 3}
        m_Scale: {x: 0.05, y: 0.05}
        m_Offset: {x: 20, y: 20}
    m_Floats:
    - _EnableHeightBlend: 0
    - _HeightTransition: 0
    - _LayerHasMask0: 0
    - _LayerHasMask1: 0
    - _LayerHasMask2: 0
    - _LayerHasMask3: 0
    - _Metallic0: 0
    - _Metallic1: 0
    - _Metallic2: 0
    - _Metallic3: 0.35
    - _NormalScale0: 0.3
    - _NormalScale1: 0.5
    - _NormalScale2: 0
    - _NormalScale3: 1
    - _NumLayersCount: 1
    - _Smoothness0: 0
    - _Smoothness1: 0
    - _Smoothness2: 0
    - _Smoothness3: 0
    m_Colors:
    - _BaseColor: {r: 1, g: 1, b: 1, a: 1}
    - _DiffuseRemapScale0: {r: 1, g: 1, b: 1, a: 1}
    - _DiffuseRemapScale1: {r: 1, g: 1, b: 1, a: 1}
    - _DiffuseRemapScale2: {r: 1, g: 1, b: 1, a: 1}
    - _DiffuseRemapScale3: {r: 0.8396226, g: 0.8396226, b: 0.8396226, a: 0}
    - _MaskMapRemapOffset0: {r: 0, g: 0, b: 0, a: 0}
    - _MaskMapRemapOffset1: {r: 0, g: 0, b: 0, a: 0}
    - _MaskMapRemapOffset2: {r: 0, g: 0, b: 0, a: 0}
    - _MaskMapRemapOffset3: {r: 0, g: 0, b: 0, a: 0}
    - _MaskMapRemapScale0: {r: 1, g: 1, b: 1, a: 1}
    - _MaskMapRemapScale1: {r: 1, g: 1, b: 1, a: 1}
    - _MaskMapRemapScale2: {r: 1, g: 1, b: 1, a: 1}
    - _MaskMapRemapScale3: {r: 1, g: 1, b: 1, a: 1}
  m_BuildTextureStacks: []
