%YAML 1.1
%TAG !u! tag:unity3d.com,2011:
--- !u!1 &107618
GameObject:
  m_ObjectHideFlags: 0
  m_CorrespondingSourceObject: {fileID: 0}
  m_PrefabInstance: {fileID: 0}
  m_PrefabAsset: {fileID: 0}
  serializedVersion: 6
  m_Component:
  - component: {fileID: 498694}
  - component: {fileID: 11474124}
  m_Layer: 0
  m_Name: SkyboxDayNightCycle
  m_TagString: Untagged
  m_Icon: {fileID: 0}
  m_NavMeshLayer: 0
  m_StaticEditorFlags: 0
  m_IsActive: 1
--- !u!4 &498694
Transform:
  m_ObjectHideFlags: 0
  m_CorrespondingSourceObject: {fileID: 0}
  m_PrefabInstance: {fileID: 0}
  m_PrefabAsset: {fileID: 0}
  m_GameObject: {fileID: 107618}
  m_LocalRotation: {x: 0, y: 0, z: 0, w: 1}
  m_LocalPosition: {x: 0, y: 0, z: 0}
  m_LocalScale: {x: 1, y: 1, z: 1}
  m_Children: []
  m_Father: {fileID: 0}
  m_RootOrder: 0
  m_LocalEulerAnglesHint: {x: 0, y: 0, z: 0}
--- !u!114 &11474124
MonoBehaviour:
  m_ObjectHideFlags: 0
  m_CorrespondingSourceObject: {fileID: 0}
  m_PrefabInstance: {fileID: 0}
  m_PrefabAsset: {fileID: 0}
  m_GameObject: {fileID: 107618}
  m_Enabled: 1
  m_EditorHideFlags: 0
  m_Script: {fileID: 11500000, guid: e7ff1d209b5bcba4590ee6fcae61b403, type: 3}
  m_Name: 
  m_EditorClassIdentifier: 
  _skyParamsList:
    Params:
    - Time: 5
      TopColor: {r: 0.027450982, g: 0.04705883, b: 0.20000002, a: 1}
      MiddleColor: {r: 0, g: 0.20392159, b: 0.5019608, a: 1}
      BottomColor: {r: 0, g: 0.20392159, b: 0.5019608, a: 1}
      CloudsTint: {r: 0, g: 0, b: 0, a: 0}
    - Time: 20
      TopColor: {r: 0.027450982, g: 0.04705883, b: 0.20000002, a: 1}
      MiddleColor: {r: 0.007843138, g: 0.3019608, b: 0.54509807, a: 1}
      BottomColor: {r: 0.007843138, g: 0.3019608, b: 0.54509807, a: 1}
      CloudsTint: {r: 0, g: 0, b: 0, a: 0}
    - Time: 25
      TopColor: {r: 0.03137255, g: 0.04705883, b: 0.20392159, a: 1}
      MiddleColor: {r: 0.9803922, g: 0.6392157, b: 0.37647063, a: 1}
      BottomColor: {r: 0.9803922, g: 0.6392157, b: 0.37647063, a: 1}
      CloudsTint: {r: 0, g: 0, b: 0, a: 0}
    - Time: 30
      TopColor: {r: 0.24705884, g: 0.32156864, b: 0.56078434, a: 1}
      MiddleColor: {r: 0.9686275, g: 0.63529414, b: 0.37647063, a: 1}
      BottomColor: {r: 0.9686275, g: 0.63529414, b: 0.37647063, a: 1}
      CloudsTint: {r: 0, g: 0, b: 0, a: 0}
    - Time: 35
      TopColor: {r: 0.015686275, g: 0.41960788, b: 0.59607846, a: 1}
      MiddleColor: {r: 0.9686275, g: 0.63529414, b: 0.37647063, a: 1}
      BottomColor: {r: 0.9686275, g: 0.63529414, b: 0.37647063, a: 1}
      CloudsTint: {r: 0, g: 0, b: 0, a: 0}
    - Time: 40
      TopColor: {r: 0.015686275, g: 0.41960788, b: 0.59607846, a: 1}
      MiddleColor: {r: 0.063545756, g: 0.6982808, b: 0.7924528, a: 1}
      BottomColor: {r: 0.0627451, g: 0.69803923, b: 0.79215693, a: 1}
      CloudsTint: {r: 0, g: 0, b: 0, a: 0}
    - Time: 45
      TopColor: {r: 0, g: 0.79215693, b: 0.98823535, a: 1}
      MiddleColor: {r: 0.06666667, g: 0.7019608, b: 0.79607844, a: 1}
      BottomColor: {r: 0.06666667, g: 0.7019608, b: 0.7960785, a: 1}
      CloudsTint: {r: 0, g: 0, b: 0, a: 0}
    - Time: 55
      TopColor: {r: 0, g: 0.79215693, b: 0.98823535, a: 1}
      MiddleColor: {r: 0.06666667, g: 0.7019608, b: 0.79607844, a: 1}
      BottomColor: {r: 0.06666667, g: 0.7019608, b: 0.7960785, a: 1}
      CloudsTint: {r: 0, g: 0, b: 0, a: 0}
    - Time: 65
      TopColor: {r: 0, g: 0.79215693, b: 0.98823535, a: 1}
      MiddleColor: {r: 0.6745098, g: 0.882353, b: 0.9215687, a: 1}
      BottomColor: {r: 0.6745098, g: 0.882353, b: 0.9215687, a: 1}
      CloudsTint: {r: 0, g: 0, b: 0, a: 0}
    - Time: 70
      TopColor: {r: 0.015686275, g: 0.41960788, b: 0.59607846, a: 1}
      MiddleColor: {r: 0.6117647, g: 0.76470596, b: 0.82745105, a: 1}
      BottomColor: {r: 0.6117647, g: 0.76470596, b: 0.82745105, a: 1}
      CloudsTint: {r: 0, g: 0, b: 0, a: 0}
    - Time: 75
      TopColor: {r: 0.015686275, g: 0.41960788, b: 0.59607846, a: 1}
      MiddleColor: {r: 0.7686275, g: 0.454902, b: 0.6745098, a: 1}
      BottomColor: {r: 0.7686275, g: 0.454902, b: 0.6745098, a: 1}
      CloudsTint: {r: 0, g: 0, b: 0, a: 0}
    - Time: 80
      TopColor: {r: 0.24313727, g: 0.32156864, b: 0.5568628, a: 1}
      MiddleColor: {r: 0.7686275, g: 0.454902, b: 0.6745098, a: 1}
      BottomColor: {r: 0.7686275, g: 0.454902, b: 0.6745098, a: 1}
      CloudsTint: {r: 0, g: 0, b: 0, a: 0}
    - Time: 85
      TopColor: {r: 0.03137255, g: 0.04705883, b: 0.20392159, a: 1}
      MiddleColor: {r: 0.64705884, g: 0.41960788, b: 0.64705884, a: 1}
      BottomColor: {r: 0.64705884, g: 0.41960788, b: 0.64705884, a: 1}
      CloudsTint: {r: 0, g: 0, b: 0, a: 0}
    - Time: 90
      TopColor: {r: 0.03137255, g: 0.04705883, b: 0.20392159, a: 1}
      MiddleColor: {r: 0.007843138, g: 0.3019608, b: 0.54509807, a: 1}
      BottomColor: {r: 0.007843138, g: 0.3019608, b: 0.54509807, a: 1}
      CloudsTint: {r: 0, g: 0, b: 0, a: 0}
  _starsParamsList:
    Params:
    - Time: 85
      TintColor: {r: 0.43921572, g: 0.43921572, b: 0.43921572, a: 0}
    - Time: 95
      TintColor: {r: 0.5019608, g: 0.5019608, b: 0.5019608, a: 1}
    - Time: 5
      TintColor: {r: 0.75294125, g: 0.75294125, b: 0.75294125, a: 1}
    - Time: 15
      TintColor: {r: 0.5019608, g: 0.5019608, b: 0.5019608, a: 1}
    - Time: 25
      TintColor: {r: 0.5019608, g: 0.5019608, b: 0.5019608, a: 0}
  _sunrise: 25
  _sunset: 85
  _sunAltitude: 45
  _sunLongitude: 0
  _sunOrbit: {x: 20, y: 200}
  _sunParamsList:
    Params:
    - Time: 25
      TintColor: {r: 0.69803923, g: 0.45882356, b: 0.27058825, a: 0}
      LightColor: {r: 0.9686275, g: 0.63529414, b: 0.37647063, a: 1}
      LightIntencity: 0
    - Time: 30
      TintColor: {r: 0.69803923, g: 0.45882356, b: 0.27058825, a: 1}
      LightColor: {r: 0.9686275, g: 0.63529414, b: 0.37647063, a: 1}
      LightIntencity: 1
    - Time: 40
      TintColor: {r: 0.75294125, g: 0.6156863, b: 0.50980395, a: 1}
      LightColor: {r: 0.6745098, g: 0.882353, b: 0.9215687, a: 1}
      LightIntencity: 1
    - Time: 50
      TintColor: {r: 0.75294125, g: 0.75294125, b: 0.75294125, a: 1}
      LightColor: {r: 0.9215687, g: 0.9215687, b: 0.9215687, a: 1}
      LightIntencity: 1
    - Time: 70
      TintColor: {r: 0.75294125, g: 0.6156863, b: 0.50980395, a: 1}
      LightColor: {r: 0.6117647, g: 0.76470596, b: 0.82745105, a: 1}
      LightIntencity: 1
    - Time: 75
      TintColor: {r: 1, g: 0.52156866, b: 0.52156866, a: 1}
      LightColor: {r: 0.7686275, g: 0.454902, b: 0.6745098, a: 1}
      LightIntencity: 1
    - Time: 80
      TintColor: {r: 1, g: 0.454902, b: 0.5176471, a: 1}
      LightColor: {r: 0.7686275, g: 0.454902, b: 0.6745098, a: 1}
      LightIntencity: 1
    - Time: 85
      TintColor: {r: 0.7686275, g: 0.454902, b: 0.6745098, a: 0}
      LightColor: {r: 0.7686275, g: 0.454902, b: 0.6745098, a: 1}
      LightIntencity: 0
  _moonrise: 90
  _moonset: 20
  _moonAltitude: 45
  _moonLongitude: 0
  _moonOrbit: {x: 20, y: 200}
  _moonParamsList:
    Params:
    - Time: 90
      TintColor: {r: 0.4039216, g: 0.47058827, b: 0.5294118, a: 0}
      LightColor: {r: 0.007843138, g: 0.3019608, b: 0.54509807, a: 1}
      LightIntencity: 0
    - Time: 92.5
      TintColor: {r: 0.4039216, g: 0.47450984, b: 0.5294118, a: 1}
      LightColor: {r: 0.007843138, g: 0.3254902, b: 0.5882353, a: 1}
      LightIntencity: 1
    - Time: 5
      TintColor: {r: 0.4901961, g: 0.5529412, b: 0.60784316, a: 1}
      LightColor: {r: 0.011764707, g: 0.43529415, b: 0.7843138, a: 1}
      LightIntencity: 1
    - Time: 17.5
      TintColor: {r: 0.4039216, g: 0.47450984, b: 0.5294118, a: 1}
      LightColor: {r: 0.007843138, g: 0.3254902, b: 0.5882353, a: 1}
      LightIntencity: 1
    - Time: 20
      TintColor: {r: 0.4039216, g: 0.47058827, b: 0.5294118, a: 0}
      LightColor: {r: 0.007843138, g: 0.3019608, b: 0.54509807, a: 1}
      LightIntencity: 0
  _cloudsParamsList:
    Params:
    - Time: 5
      TintColor: {r: 0.3372549, g: 0.40784317, b: 0.70980394, a: 1}
    - Time: 20
      TintColor: {r: 0.49411768, g: 0.5019608, b: 0.5137255, a: 1}
    - Time: 25
      TintColor: {r: 0.5921569, g: 0.5058824, b: 0.4431373, a: 1}
    - Time: 30
      TintColor: {r: 0.6901961, g: 0.49803925, b: 0.4039216, a: 1}
    - Time: 35
      TintColor: {r: 0.5921569, g: 0.5058824, b: 0.4431373, a: 1}
    - Time: 40
      TintColor: {r: 0.454902, g: 0.5019608, b: 0.5254902, a: 1}
    - Time: 45
      TintColor: {r: 0.4431373, g: 0.5137255, b: 0.54509807, a: 1}
    - Time: 55
      TintColor: {r: 0.5019608, g: 0.5019608, b: 0.5019608, a: 1}
    - Time: 65
      TintColor: {r: 0.4431373, g: 0.5137255, b: 0.54509807, a: 1}
    - Time: 70
      TintColor: {r: 0.5647059, g: 0.4901961, b: 0.5411765, a: 1}
    - Time: 75
      TintColor: {r: 0.56078434, g: 0.49019608, b: 0.5411765, a: 1}
    - Time: 80
      TintColor: {r: 0.6039216, g: 0.48627454, b: 0.82745105, a: 1}
    - Time: 85
      TintColor: {r: 0.5411765, g: 0.4901961, b: 0.68235296, a: 1}
    - Time: 90
      TintColor: {r: 0.4901961, g: 0.4901961, b: 0.5647059, a: 1}
  _framesInterval: 2
  _timeOfDay: 30
