%YAML 1.1
%TAG !u! tag:unity3d.com,2011:
--- !u!1 &3472404603689892819
GameObject:
  m_ObjectHideFlags: 0
  m_CorrespondingSourceObject: {fileID: 0}
  m_PrefabInstance: {fileID: 0}
  m_PrefabAsset: {fileID: 0}
  serializedVersion: 6
  m_Component:
  - component: {fileID: 6675820215362350317}
  - component: {fileID: 1919695210891170683}
  - component: {fileID: 7261196282224084989}
  - component: {fileID: 3261166268058261417}
  - component: {fileID: 180870303795482199}
  m_Layer: 0
  m_Name: LargeBlock
  m_TagString: Untagged
  m_Icon: {fileID: 0}
  m_NavMeshLayer: 0
  m_StaticEditorFlags: 0
  m_IsActive: 1
--- !u!4 &6675820215362350317
Transform:
  m_ObjectHideFlags: 0
  m_CorrespondingSourceObject: {fileID: 0}
  m_PrefabInstance: {fileID: 0}
  m_PrefabAsset: {fileID: 0}
  m_GameObject: {fileID: 3472404603689892819}
  m_LocalRotation: {x: 0, y: 0, z: 0, w: 1}
  m_LocalPosition: {x: 403.1, y: 1221.2, z: -3107}
  m_LocalScale: {x: 1, y: 1, z: 1}
  m_Children: []
  m_Father: {fileID: 0}
  m_RootOrder: 0
  m_LocalEulerAnglesHint: {x: 0, y: 0, z: 0}
--- !u!114 &1919695210891170683
MonoBehaviour:
  m_ObjectHideFlags: 0
  m_CorrespondingSourceObject: {fileID: 0}
  m_PrefabInstance: {fileID: 0}
  m_PrefabAsset: {fileID: 0}
  m_GameObject: {fileID: 3472404603689892819}
  m_Enabled: 1
  m_EditorHideFlags: 0
  m_Script: {fileID: 11500000, guid: 8233d90336aea43098adf6dbabd606a2, type: 3}
  m_Name: 
  m_EditorClassIdentifier: 
  m_MeshFormatVersion: 1
  m_Faces:
  - m_Indexes: 000000000100000002000000010000000300000002000000
    m_SmoothingGroup: 1
    m_Uv:
      m_UseWorldSpace: 0
      m_FlipU: 0
      m_FlipV: 0
      m_SwapUV: 0
      m_Fill: 1
      m_Scale: {x: 1, y: 1}
      m_Offset: {x: 0, y: 0}
      m_Rotation: 0
      m_Anchor: 9
    m_Material: {fileID: 0}
    m_SubmeshIndex: 0
    m_ManualUV: 0
    elementGroup: -1
    m_TextureGroup: -1
  - m_Indexes: 040000000500000006000000050000000700000006000000
    m_SmoothingGroup: 1
    m_Uv:
      m_UseWorldSpace: 0
      m_FlipU: 0
      m_FlipV: 0
      m_SwapUV: 0
      m_Fill: 1
      m_Scale: {x: 1, y: 1}
      m_Offset: {x: 0, y: 0}
      m_Rotation: 0
      m_Anchor: 9
    m_Material: {fileID: 0}
    m_SubmeshIndex: 0
    m_ManualUV: 0
    elementGroup: -1
    m_TextureGroup: -1
  - m_Indexes: 08000000090000000a000000090000000b0000000a000000
    m_SmoothingGroup: 1
    m_Uv:
      m_UseWorldSpace: 0
      m_FlipU: 0
      m_FlipV: 0
      m_SwapUV: 0
      m_Fill: 1
      m_Scale: {x: 1, y: 1}
      m_Offset: {x: 0, y: 0}
      m_Rotation: 0
      m_Anchor: 9
    m_Material: {fileID: 0}
    m_SubmeshIndex: 0
    m_ManualUV: 0
    elementGroup: -1
    m_TextureGroup: -1
  - m_Indexes: 0c0000000d0000000e0000000d0000000f0000000e000000
    m_SmoothingGroup: 1
    m_Uv:
      m_UseWorldSpace: 0
      m_FlipU: 0
      m_FlipV: 0
      m_SwapUV: 0
      m_Fill: 1
      m_Scale: {x: 1, y: 1}
      m_Offset: {x: 0, y: 0}
      m_Rotation: 0
      m_Anchor: 9
    m_Material: {fileID: 0}
    m_SubmeshIndex: 0
    m_ManualUV: 0
    elementGroup: -1
    m_TextureGroup: -1
  - m_Indexes: 100000001100000012000000110000001300000012000000
    m_SmoothingGroup: 1
    m_Uv:
      m_UseWorldSpace: 0
      m_FlipU: 0
      m_FlipV: 0
      m_SwapUV: 0
      m_Fill: 1
      m_Scale: {x: 1, y: 1}
      m_Offset: {x: 0, y: 0}
      m_Rotation: 0
      m_Anchor: 9
    m_Material: {fileID: 0}
    m_SubmeshIndex: 0
    m_ManualUV: 0
    elementGroup: -1
    m_TextureGroup: -1
  - m_Indexes: 140000001500000016000000150000001700000016000000
    m_SmoothingGroup: 1
    m_Uv:
      m_UseWorldSpace: 0
      m_FlipU: 0
      m_FlipV: 0
      m_SwapUV: 0
      m_Fill: 1
      m_Scale: {x: 1, y: 1}
      m_Offset: {x: 0, y: 0}
      m_Rotation: 0
      m_Anchor: 9
    m_Material: {fileID: 0}
    m_SubmeshIndex: 0
    m_ManualUV: 0
    elementGroup: -1
    m_TextureGroup: -1
  - m_Indexes: 18000000190000001a000000190000001b0000001a000000
    m_SmoothingGroup: 1
    m_Uv:
      m_UseWorldSpace: 0
      m_FlipU: 0
      m_FlipV: 0
      m_SwapUV: 0
      m_Fill: 1
      m_Scale: {x: 1, y: 1}
      m_Offset: {x: 0, y: 0}
      m_Rotation: 0
      m_Anchor: 9
    m_Material: {fileID: 0}
    m_SubmeshIndex: 0
    m_ManualUV: 0
    elementGroup: -1
    m_TextureGroup: -1
  - m_Indexes: 1c0000001d0000001e0000001d0000001f0000001e000000
    m_SmoothingGroup: 1
    m_Uv:
      m_UseWorldSpace: 0
      m_FlipU: 0
      m_FlipV: 0
      m_SwapUV: 0
      m_Fill: 1
      m_Scale: {x: 1, y: 1}
      m_Offset: {x: 0, y: 0}
      m_Rotation: 0
      m_Anchor: 9
    m_Material: {fileID: 0}
    m_SubmeshIndex: 0
    m_ManualUV: 0
    elementGroup: -1
    m_TextureGroup: -1
  - m_Indexes: 200000002100000022000000210000002300000022000000
    m_SmoothingGroup: 1
    m_Uv:
      m_UseWorldSpace: 0
      m_FlipU: 0
      m_FlipV: 0
      m_SwapUV: 0
      m_Fill: 1
      m_Scale: {x: 1, y: 1}
      m_Offset: {x: 0, y: 0}
      m_Rotation: 0
      m_Anchor: 9
    m_Material: {fileID: 0}
    m_SubmeshIndex: 0
    m_ManualUV: 0
    elementGroup: -1
    m_TextureGroup: -1
  - m_Indexes: 240000002500000026000000250000002700000026000000
    m_SmoothingGroup: 1
    m_Uv:
      m_UseWorldSpace: 0
      m_FlipU: 0
      m_FlipV: 0
      m_SwapUV: 0
      m_Fill: 1
      m_Scale: {x: 1, y: 1}
      m_Offset: {x: 0, y: 0}
      m_Rotation: 0
      m_Anchor: 9
    m_Material: {fileID: 0}
    m_SubmeshIndex: 0
    m_ManualUV: 0
    elementGroup: -1
    m_TextureGroup: -1
  - m_Indexes: 28000000290000002a000000290000002b0000002a000000
    m_SmoothingGroup: 1
    m_Uv:
      m_UseWorldSpace: 0
      m_FlipU: 0
      m_FlipV: 0
      m_SwapUV: 0
      m_Fill: 1
      m_Scale: {x: 1, y: 1}
      m_Offset: {x: 0, y: 0}
      m_Rotation: 0
      m_Anchor: 9
    m_Material: {fileID: 0}
    m_SubmeshIndex: 0
    m_ManualUV: 0
    elementGroup: -1
    m_TextureGroup: -1
  - m_Indexes: 2c0000002d0000002e0000002d0000002f0000002e000000
    m_SmoothingGroup: 1
    m_Uv:
      m_UseWorldSpace: 0
      m_FlipU: 0
      m_FlipV: 0
      m_SwapUV: 0
      m_Fill: 1
      m_Scale: {x: 1, y: 1}
      m_Offset: {x: 0, y: 0}
      m_Rotation: 0
      m_Anchor: 9
    m_Material: {fileID: 0}
    m_SubmeshIndex: 0
    m_ManualUV: 0
    elementGroup: -1
    m_TextureGroup: -1
  - m_Indexes: 300000003100000032000000310000003300000032000000
    m_SmoothingGroup: 1
    m_Uv:
      m_UseWorldSpace: 0
      m_FlipU: 0
      m_FlipV: 0
      m_SwapUV: 0
      m_Fill: 1
      m_Scale: {x: 1, y: 1}
      m_Offset: {x: 0, y: 0}
      m_Rotation: 0
      m_Anchor: 9
    m_Material: {fileID: 0}
    m_SubmeshIndex: 0
    m_ManualUV: 0
    elementGroup: -1
    m_TextureGroup: -1
  - m_Indexes: 340000003500000036000000350000003700000036000000
    m_SmoothingGroup: 1
    m_Uv:
      m_UseWorldSpace: 0
      m_FlipU: 0
      m_FlipV: 0
      m_SwapUV: 0
      m_Fill: 1
      m_Scale: {x: 1, y: 1}
      m_Offset: {x: 0, y: 0}
      m_Rotation: 0
      m_Anchor: 9
    m_Material: {fileID: 0}
    m_SubmeshIndex: 0
    m_ManualUV: 0
    elementGroup: -1
    m_TextureGroup: -1
  - m_Indexes: 38000000390000003a000000390000003b0000003a000000
    m_SmoothingGroup: 1
    m_Uv:
      m_UseWorldSpace: 0
      m_FlipU: 0
      m_FlipV: 0
      m_SwapUV: 0
      m_Fill: 1
      m_Scale: {x: 1, y: 1}
      m_Offset: {x: 0, y: 0}
      m_Rotation: 0
      m_Anchor: 9
    m_Material: {fileID: 0}
    m_SubmeshIndex: 0
    m_ManualUV: 0
    elementGroup: -1
    m_TextureGroup: -1
  - m_Indexes: 3c0000003d0000003e0000003d0000003f0000003e000000
    m_SmoothingGroup: 1
    m_Uv:
      m_UseWorldSpace: 0
      m_FlipU: 0
      m_FlipV: 0
      m_SwapUV: 0
      m_Fill: 1
      m_Scale: {x: 1, y: 1}
      m_Offset: {x: 0, y: 0}
      m_Rotation: 0
      m_Anchor: 9
    m_Material: {fileID: 0}
    m_SubmeshIndex: 0
    m_ManualUV: 0
    elementGroup: -1
    m_TextureGroup: -1
  - m_Indexes: 400000004100000042000000410000004300000042000000
    m_SmoothingGroup: 1
    m_Uv:
      m_UseWorldSpace: 0
      m_FlipU: 0
      m_FlipV: 0
      m_SwapUV: 0
      m_Fill: 1
      m_Scale: {x: 1, y: 1}
      m_Offset: {x: 0, y: 0}
      m_Rotation: 0
      m_Anchor: 9
    m_Material: {fileID: 0}
    m_SubmeshIndex: 0
    m_ManualUV: 0
    elementGroup: -1
    m_TextureGroup: -1
  - m_Indexes: 440000004500000046000000450000004700000046000000
    m_SmoothingGroup: 1
    m_Uv:
      m_UseWorldSpace: 0
      m_FlipU: 0
      m_FlipV: 0
      m_SwapUV: 0
      m_Fill: 1
      m_Scale: {x: 1, y: 1}
      m_Offset: {x: 0, y: 0}
      m_Rotation: 0
      m_Anchor: 9
    m_Material: {fileID: 0}
    m_SubmeshIndex: 0
    m_ManualUV: 0
    elementGroup: -1
    m_TextureGroup: -1
  - m_Indexes: 48000000490000004a000000490000004b0000004a000000
    m_SmoothingGroup: 1
    m_Uv:
      m_UseWorldSpace: 0
      m_FlipU: 0
      m_FlipV: 0
      m_SwapUV: 0
      m_Fill: 1
      m_Scale: {x: 1, y: 1}
      m_Offset: {x: 0, y: 0}
      m_Rotation: 0
      m_Anchor: 9
    m_Material: {fileID: 0}
    m_SubmeshIndex: 0
    m_ManualUV: 0
    elementGroup: -1
    m_TextureGroup: -1
  - m_Indexes: 4c0000004d0000004e0000004d0000004f0000004e000000
    m_SmoothingGroup: 1
    m_Uv:
      m_UseWorldSpace: 0
      m_FlipU: 0
      m_FlipV: 0
      m_SwapUV: 0
      m_Fill: 1
      m_Scale: {x: 1, y: 1}
      m_Offset: {x: 0, y: 0}
      m_Rotation: 0
      m_Anchor: 9
    m_Material: {fileID: 0}
    m_SubmeshIndex: 0
    m_ManualUV: 0
    elementGroup: -1
    m_TextureGroup: -1
  - m_Indexes: 520000005100000050000000
    m_SmoothingGroup: 0
    m_Uv:
      m_UseWorldSpace: 0
      m_FlipU: 0
      m_FlipV: 0
      m_SwapUV: 0
      m_Fill: 1
      m_Scale: {x: 1, y: 1}
      m_Offset: {x: 0, y: 0}
      m_Rotation: 0
      m_Anchor: 9
    m_Material: {fileID: 2100000, guid: c22777d6e868e4f2fb421913386b154e, type: 2}
    m_SubmeshIndex: 0
    m_ManualUV: 0
    elementGroup: 0
    m_TextureGroup: -1
  - m_Indexes: 580000005700000056000000
    m_SmoothingGroup: 0
    m_Uv:
      m_UseWorldSpace: 0
      m_FlipU: 0
      m_FlipV: 0
      m_SwapUV: 0
      m_Fill: 1
      m_Scale: {x: 1, y: 1}
      m_Offset: {x: 0, y: 0}
      m_Rotation: 0
      m_Anchor: 9
    m_Material: {fileID: 2100000, guid: c22777d6e868e4f2fb421913386b154e, type: 2}
    m_SubmeshIndex: 0
    m_ManualUV: 0
    elementGroup: 0
    m_TextureGroup: -1
  - m_Indexes: 5e0000005d0000005c000000
    m_SmoothingGroup: 0
    m_Uv:
      m_UseWorldSpace: 0
      m_FlipU: 0
      m_FlipV: 0
      m_SwapUV: 0
      m_Fill: 1
      m_Scale: {x: 1, y: 1}
      m_Offset: {x: 0, y: 0}
      m_Rotation: 0
      m_Anchor: 9
    m_Material: {fileID: 2100000, guid: c22777d6e868e4f2fb421913386b154e, type: 2}
    m_SubmeshIndex: 0
    m_ManualUV: 0
    elementGroup: 0
    m_TextureGroup: -1
  - m_Indexes: 640000006300000062000000
    m_SmoothingGroup: 0
    m_Uv:
      m_UseWorldSpace: 0
      m_FlipU: 0
      m_FlipV: 0
      m_SwapUV: 0
      m_Fill: 1
      m_Scale: {x: 1, y: 1}
      m_Offset: {x: 0, y: 0}
      m_Rotation: 0
      m_Anchor: 9
    m_Material: {fileID: 2100000, guid: c22777d6e868e4f2fb421913386b154e, type: 2}
    m_SubmeshIndex: 0
    m_ManualUV: 0
    elementGroup: 0
    m_TextureGroup: -1
  - m_Indexes: 6a0000006900000068000000
    m_SmoothingGroup: 0
    m_Uv:
      m_UseWorldSpace: 0
      m_FlipU: 0
      m_FlipV: 0
      m_SwapUV: 0
      m_Fill: 1
      m_Scale: {x: 1, y: 1}
      m_Offset: {x: 0, y: 0}
      m_Rotation: 0
      m_Anchor: 9
    m_Material: {fileID: 2100000, guid: c22777d6e868e4f2fb421913386b154e, type: 2}
    m_SubmeshIndex: 0
    m_ManualUV: 0
    elementGroup: 0
    m_TextureGroup: -1
  - m_Indexes: 700000006f0000006e000000
    m_SmoothingGroup: 0
    m_Uv:
      m_UseWorldSpace: 0
      m_FlipU: 0
      m_FlipV: 0
      m_SwapUV: 0
      m_Fill: 1
      m_Scale: {x: 1, y: 1}
      m_Offset: {x: 0, y: 0}
      m_Rotation: 0
      m_Anchor: 9
    m_Material: {fileID: 2100000, guid: c22777d6e868e4f2fb421913386b154e, type: 2}
    m_SubmeshIndex: 0
    m_ManualUV: 0
    elementGroup: 0
    m_TextureGroup: -1
  - m_Indexes: 760000007500000074000000
    m_SmoothingGroup: 0
    m_Uv:
      m_UseWorldSpace: 0
      m_FlipU: 0
      m_FlipV: 0
      m_SwapUV: 0
      m_Fill: 1
      m_Scale: {x: 1, y: 1}
      m_Offset: {x: 0, y: 0}
      m_Rotation: 0
      m_Anchor: 9
    m_Material: {fileID: 2100000, guid: c22777d6e868e4f2fb421913386b154e, type: 2}
    m_SubmeshIndex: 0
    m_ManualUV: 0
    elementGroup: 0
    m_TextureGroup: -1
  - m_Indexes: 7c0000007b0000007a000000
    m_SmoothingGroup: 0
    m_Uv:
      m_UseWorldSpace: 0
      m_FlipU: 0
      m_FlipV: 0
      m_SwapUV: 0
      m_Fill: 1
      m_Scale: {x: 1, y: 1}
      m_Offset: {x: 0, y: 0}
      m_Rotation: 0
      m_Anchor: 9
    m_Material: {fileID: 2100000, guid: c22777d6e868e4f2fb421913386b154e, type: 2}
    m_SubmeshIndex: 0
    m_ManualUV: 0
    elementGroup: 0
    m_TextureGroup: -1
  - m_Indexes: 820000008100000080000000
    m_SmoothingGroup: 0
    m_Uv:
      m_UseWorldSpace: 0
      m_FlipU: 0
      m_FlipV: 0
      m_SwapUV: 0
      m_Fill: 1
      m_Scale: {x: 1, y: 1}
      m_Offset: {x: 0, y: 0}
      m_Rotation: 0
      m_Anchor: 9
    m_Material: {fileID: 2100000, guid: c22777d6e868e4f2fb421913386b154e, type: 2}
    m_SubmeshIndex: 0
    m_ManualUV: 0
    elementGroup: 0
    m_TextureGroup: -1
  - m_Indexes: 880000008700000086000000
    m_SmoothingGroup: 0
    m_Uv:
      m_UseWorldSpace: 0
      m_FlipU: 0
      m_FlipV: 0
      m_SwapUV: 0
      m_Fill: 1
      m_Scale: {x: 1, y: 1}
      m_Offset: {x: 0, y: 0}
      m_Rotation: 0
      m_Anchor: 9
    m_Material: {fileID: 2100000, guid: c22777d6e868e4f2fb421913386b154e, type: 2}
    m_SubmeshIndex: 0
    m_ManualUV: 0
    elementGroup: 0
    m_TextureGroup: -1
  - m_Indexes: 8e0000008d0000008c000000
    m_SmoothingGroup: 0
    m_Uv:
      m_UseWorldSpace: 0
      m_FlipU: 0
      m_FlipV: 0
      m_SwapUV: 0
      m_Fill: 1
      m_Scale: {x: 1, y: 1}
      m_Offset: {x: 0, y: 0}
      m_Rotation: 0
      m_Anchor: 9
    m_Material: {fileID: 2100000, guid: c22777d6e868e4f2fb421913386b154e, type: 2}
    m_SubmeshIndex: 0
    m_ManualUV: 0
    elementGroup: 0
    m_TextureGroup: -1
  - m_Indexes: 940000009300000092000000
    m_SmoothingGroup: 0
    m_Uv:
      m_UseWorldSpace: 0
      m_FlipU: 0
      m_FlipV: 0
      m_SwapUV: 0
      m_Fill: 1
      m_Scale: {x: 1, y: 1}
      m_Offset: {x: 0, y: 0}
      m_Rotation: 0
      m_Anchor: 9
    m_Material: {fileID: 2100000, guid: c22777d6e868e4f2fb421913386b154e, type: 2}
    m_SubmeshIndex: 0
    m_ManualUV: 0
    elementGroup: 0
    m_TextureGroup: -1
  - m_Indexes: 9a0000009900000098000000
    m_SmoothingGroup: 0
    m_Uv:
      m_UseWorldSpace: 0
      m_FlipU: 0
      m_FlipV: 0
      m_SwapUV: 0
      m_Fill: 1
      m_Scale: {x: 1, y: 1}
      m_Offset: {x: 0, y: 0}
      m_Rotation: 0
      m_Anchor: 9
    m_Material: {fileID: 2100000, guid: c22777d6e868e4f2fb421913386b154e, type: 2}
    m_SubmeshIndex: 0
    m_ManualUV: 0
    elementGroup: 0
    m_TextureGroup: -1
  - m_Indexes: a00000009f0000009e000000
    m_SmoothingGroup: 0
    m_Uv:
      m_UseWorldSpace: 0
      m_FlipU: 0
      m_FlipV: 0
      m_SwapUV: 0
      m_Fill: 1
      m_Scale: {x: 1, y: 1}
      m_Offset: {x: 0, y: 0}
      m_Rotation: 0
      m_Anchor: 9
    m_Material: {fileID: 2100000, guid: c22777d6e868e4f2fb421913386b154e, type: 2}
    m_SubmeshIndex: 0
    m_ManualUV: 0
    elementGroup: 0
    m_TextureGroup: -1
  - m_Indexes: a6000000a5000000a4000000
    m_SmoothingGroup: 0
    m_Uv:
      m_UseWorldSpace: 0
      m_FlipU: 0
      m_FlipV: 0
      m_SwapUV: 0
      m_Fill: 1
      m_Scale: {x: 1, y: 1}
      m_Offset: {x: 0, y: 0}
      m_Rotation: 0
      m_Anchor: 9
    m_Material: {fileID: 2100000, guid: c22777d6e868e4f2fb421913386b154e, type: 2}
    m_SubmeshIndex: 0
    m_ManualUV: 0
    elementGroup: 0
    m_TextureGroup: -1
  - m_Indexes: ac000000ab000000aa000000
    m_SmoothingGroup: 0
    m_Uv:
      m_UseWorldSpace: 0
      m_FlipU: 0
      m_FlipV: 0
      m_SwapUV: 0
      m_Fill: 1
      m_Scale: {x: 1, y: 1}
      m_Offset: {x: 0, y: 0}
      m_Rotation: 0
      m_Anchor: 9
    m_Material: {fileID: 2100000, guid: c22777d6e868e4f2fb421913386b154e, type: 2}
    m_SubmeshIndex: 0
    m_ManualUV: 0
    elementGroup: 0
    m_TextureGroup: -1
  - m_Indexes: b2000000b1000000b0000000
    m_SmoothingGroup: 0
    m_Uv:
      m_UseWorldSpace: 0
      m_FlipU: 0
      m_FlipV: 0
      m_SwapUV: 0
      m_Fill: 1
      m_Scale: {x: 1, y: 1}
      m_Offset: {x: 0, y: 0}
      m_Rotation: 0
      m_Anchor: 9
    m_Material: {fileID: 2100000, guid: c22777d6e868e4f2fb421913386b154e, type: 2}
    m_SubmeshIndex: 0
    m_ManualUV: 0
    elementGroup: 0
    m_TextureGroup: -1
  - m_Indexes: b8000000b7000000b6000000
    m_SmoothingGroup: 0
    m_Uv:
      m_UseWorldSpace: 0
      m_FlipU: 0
      m_FlipV: 0
      m_SwapUV: 0
      m_Fill: 1
      m_Scale: {x: 1, y: 1}
      m_Offset: {x: 0, y: 0}
      m_Rotation: 0
      m_Anchor: 9
    m_Material: {fileID: 2100000, guid: c22777d6e868e4f2fb421913386b154e, type: 2}
    m_SubmeshIndex: 0
    m_ManualUV: 0
    elementGroup: 0
    m_TextureGroup: -1
  - m_Indexes: be000000bd000000bc000000
    m_SmoothingGroup: 0
    m_Uv:
      m_UseWorldSpace: 0
      m_FlipU: 0
      m_FlipV: 0
      m_SwapUV: 0
      m_Fill: 1
      m_Scale: {x: 1, y: 1}
      m_Offset: {x: 0, y: 0}
      m_Rotation: 0
      m_Anchor: 9
    m_Material: {fileID: 2100000, guid: c22777d6e868e4f2fb421913386b154e, type: 2}
    m_SubmeshIndex: 0
    m_ManualUV: 0
    elementGroup: 0
    m_TextureGroup: -1
  - m_Indexes: c4000000c3000000c2000000
    m_SmoothingGroup: 0
    m_Uv:
      m_UseWorldSpace: 0
      m_FlipU: 0
      m_FlipV: 0
      m_SwapUV: 0
      m_Fill: 1
      m_Scale: {x: 1, y: 1}
      m_Offset: {x: 0, y: 0}
      m_Rotation: 0
      m_Anchor: 9
    m_Material: {fileID: 2100000, guid: c22777d6e868e4f2fb421913386b154e, type: 2}
    m_SubmeshIndex: 0
    m_ManualUV: 0
    elementGroup: 0
    m_TextureGroup: -1
  - m_Indexes: 530000005400000055000000
    m_SmoothingGroup: 0
    m_Uv:
      m_UseWorldSpace: 0
      m_FlipU: 0
      m_FlipV: 0
      m_SwapUV: 0
      m_Fill: 1
      m_Scale: {x: 1, y: 1}
      m_Offset: {x: 0, y: 0}
      m_Rotation: 0
      m_Anchor: 9
    m_Material: {fileID: 2100000, guid: c22777d6e868e4f2fb421913386b154e, type: 2}
    m_SubmeshIndex: 0
    m_ManualUV: 0
    elementGroup: 0
    m_TextureGroup: -1
  - m_Indexes: 590000005a0000005b000000
    m_SmoothingGroup: 0
    m_Uv:
      m_UseWorldSpace: 0
      m_FlipU: 0
      m_FlipV: 0
      m_SwapUV: 0
      m_Fill: 1
      m_Scale: {x: 1, y: 1}
      m_Offset: {x: 0, y: 0}
      m_Rotation: 0
      m_Anchor: 9
    m_Material: {fileID: 2100000, guid: c22777d6e868e4f2fb421913386b154e, type: 2}
    m_SubmeshIndex: 0
    m_ManualUV: 0
    elementGroup: 0
    m_TextureGroup: -1
  - m_Indexes: 5f0000006000000061000000
    m_SmoothingGroup: 0
    m_Uv:
      m_UseWorldSpace: 0
      m_FlipU: 0
      m_FlipV: 0
      m_SwapUV: 0
      m_Fill: 1
      m_Scale: {x: 1, y: 1}
      m_Offset: {x: 0, y: 0}
      m_Rotation: 0
      m_Anchor: 9
    m_Material: {fileID: 2100000, guid: c22777d6e868e4f2fb421913386b154e, type: 2}
    m_SubmeshIndex: 0
    m_ManualUV: 0
    elementGroup: 0
    m_TextureGroup: -1
  - m_Indexes: 650000006600000067000000
    m_SmoothingGroup: 0
    m_Uv:
      m_UseWorldSpace: 0
      m_FlipU: 0
      m_FlipV: 0
      m_SwapUV: 0
      m_Fill: 1
      m_Scale: {x: 1, y: 1}
      m_Offset: {x: 0, y: 0}
      m_Rotation: 0
      m_Anchor: 9
    m_Material: {fileID: 2100000, guid: c22777d6e868e4f2fb421913386b154e, type: 2}
    m_SubmeshIndex: 0
    m_ManualUV: 0
    elementGroup: 0
    m_TextureGroup: -1
  - m_Indexes: 6b0000006c0000006d000000
    m_SmoothingGroup: 0
    m_Uv:
      m_UseWorldSpace: 0
      m_FlipU: 0
      m_FlipV: 0
      m_SwapUV: 0
      m_Fill: 1
      m_Scale: {x: 1, y: 1}
      m_Offset: {x: 0, y: 0}
      m_Rotation: 0
      m_Anchor: 9
    m_Material: {fileID: 2100000, guid: c22777d6e868e4f2fb421913386b154e, type: 2}
    m_SubmeshIndex: 0
    m_ManualUV: 0
    elementGroup: 0
    m_TextureGroup: -1
  - m_Indexes: 710000007200000073000000
    m_SmoothingGroup: 0
    m_Uv:
      m_UseWorldSpace: 0
      m_FlipU: 0
      m_FlipV: 0
      m_SwapUV: 0
      m_Fill: 1
      m_Scale: {x: 1, y: 1}
      m_Offset: {x: 0, y: 0}
      m_Rotation: 0
      m_Anchor: 9
    m_Material: {fileID: 2100000, guid: c22777d6e868e4f2fb421913386b154e, type: 2}
    m_SubmeshIndex: 0
    m_ManualUV: 0
    elementGroup: 0
    m_TextureGroup: -1
  - m_Indexes: 770000007800000079000000
    m_SmoothingGroup: 0
    m_Uv:
      m_UseWorldSpace: 0
      m_FlipU: 0
      m_FlipV: 0
      m_SwapUV: 0
      m_Fill: 1
      m_Scale: {x: 1, y: 1}
      m_Offset: {x: 0, y: 0}
      m_Rotation: 0
      m_Anchor: 9
    m_Material: {fileID: 2100000, guid: c22777d6e868e4f2fb421913386b154e, type: 2}
    m_SubmeshIndex: 0
    m_ManualUV: 0
    elementGroup: 0
    m_TextureGroup: -1
  - m_Indexes: 7d0000007e0000007f000000
    m_SmoothingGroup: 0
    m_Uv:
      m_UseWorldSpace: 0
      m_FlipU: 0
      m_FlipV: 0
      m_SwapUV: 0
      m_Fill: 1
      m_Scale: {x: 1, y: 1}
      m_Offset: {x: 0, y: 0}
      m_Rotation: 0
      m_Anchor: 9
    m_Material: {fileID: 2100000, guid: c22777d6e868e4f2fb421913386b154e, type: 2}
    m_SubmeshIndex: 0
    m_ManualUV: 0
    elementGroup: 0
    m_TextureGroup: -1
  - m_Indexes: 830000008400000085000000
    m_SmoothingGroup: 0
    m_Uv:
      m_UseWorldSpace: 0
      m_FlipU: 0
      m_FlipV: 0
      m_SwapUV: 0
      m_Fill: 1
      m_Scale: {x: 1, y: 1}
      m_Offset: {x: 0, y: 0}
      m_Rotation: 0
      m_Anchor: 9
    m_Material: {fileID: 2100000, guid: c22777d6e868e4f2fb421913386b154e, type: 2}
    m_SubmeshIndex: 0
    m_ManualUV: 0
    elementGroup: 0
    m_TextureGroup: -1
  - m_Indexes: 890000008a0000008b000000
    m_SmoothingGroup: 0
    m_Uv:
      m_UseWorldSpace: 0
      m_FlipU: 0
      m_FlipV: 0
      m_SwapUV: 0
      m_Fill: 1
      m_Scale: {x: 1, y: 1}
      m_Offset: {x: 0, y: 0}
      m_Rotation: 0
      m_Anchor: 9
    m_Material: {fileID: 2100000, guid: c22777d6e868e4f2fb421913386b154e, type: 2}
    m_SubmeshIndex: 0
    m_ManualUV: 0
    elementGroup: 0
    m_TextureGroup: -1
  - m_Indexes: 8f0000009000000091000000
    m_SmoothingGroup: 0
    m_Uv:
      m_UseWorldSpace: 0
      m_FlipU: 0
      m_FlipV: 0
      m_SwapUV: 0
      m_Fill: 1
      m_Scale: {x: 1, y: 1}
      m_Offset: {x: 0, y: 0}
      m_Rotation: 0
      m_Anchor: 9
    m_Material: {fileID: 2100000, guid: c22777d6e868e4f2fb421913386b154e, type: 2}
    m_SubmeshIndex: 0
    m_ManualUV: 0
    elementGroup: 0
    m_TextureGroup: -1
  - m_Indexes: 950000009600000097000000
    m_SmoothingGroup: 0
    m_Uv:
      m_UseWorldSpace: 0
      m_FlipU: 0
      m_FlipV: 0
      m_SwapUV: 0
      m_Fill: 1
      m_Scale: {x: 1, y: 1}
      m_Offset: {x: 0, y: 0}
      m_Rotation: 0
      m_Anchor: 9
    m_Material: {fileID: 2100000, guid: c22777d6e868e4f2fb421913386b154e, type: 2}
    m_SubmeshIndex: 0
    m_ManualUV: 0
    elementGroup: 0
    m_TextureGroup: -1
  - m_Indexes: 9b0000009c0000009d000000
    m_SmoothingGroup: 0
    m_Uv:
      m_UseWorldSpace: 0
      m_FlipU: 0
      m_FlipV: 0
      m_SwapUV: 0
      m_Fill: 1
      m_Scale: {x: 1, y: 1}
      m_Offset: {x: 0, y: 0}
      m_Rotation: 0
      m_Anchor: 9
    m_Material: {fileID: 2100000, guid: c22777d6e868e4f2fb421913386b154e, type: 2}
    m_SubmeshIndex: 0
    m_ManualUV: 0
    elementGroup: 0
    m_TextureGroup: -1
  - m_Indexes: a1000000a2000000a3000000
    m_SmoothingGroup: 0
    m_Uv:
      m_UseWorldSpace: 0
      m_FlipU: 0
      m_FlipV: 0
      m_SwapUV: 0
      m_Fill: 1
      m_Scale: {x: 1, y: 1}
      m_Offset: {x: 0, y: 0}
      m_Rotation: 0
      m_Anchor: 9
    m_Material: {fileID: 2100000, guid: c22777d6e868e4f2fb421913386b154e, type: 2}
    m_SubmeshIndex: 0
    m_ManualUV: 0
    elementGroup: 0
    m_TextureGroup: -1
  - m_Indexes: a7000000a8000000a9000000
    m_SmoothingGroup: 0
    m_Uv:
      m_UseWorldSpace: 0
      m_FlipU: 0
      m_FlipV: 0
      m_SwapUV: 0
      m_Fill: 1
      m_Scale: {x: 1, y: 1}
      m_Offset: {x: 0, y: 0}
      m_Rotation: 0
      m_Anchor: 9
    m_Material: {fileID: 2100000, guid: c22777d6e868e4f2fb421913386b154e, type: 2}
    m_SubmeshIndex: 0
    m_ManualUV: 0
    elementGroup: 0
    m_TextureGroup: -1
  - m_Indexes: ad000000ae000000af000000
    m_SmoothingGroup: 0
    m_Uv:
      m_UseWorldSpace: 0
      m_FlipU: 0
      m_FlipV: 0
      m_SwapUV: 0
      m_Fill: 1
      m_Scale: {x: 1, y: 1}
      m_Offset: {x: 0, y: 0}
      m_Rotation: 0
      m_Anchor: 9
    m_Material: {fileID: 2100000, guid: c22777d6e868e4f2fb421913386b154e, type: 2}
    m_SubmeshIndex: 0
    m_ManualUV: 0
    elementGroup: 0
    m_TextureGroup: -1
  - m_Indexes: b3000000b4000000b5000000
    m_SmoothingGroup: 0
    m_Uv:
      m_UseWorldSpace: 0
      m_FlipU: 0
      m_FlipV: 0
      m_SwapUV: 0
      m_Fill: 1
      m_Scale: {x: 1, y: 1}
      m_Offset: {x: 0, y: 0}
      m_Rotation: 0
      m_Anchor: 9
    m_Material: {fileID: 2100000, guid: c22777d6e868e4f2fb421913386b154e, type: 2}
    m_SubmeshIndex: 0
    m_ManualUV: 0
    elementGroup: 0
    m_TextureGroup: -1
  - m_Indexes: b9000000ba000000bb000000
    m_SmoothingGroup: 0
    m_Uv:
      m_UseWorldSpace: 0
      m_FlipU: 0
      m_FlipV: 0
      m_SwapUV: 0
      m_Fill: 1
      m_Scale: {x: 1, y: 1}
      m_Offset: {x: 0, y: 0}
      m_Rotation: 0
      m_Anchor: 9
    m_Material: {fileID: 2100000, guid: c22777d6e868e4f2fb421913386b154e, type: 2}
    m_SubmeshIndex: 0
    m_ManualUV: 0
    elementGroup: 0
    m_TextureGroup: -1
  - m_Indexes: bf000000c0000000c1000000
    m_SmoothingGroup: 0
    m_Uv:
      m_UseWorldSpace: 0
      m_FlipU: 0
      m_FlipV: 0
      m_SwapUV: 0
      m_Fill: 1
      m_Scale: {x: 1, y: 1}
      m_Offset: {x: 0, y: 0}
      m_Rotation: 0
      m_Anchor: 9
    m_Material: {fileID: 2100000, guid: c22777d6e868e4f2fb421913386b154e, type: 2}
    m_SubmeshIndex: 0
    m_ManualUV: 0
    elementGroup: 0
    m_TextureGroup: -1
  - m_Indexes: c5000000c6000000c7000000
    m_SmoothingGroup: 0
    m_Uv:
      m_UseWorldSpace: 0
      m_FlipU: 0
      m_FlipV: 0
      m_SwapUV: 0
      m_Fill: 1
      m_Scale: {x: 1, y: 1}
      m_Offset: {x: 0, y: 0}
      m_Rotation: 0
      m_Anchor: 9
    m_Material: {fileID: 2100000, guid: c22777d6e868e4f2fb421913386b154e, type: 2}
    m_SubmeshIndex: 0
    m_ManualUV: 0
    elementGroup: 0
    m_TextureGroup: -1
  m_SharedVertices:
  - m_Vertices: 000000004e00000050000000c4000000
  - m_Vertices: 010000004f00000053000000c7000000
  - m_Vertices: 02000000040000005200000056000000
  - m_Vertices: 03000000050000005500000059000000
  - m_Vertices: 0600000008000000580000005c000000
  - m_Vertices: 07000000090000005b0000005f000000
  - m_Vertices: 0a0000000c0000005e00000062000000
  - m_Vertices: 0b0000000d0000006100000065000000
  - m_Vertices: 0e000000100000006400000068000000
  - m_Vertices: 0f00000011000000670000006b000000
  - m_Vertices: 12000000140000006a0000006e000000
  - m_Vertices: 13000000150000006d00000071000000
  - m_Vertices: 16000000180000007000000074000000
  - m_Vertices: 17000000190000007300000077000000
  - m_Vertices: 1a0000001c000000760000007a000000
  - m_Vertices: 1b0000001d000000790000007d000000
  - m_Vertices: 1e000000200000007c00000080000000
  - m_Vertices: 1f000000210000007f00000083000000
  - m_Vertices: 22000000240000008200000086000000
  - m_Vertices: 23000000250000008500000089000000
  - m_Vertices: 2600000028000000880000008c000000
  - m_Vertices: 27000000290000008b0000008f000000
  - m_Vertices: 2a0000002c0000008e00000092000000
  - m_Vertices: 2b0000002d0000009100000095000000
  - m_Vertices: 2e000000300000009400000098000000
  - m_Vertices: 2f00000031000000970000009b000000
  - m_Vertices: 32000000340000009a0000009e000000
  - m_Vertices: 33000000350000009d000000a1000000
  - m_Vertices: 3600000038000000a0000000a4000000
  - m_Vertices: 3700000039000000a3000000a7000000
  - m_Vertices: 3a0000003c000000a6000000aa000000
  - m_Vertices: 3b0000003d000000a9000000ad000000
  - m_Vertices: 3e00000040000000ac000000b0000000
  - m_Vertices: 3f00000041000000af000000b3000000
  - m_Vertices: 4200000044000000b2000000b6000000
  - m_Vertices: 4300000045000000b5000000b9000000
  - m_Vertices: 4600000048000000b8000000bc000000
  - m_Vertices: 4700000049000000bb000000bf000000
  - m_Vertices: 4a0000004c000000be000000c2000000
  - m_Vertices: 4b0000004d000000c1000000c5000000
  - m_Vertices: 51000000570000005d00000063000000690000006f000000750000007b00000081000000870000008d00000093000000990000009f000000a5000000ab000000b1000000b7000000bd000000c3000000
  - m_Vertices: 540000005a00000060000000660000006c00000072000000780000007e000000840000008a00000090000000960000009c000000a2000000a8000000ae000000b4000000ba000000c0000000c6000000
  m_SharedTextures: []
  m_Positions:
  - {x: 0, y: 0, z: 0}
  - {x: 0, y: 30, z: 0}
  - {x: -0.9788685, y: 0, z: 6.18034}
  - {x: -0.9788685, y: 30, z: 6.18034}
  - {x: -0.9788685, y: 0, z: 6.18034}
  - {x: -0.9788685, y: 30, z: 6.18034}
  - {x: -3.8196602, y: 0, z: 11.755705}
  - {x: -3.8196602, y: 30, z: 11.755705}
  - {x: -3.8196602, y: 0, z: 11.755705}
  - {x: -3.8196602, y: 30, z: 11.755705}
  - {x: -8.244294, y: 0, z: 16.18034}
  - {x: -8.244294, y: 30, z: 16.18034}
  - {x: -8.244294, y: 0, z: 16.18034}
  - {x: -8.244294, y: 30, z: 16.18034}
  - {x: -13.81966, y: 0, z: 19.021132}
  - {x: -13.81966, y: 30, z: 19.021132}
  - {x: -13.81966, y: 0, z: 19.021132}
  - {x: -13.81966, y: 30, z: 19.021132}
  - {x: -20, y: 0, z: 20}
  - {x: -20, y: 30, z: 20}
  - {x: -20, y: 0, z: 20}
  - {x: -20, y: 30, z: 20}
  - {x: -26.18034, y: 0, z: 19.021132}
  - {x: -26.18034, y: 30, z: 19.021132}
  - {x: -26.18034, y: 0, z: 19.021132}
  - {x: -26.18034, y: 30, z: 19.021132}
  - {x: -31.755703, y: 0, z: 16.18034}
  - {x: -31.755703, y: 30, z: 16.18034}
  - {x: -31.755703, y: 0, z: 16.18034}
  - {x: -31.755703, y: 30, z: 16.18034}
  - {x: -36.180344, y: 0, z: 11.755704}
  - {x: -36.180344, y: 30, z: 11.755704}
  - {x: -36.180344, y: 0, z: 11.755704}
  - {x: -36.180344, y: 30, z: 11.755704}
  - {x: -39.02113, y: 0, z: 6.180341}
  - {x: -39.02113, y: 30, z: 6.180341}
  - {x: -39.02113, y: 0, z: 6.180341}
  - {x: -39.02113, y: 30, z: 6.180341}
  - {x: -40, y: 0, z: -0.0000017484556}
  - {x: -40, y: 30, z: -0.0000017484556}
  - {x: -40, y: 0, z: -0.0000017484556}
  - {x: -40, y: 30, z: -0.0000017484556}
  - {x: -39.021133, y: 0, z: -6.1803393}
  - {x: -39.021133, y: 30, z: -6.1803393}
  - {x: -39.021133, y: 0, z: -6.1803393}
  - {x: -39.021133, y: 30, z: -6.1803393}
  - {x: -36.180344, y: 0, z: -11.755703}
  - {x: -36.180344, y: 30, z: -11.755703}
  - {x: -36.180344, y: 0, z: -11.755703}
  - {x: -36.180344, y: 30, z: -11.755703}
  - {x: -31.755709, y: 0, z: -16.180336}
  - {x: -31.755709, y: 30, z: -16.180336}
  - {x: -31.755709, y: 0, z: -16.180336}
  - {x: -31.755709, y: 30, z: -16.180336}
  - {x: -26.180342, y: 0, z: -19.02113}
  - {x: -26.180342, y: 30, z: -19.02113}
  - {x: -26.180342, y: 0, z: -19.02113}
  - {x: -26.180342, y: 30, z: -19.02113}
  - {x: -20, y: 0, z: -20}
  - {x: -20, y: 30, z: -20}
  - {x: -20, y: 0, z: -20}
  - {x: -20, y: 30, z: -20}
  - {x: -13.819657, y: 0, z: -19.02113}
  - {x: -13.819657, y: 30, z: -19.02113}
  - {x: -13.819657, y: 0, z: -19.02113}
  - {x: -13.819657, y: 30, z: -19.02113}
  - {x: -8.244299, y: 0, z: -16.180342}
  - {x: -8.244299, y: 30, z: -16.180342}
  - {x: -8.244299, y: 0, z: -16.180342}
  - {x: -8.244299, y: 30, z: -16.180342}
  - {x: -3.8196602, y: 0, z: -11.755706}
  - {x: -3.8196602, y: 30, z: -11.755706}
  - {x: -3.8196602, y: 0, z: -11.755706}
  - {x: -3.8196602, y: 30, z: -11.755706}
  - {x: -0.9788685, y: 0, z: -6.180339}
  - {x: -0.9788685, y: 30, z: -6.180339}
  - {x: -0.9788685, y: 0, z: -6.180339}
  - {x: -0.9788685, y: 30, z: -6.180339}
  - {x: 0, y: 0, z: 0}
  - {x: 0, y: 30, z: 0}
  - {x: 0, y: 0, z: 0}
  - {x: -20, y: 0, z: 0}
  - {x: -0.9788685, y: 0, z: 6.18034}
  - {x: 0, y: 30, z: 0}
  - {x: -20, y: 30, z: 0}
  - {x: -0.9788685, y: 30, z: 6.18034}
  - {x: -0.9788685, y: 0, z: 6.18034}
  - {x: -20, y: 0, z: 0}
  - {x: -3.8196602, y: 0, z: 11.755705}
  - {x: -0.9788685, y: 30, z: 6.18034}
  - {x: -20, y: 30, z: 0}
  - {x: -3.8196602, y: 30, z: 11.755705}
  - {x: -3.8196602, y: 0, z: 11.755705}
  - {x: -20, y: 0, z: 0}
  - {x: -8.244294, y: 0, z: 16.18034}
  - {x: -3.8196602, y: 30, z: 11.755705}
  - {x: -20, y: 30, z: 0}
  - {x: -8.244294, y: 30, z: 16.18034}
  - {x: -8.244294, y: 0, z: 16.18034}
  - {x: -20, y: 0, z: 0}
  - {x: -13.81966, y: 0, z: 19.021132}
  - {x: -8.244294, y: 30, z: 16.18034}
  - {x: -20, y: 30, z: 0}
  - {x: -13.81966, y: 30, z: 19.021132}
  - {x: -13.81966, y: 0, z: 19.021132}
  - {x: -20, y: 0, z: 0}
  - {x: -20, y: 0, z: 20}
  - {x: -13.81966, y: 30, z: 19.021132}
  - {x: -20, y: 30, z: 0}
  - {x: -20, y: 30, z: 20}
  - {x: -20, y: 0, z: 20}
  - {x: -20, y: 0, z: 0}
  - {x: -26.18034, y: 0, z: 19.021132}
  - {x: -20, y: 30, z: 20}
  - {x: -20, y: 30, z: 0}
  - {x: -26.18034, y: 30, z: 19.021132}
  - {x: -26.18034, y: 0, z: 19.021132}
  - {x: -20, y: 0, z: 0}
  - {x: -31.755703, y: 0, z: 16.18034}
  - {x: -26.18034, y: 30, z: 19.021132}
  - {x: -20, y: 30, z: 0}
  - {x: -31.755703, y: 30, z: 16.18034}
  - {x: -31.755703, y: 0, z: 16.18034}
  - {x: -20, y: 0, z: 0}
  - {x: -36.180344, y: 0, z: 11.755704}
  - {x: -31.755703, y: 30, z: 16.18034}
  - {x: -20, y: 30, z: 0}
  - {x: -36.180344, y: 30, z: 11.755704}
  - {x: -36.180344, y: 0, z: 11.755704}
  - {x: -20, y: 0, z: 0}
  - {x: -39.02113, y: 0, z: 6.180341}
  - {x: -36.180344, y: 30, z: 11.755704}
  - {x: -20, y: 30, z: 0}
  - {x: -39.02113, y: 30, z: 6.180341}
  - {x: -39.02113, y: 0, z: 6.180341}
  - {x: -20, y: 0, z: 0}
  - {x: -40, y: 0, z: -0.0000017484556}
  - {x: -39.02113, y: 30, z: 6.180341}
  - {x: -20, y: 30, z: 0}
  - {x: -40, y: 30, z: -0.0000017484556}
  - {x: -40, y: 0, z: -0.0000017484556}
  - {x: -20, y: 0, z: 0}
  - {x: -39.021133, y: 0, z: -6.1803393}
  - {x: -40, y: 30, z: -0.0000017484556}
  - {x: -20, y: 30, z: 0}
  - {x: -39.021133, y: 30, z: -6.1803393}
  - {x: -39.021133, y: 0, z: -6.1803393}
  - {x: -20, y: 0, z: 0}
  - {x: -36.180344, y: 0, z: -11.755703}
  - {x: -39.021133, y: 30, z: -6.1803393}
  - {x: -20, y: 30, z: 0}
  - {x: -36.180344, y: 30, z: -11.755703}
  - {x: -36.180344, y: 0, z: -11.755703}
  - {x: -20, y: 0, z: 0}
  - {x: -31.755709, y: 0, z: -16.180336}
  - {x: -36.180344, y: 30, z: -11.755703}
  - {x: -20, y: 30, z: 0}
  - {x: -31.755709, y: 30, z: -16.180336}
  - {x: -31.755709, y: 0, z: -16.180336}
  - {x: -20, y: 0, z: 0}
  - {x: -26.180342, y: 0, z: -19.02113}
  - {x: -31.755709, y: 30, z: -16.180336}
  - {x: -20, y: 30, z: 0}
  - {x: -26.180342, y: 30, z: -19.02113}
  - {x: -26.180342, y: 0, z: -19.02113}
  - {x: -20, y: 0, z: 0}
  - {x: -20, y: 0, z: -20}
  - {x: -26.180342, y: 30, z: -19.02113}
  - {x: -20, y: 30, z: 0}
  - {x: -20, y: 30, z: -20}
  - {x: -20, y: 0, z: -20}
  - {x: -20, y: 0, z: 0}
  - {x: -13.819657, y: 0, z: -19.02113}
  - {x: -20, y: 30, z: -20}
  - {x: -20, y: 30, z: 0}
  - {x: -13.819657, y: 30, z: -19.02113}
  - {x: -13.819657, y: 0, z: -19.02113}
  - {x: -20, y: 0, z: 0}
  - {x: -8.244299, y: 0, z: -16.180342}
  - {x: -13.819657, y: 30, z: -19.02113}
  - {x: -20, y: 30, z: 0}
  - {x: -8.244299, y: 30, z: -16.180342}
  - {x: -8.244299, y: 0, z: -16.180342}
  - {x: -20, y: 0, z: 0}
  - {x: -3.8196602, y: 0, z: -11.755706}
  - {x: -8.244299, y: 30, z: -16.180342}
  - {x: -20, y: 30, z: 0}
  - {x: -3.8196602, y: 30, z: -11.755706}
  - {x: -3.8196602, y: 0, z: -11.755706}
  - {x: -20, y: 0, z: 0}
  - {x: -0.9788685, y: 0, z: -6.180339}
  - {x: -3.8196602, y: 30, z: -11.755706}
  - {x: -20, y: 30, z: 0}
  - {x: -0.9788685, y: 30, z: -6.180339}
  - {x: -0.9788685, y: 0, z: -6.180339}
  - {x: -20, y: 0, z: 0}
  - {x: 0, y: 0, z: 0}
  - {x: -0.9788685, y: 30, z: -6.180339}
  - {x: -20, y: 30, z: 0}
  - {x: 0, y: 30, z: 0}
  m_Textures0:
  - {x: 0, y: 0}
  - {x: 0, y: 30}
  - {x: 6.257378, y: 0}
  - {x: 6.257378, y: 30}
  - {x: 5.95112, y: 0}
  - {x: 5.95112, y: 30}
  - {x: 12.208499, y: 0}
  - {x: 12.208499, y: 30}
  - {x: 11.013447, y: 0}
  - {x: 11.013447, y: 30}
  - {x: 17.270826, y: 0}
  - {x: 17.270826, y: 30}
  - {x: 14.691442, y: 0}
  - {x: 14.691442, y: 30}
  - {x: 20.948822, y: 0}
  - {x: 20.948822, y: 30}
  - {x: 16.625074, y: 0}
  - {x: 16.625074, y: 30}
  - {x: 22.882452, y: 0}
  - {x: 22.882452, y: 30}
  - {x: 16.625082, y: 0}
  - {x: 16.625082, y: 30}
  - {x: 22.88246, y: 0}
  - {x: 22.88246, y: 30}
  - {x: 14.69143, y: 0}
  - {x: 14.69143, y: 30}
  - {x: 20.948809, y: 0}
  - {x: 20.948809, y: 30}
  - {x: 11.013465, y: 0}
  - {x: 11.013465, y: 30}
  - {x: 17.270847, y: 0}
  - {x: 17.270847, y: 30}
  - {x: 5.951105, y: 0}
  - {x: 5.951105, y: 30}
  - {x: 12.20848, y: 0}
  - {x: 12.20848, y: 30}
  - {x: 0.0000010698493, y: 0}
  - {x: 0.0000010698493, y: 30}
  - {x: 6.2573824, y: 0}
  - {x: 6.2573824, y: 30}
  - {x: -6.25736, y: 0}
  - {x: -6.25736, y: 30}
  - {x: 0.000015895605, y: 0}
  - {x: 0.000015895605, y: 30}
  - {x: -12.208503, y: 0}
  - {x: -12.208503, y: 30}
  - {x: -5.951126, y: 0}
  - {x: -5.951126, y: 30}
  - {x: -17.270838, y: 0}
  - {x: -17.270838, y: 30}
  - {x: -11.01346, y: 0}
  - {x: -11.01346, y: 30}
  - {x: -20.948816, y: 0}
  - {x: -20.948816, y: 30}
  - {x: -14.691435, y: 0}
  - {x: -14.691435, y: 30}
  - {x: -22.882458, y: 0}
  - {x: -22.882458, y: 30}
  - {x: -16.625076, y: 0}
  - {x: -16.625076, y: 30}
  - {x: -22.882458, y: 0}
  - {x: -22.882458, y: 30}
  - {x: -16.625076, y: 0}
  - {x: -16.625076, y: 30}
  - {x: -20.948818, y: 0}
  - {x: -20.948818, y: 30}
  - {x: -14.691446, y: 0}
  - {x: -14.691446, y: 30}
  - {x: -17.270826, y: 0}
  - {x: -17.270826, y: 30}
  - {x: -11.013445, y: 0}
  - {x: -11.013445, y: 30}
  - {x: -12.2085, y: 0}
  - {x: -12.2085, y: 30}
  - {x: -5.951119, y: 0}
  - {x: -5.951119, y: 30}
  - {x: -6.257377, y: 0}
  - {x: -6.257377, y: 30}
  - {x: 0, y: 0}
  - {x: 0, y: 30}
  - {x: 0, y: 0}
  - {x: 20, y: 0}
  - {x: 0.9788685, y: 6.18034}
  - {x: 0, y: 0}
  - {x: -20, y: 0}
  - {x: -0.9788685, y: 6.18034}
  - {x: 0.9788685, y: 6.18034}
  - {x: 20, y: 0}
  - {x: 3.8196602, y: 11.755705}
  - {x: -0.9788685, y: 6.18034}
  - {x: -20, y: 0}
  - {x: -3.8196602, y: 11.755705}
  - {x: 3.8196602, y: 11.755705}
  - {x: 20, y: 0}
  - {x: 8.244294, y: 16.18034}
  - {x: -3.8196602, y: 11.755705}
  - {x: -20, y: 0}
  - {x: -8.244294, y: 16.18034}
  - {x: 8.244294, y: 16.18034}
  - {x: 20, y: 0}
  - {x: 13.81966, y: 19.021132}
  - {x: -8.244294, y: 16.18034}
  - {x: -20, y: 0}
  - {x: -13.81966, y: 19.021132}
  - {x: 13.81966, y: 19.021132}
  - {x: 20, y: 0}
  - {x: 20, y: 20}
  - {x: -13.81966, y: 19.021132}
  - {x: -20, y: 0}
  - {x: -20, y: 20}
  - {x: 20, y: 20}
  - {x: 20, y: 0}
  - {x: 26.18034, y: 19.021132}
  - {x: -20, y: 20}
  - {x: -20, y: 0}
  - {x: -26.18034, y: 19.021132}
  - {x: 26.18034, y: 19.021132}
  - {x: 20, y: 0}
  - {x: 31.755703, y: 16.18034}
  - {x: -26.18034, y: 19.021132}
  - {x: -20, y: 0}
  - {x: -31.755703, y: 16.18034}
  - {x: 31.755703, y: 16.18034}
  - {x: 20, y: 0}
  - {x: 36.180344, y: 11.755704}
  - {x: -31.755703, y: 16.18034}
  - {x: -20, y: 0}
  - {x: -36.180344, y: 11.755704}
  - {x: 36.180344, y: 11.755704}
  - {x: 20, y: 0}
  - {x: 39.02113, y: 6.180341}
  - {x: -36.180344, y: 11.755704}
  - {x: -20, y: 0}
  - {x: -39.02113, y: 6.180341}
  - {x: 39.02113, y: 6.180341}
  - {x: 20, y: 0}
  - {x: 40, y: -0.0000017484556}
  - {x: -39.02113, y: 6.180341}
  - {x: -20, y: 0}
  - {x: -40, y: -0.0000017484556}
  - {x: 40, y: -0.0000017484556}
  - {x: 20, y: 0}
  - {x: 39.021133, y: -6.1803393}
  - {x: -40, y: -0.0000017484556}
  - {x: -20, y: 0}
  - {x: -39.021133, y: -6.1803393}
  - {x: 39.021133, y: -6.1803393}
  - {x: 20, y: 0}
  - {x: 36.180344, y: -11.755703}
  - {x: -39.021133, y: -6.1803393}
  - {x: -20, y: 0}
  - {x: -36.180344, y: -11.755703}
  - {x: 36.180344, y: -11.755703}
  - {x: 20, y: 0}
  - {x: 31.755709, y: -16.180336}
  - {x: -36.180344, y: -11.755703}
  - {x: -20, y: 0}
  - {x: -31.755709, y: -16.180336}
  - {x: 31.755709, y: -16.180336}
  - {x: 20, y: 0}
  - {x: 26.180342, y: -19.02113}
  - {x: -31.755709, y: -16.180336}
  - {x: -20, y: 0}
  - {x: -26.180342, y: -19.02113}
  - {x: 26.180342, y: -19.02113}
  - {x: 20, y: 0}
  - {x: 20, y: -20}
  - {x: -26.180342, y: -19.02113}
  - {x: -20, y: 0}
  - {x: -20, y: -20}
  - {x: 20, y: -20}
  - {x: 20, y: 0}
  - {x: 13.819657, y: -19.02113}
  - {x: -20, y: -20}
  - {x: -20, y: 0}
  - {x: -13.819657, y: -19.02113}
  - {x: 13.819657, y: -19.02113}
  - {x: 20, y: 0}
  - {x: 8.244299, y: -16.180342}
  - {x: -13.819657, y: -19.02113}
  - {x: -20, y: 0}
  - {x: -8.244299, y: -16.180342}
  - {x: 8.244299, y: -16.180342}
  - {x: 20, y: 0}
  - {x: 3.8196602, y: -11.755706}
  - {x: -8.244299, y: -16.180342}
  - {x: -20, y: 0}
  - {x: -3.8196602, y: -11.755706}
  - {x: 3.8196602, y: -11.755706}
  - {x: 20, y: 0}
  - {x: 0.9788685, y: -6.180339}
  - {x: -3.8196602, y: -11.755706}
  - {x: -20, y: 0}
  - {x: -0.9788685, y: -6.180339}
  - {x: 0.9788685, y: -6.180339}
  - {x: 20, y: 0}
  - {x: 0, y: 0}
  - {x: -0.9788685, y: -6.180339}
  - {x: -20, y: 0}
  - {x: 0, y: 0}
  m_Textures2: []
  m_Textures3: []
  m_Tangents:
  - {x: 0.000000015086904, y: 0, z: 1, w: -1}
  - {x: 0.000000015086904, y: 0, z: 1, w: -1}
  - {x: -0.30901706, y: 0, z: 0.9510565, w: -1}
  - {x: -0.30901706, y: 0, z: 0.9510565, w: -1}
  - {x: -0.309017, y: 0, z: 0.9510565, w: -1}
  - {x: -0.309017, y: 0, z: 0.9510565, w: -1}
  - {x: -0.5877853, y: 0, z: 0.809017, w: -1}
  - {x: -0.5877853, y: 0, z: 0.809017, w: -1}
  - {x: -0.5877853, y: 0, z: 0.809017, w: -1}
  - {x: -0.5877853, y: 0, z: 0.809017, w: -1}
  - {x: -0.80901694, y: 0, z: 0.58778536, w: -1}
  - {x: -0.80901694, y: 0, z: 0.58778536, w: -1}
  - {x: -0.8090169, y: 0, z: 0.5877854, w: -1}
  - {x: -0.8090169, y: 0, z: 0.5877854, w: -1}
  - {x: -0.95105654, y: 0, z: 0.309017, w: -1}
  - {x: -0.95105654, y: 0, z: 0.309017, w: -1}
  - {x: -0.9510565, y: 0, z: 0.309017, w: -1}
  - {x: -0.9510565, y: 0, z: 0.309017, w: -1}
  - {x: -1, y: 0, z: 0, w: -1}
  - {x: -1, y: 0, z: 0, w: -1}
  - {x: -1, y: 0, z: 0, w: -1}
  - {x: -1, y: 0, z: 0, w: -1}
  - {x: -0.9510565, y: 0, z: -0.30901715, w: -1}
  - {x: -0.9510565, y: 0, z: -0.30901715, w: -1}
  - {x: -0.9510565, y: 0, z: -0.30901706, w: -1}
  - {x: -0.9510565, y: 0, z: -0.30901706, w: -1}
  - {x: -0.80901706, y: 0, z: -0.5877852, w: -1}
  - {x: -0.80901706, y: 0, z: -0.5877852, w: -1}
  - {x: -0.80901706, y: 0, z: -0.5877851, w: -1}
  - {x: -0.80901706, y: 0, z: -0.5877851, w: -1}
  - {x: -0.5877853, y: 0, z: -0.80901694, w: -1}
  - {x: -0.5877853, y: 0, z: -0.80901694, w: -1}
  - {x: -0.5877853, y: 0, z: -0.80901694, w: -1}
  - {x: -0.5877853, y: 0, z: -0.80901694, w: -1}
  - {x: -0.30901676, y: 0, z: -0.95105666, w: -1}
  - {x: -0.30901676, y: 0, z: -0.95105666, w: -1}
  - {x: -0.3090168, y: 0, z: -0.9510566, w: -1}
  - {x: -0.3090168, y: 0, z: -0.9510566, w: -1}
  - {x: -0.0000002413905, y: 0, z: -1, w: -1}
  - {x: -0.0000002413905, y: 0, z: -1, w: -1}
  - {x: -0.0000002413905, y: 0, z: -1, w: -1}
  - {x: -0.0000002413905, y: 0, z: -1, w: -1}
  - {x: 0.30901685, y: 0, z: -0.95105654, w: -1}
  - {x: 0.30901685, y: 0, z: -0.95105654, w: -1}
  - {x: 0.3090168, y: 0, z: -0.9510566, w: -1}
  - {x: 0.3090168, y: 0, z: -0.9510566, w: -1}
  - {x: 0.5877854, y: 0, z: -0.8090169, w: -1}
  - {x: 0.5877854, y: 0, z: -0.8090169, w: -1}
  - {x: 0.5877854, y: 0, z: -0.8090169, w: -1}
  - {x: 0.5877854, y: 0, z: -0.8090169, w: -1}
  - {x: 0.809017, y: 0, z: -0.5877853, w: -1}
  - {x: 0.809017, y: 0, z: -0.5877853, w: -1}
  - {x: 0.809017, y: 0, z: -0.5877853, w: -1}
  - {x: 0.809017, y: 0, z: -0.5877853, w: -1}
  - {x: 0.9510565, y: 0, z: -0.30901718, w: -1}
  - {x: 0.9510565, y: 0, z: -0.30901718, w: -1}
  - {x: 0.9510565, y: 0, z: -0.3090172, w: -1}
  - {x: 0.9510565, y: 0, z: -0.3090172, w: -1}
  - {x: 1, y: 0, z: 0, w: -1}
  - {x: 1, y: 0, z: 0, w: -1}
  - {x: 1, y: 0, z: 0, w: -1}
  - {x: 1, y: 0, z: 0, w: -1}
  - {x: 0.9510565, y: 0, z: 0.3090171, w: -1}
  - {x: 0.9510565, y: 0, z: 0.3090171, w: -1}
  - {x: 0.9510565, y: 0, z: 0.3090171, w: -1}
  - {x: 0.9510565, y: 0, z: 0.3090171, w: -1}
  - {x: 0.80901706, y: 0, z: 0.5877852, w: -1}
  - {x: 0.80901706, y: 0, z: 0.5877852, w: -1}
  - {x: 0.8090171, y: 0, z: 0.58778507, w: -1}
  - {x: 0.8090171, y: 0, z: 0.58778507, w: -1}
  - {x: 0.5877854, y: 0, z: 0.8090169, w: -1}
  - {x: 0.5877854, y: 0, z: 0.8090169, w: -1}
  - {x: 0.5877854, y: 0, z: 0.8090169, w: -1}
  - {x: 0.5877854, y: 0, z: 0.8090169, w: -1}
  - {x: 0.30901697, y: 0, z: 0.95105654, w: -1}
  - {x: 0.30901697, y: 0, z: 0.95105654, w: -1}
  - {x: 0.30901703, y: 0, z: 0.9510565, w: -1}
  - {x: 0.30901703, y: 0, z: 0.9510565, w: -1}
  - {x: 0.000000015086906, y: 0, z: 1, w: -1}
  - {x: 0.000000015086906, y: 0, z: 1, w: -1}
  - {x: -1, y: 0, z: 0, w: -1}
  - {x: -1, y: 0, z: 0, w: -1}
  - {x: -1, y: 0, z: 0, w: -1}
  - {x: 1, y: 0, z: 0, w: -1}
  - {x: 1, y: 0, z: 0, w: -1}
  - {x: 1, y: 0, z: 0, w: -1}
  - {x: -1, y: 0, z: 0, w: -1}
  - {x: -1, y: 0, z: 0, w: -1}
  - {x: -1, y: 0, z: 0, w: -1}
  - {x: 1, y: 0, z: 0, w: -1}
  - {x: 1, y: 0, z: 0, w: -1}
  - {x: 1, y: 0, z: 0, w: -1}
  - {x: -1, y: 0, z: 0, w: -1}
  - {x: -1, y: 0, z: 0, w: -1}
  - {x: -1, y: 0, z: 0, w: -1}
  - {x: 1, y: 0, z: 0, w: -1}
  - {x: 1, y: 0, z: 0, w: -1}
  - {x: 1, y: 0, z: 0, w: -1}
  - {x: -1, y: 0, z: 0, w: -1}
  - {x: -1, y: 0, z: 0, w: -1}
  - {x: -1, y: 0, z: 0, w: -1}
  - {x: 1, y: 0, z: 0, w: -1}
  - {x: 1, y: 0, z: 0, w: -1}
  - {x: 1, y: 0, z: 0, w: -1}
  - {x: -1, y: 0, z: 0, w: -1}
  - {x: -1, y: 0, z: 0, w: -1}
  - {x: -1, y: 0, z: 0, w: -1}
  - {x: 1, y: 0, z: 0, w: -1}
  - {x: 1, y: 0, z: 0, w: -1}
  - {x: 1, y: 0, z: 0, w: -1}
  - {x: -1, y: 0, z: 0, w: -1}
  - {x: -1, y: 0, z: 0, w: -1}
  - {x: -1, y: 0, z: 0, w: -1}
  - {x: 1, y: 0, z: 0, w: -1}
  - {x: 1, y: 0, z: 0, w: -1}
  - {x: 1, y: 0, z: 0, w: -1}
  - {x: -1, y: 0, z: 0, w: -1}
  - {x: -1, y: 0, z: 0, w: -1}
  - {x: -1, y: 0, z: 0, w: -1}
  - {x: 1, y: 0, z: 0, w: -1}
  - {x: 1, y: 0, z: 0, w: -1}
  - {x: 1, y: 0, z: 0, w: -1}
  - {x: -1, y: 0, z: 0, w: -1}
  - {x: -1, y: 0, z: 0, w: -1}
  - {x: -1, y: 0, z: 0, w: -1}
  - {x: 1, y: 0, z: 0, w: -1}
  - {x: 1, y: 0, z: 0, w: -1}
  - {x: 1, y: 0, z: 0, w: -1}
  - {x: -1, y: 0, z: 0, w: -1}
  - {x: -1, y: 0, z: 0, w: -1}
  - {x: -1, y: 0, z: 0, w: -1}
  - {x: 1, y: 0, z: 0, w: -1}
  - {x: 1, y: 0, z: 0, w: -1}
  - {x: 1, y: 0, z: 0, w: -1}
  - {x: -1, y: 0, z: 0, w: -1}
  - {x: -1, y: 0, z: 0, w: -1}
  - {x: -1, y: 0, z: 0, w: -1}
  - {x: 1, y: 0, z: 0, w: -1}
  - {x: 1, y: 0, z: 0, w: -1}
  - {x: 1, y: 0, z: 0, w: -1}
  - {x: -1, y: 0, z: 0, w: -1}
  - {x: -1, y: 0, z: 0, w: -1}
  - {x: -1, y: 0, z: 0, w: -1}
  - {x: 1, y: 0, z: 0, w: -1}
  - {x: 1, y: 0, z: 0, w: -1}
  - {x: 1, y: 0, z: 0, w: -1}
  - {x: -1, y: 0, z: 0, w: -1}
  - {x: -1, y: 0, z: 0, w: -1}
  - {x: -1, y: 0, z: 0, w: -1}
  - {x: 1, y: 0, z: 0, w: -1}
  - {x: 1, y: 0, z: 0, w: -1}
  - {x: 1, y: 0, z: 0, w: -1}
  - {x: -1, y: 0, z: 0, w: -1}
  - {x: -1, y: 0, z: 0, w: -1}
  - {x: -1, y: 0, z: 0, w: -1}
  - {x: 1, y: 0, z: 0, w: -1}
  - {x: 1, y: 0, z: 0, w: -1}
  - {x: 1, y: 0, z: 0, w: -1}
  - {x: -1, y: 0, z: 0, w: -1}
  - {x: -1, y: 0, z: 0, w: -1}
  - {x: -1, y: 0, z: 0, w: -1}
  - {x: 1, y: 0, z: 0, w: -1}
  - {x: 1, y: 0, z: 0, w: -1}
  - {x: 1, y: 0, z: 0, w: -1}
  - {x: -1, y: 0, z: 0, w: -1}
  - {x: -1, y: 0, z: 0, w: -1}
  - {x: -1, y: 0, z: 0, w: -1}
  - {x: 1, y: 0, z: 0, w: -1}
  - {x: 1, y: 0, z: 0, w: -1}
  - {x: 1, y: 0, z: 0, w: -1}
  - {x: -1, y: 0, z: 0, w: -1}
  - {x: -1, y: 0, z: 0, w: -1}
  - {x: -1, y: 0, z: 0, w: -1}
  - {x: 1, y: 0, z: 0, w: -1}
  - {x: 1, y: 0, z: 0, w: -1}
  - {x: 1, y: 0, z: 0, w: -1}
  - {x: -1, y: 0, z: 0, w: -1}
  - {x: -1, y: 0, z: 0, w: -1}
  - {x: -1, y: 0, z: 0, w: -1}
  - {x: 1, y: 0, z: 0, w: -1}
  - {x: 1, y: 0, z: 0, w: -1}
  - {x: 1, y: 0, z: 0, w: -1}
  - {x: -1, y: 0, z: 0, w: -1}
  - {x: -1, y: 0, z: 0, w: -1}
  - {x: -1, y: 0, z: 0, w: -1}
  - {x: 1, y: 0, z: 0, w: -1}
  - {x: 1, y: 0, z: 0, w: -1}
  - {x: 1, y: 0, z: 0, w: -1}
  - {x: -1, y: 0, z: 0, w: -1}
  - {x: -1, y: 0, z: 0, w: -1}
  - {x: -1, y: 0, z: 0, w: -1}
  - {x: 1, y: 0, z: 0, w: -1}
  - {x: 1, y: 0, z: 0, w: -1}
  - {x: 1, y: 0, z: 0, w: -1}
  - {x: -1, y: 0, z: 0, w: -1}
  - {x: -1, y: 0, z: 0, w: -1}
  - {x: -1, y: 0, z: 0, w: -1}
  - {x: 1, y: 0, z: 0, w: -1}
  - {x: 1, y: 0, z: 0, w: -1}
  - {x: 1, y: 0, z: 0, w: -1}
  m_Colors: []
  m_UnwrapParameters:
    m_HardAngle: 88
    m_PackMargin: 20
    m_AngleError: 8
    m_AreaError: 15
  m_PreserveMeshAssetOnDestroy: 0
  assetGuid: 
  m_Mesh: {fileID: 0}
  m_IsSelectable: 1
  m_SelectedFaces: 
  m_SelectedEdges: []
  m_SelectedVertices: 
--- !u!23 &7261196282224084989
MeshRenderer:
  m_ObjectHideFlags: 0
  m_CorrespondingSourceObject: {fileID: 0}
  m_PrefabInstance: {fileID: 0}
  m_PrefabAsset: {fileID: 0}
  m_GameObject: {fileID: 3472404603689892819}
  m_Enabled: 1
  m_CastShadows: 1
  m_ReceiveShadows: 1
  m_DynamicOccludee: 1
  m_MotionVectors: 1
  m_LightProbeUsage: 1
  m_ReflectionProbeUsage: 1
  m_RayTracingMode: 2
  m_RayTraceProcedural: 0
  m_RenderingLayerMask: 1
  m_RendererPriority: 0
  m_Materials:
  - {fileID: 2100000, guid: 41ab8e5084f7d78408b4332cfe79a27d, type: 2}
  m_StaticBatchInfo:
    firstSubMesh: 0
    subMeshCount: 0
  m_StaticBatchRoot: {fileID: 0}
  m_ProbeAnchor: {fileID: 0}
  m_LightProbeVolumeOverride: {fileID: 0}
  m_ScaleInLightmap: 1
  m_ReceiveGI: 1
  m_PreserveUVs: 0
  m_IgnoreNormalsForChartDetection: 0
  m_ImportantGI: 0
  m_StitchLightmapSeams: 1
  m_SelectedEditorRenderState: 2
  m_MinimumChartSize: 4
  m_AutoUVMaxDistance: 0.5
  m_AutoUVMaxAngle: 89
  m_LightmapParameters: {fileID: 0}
  m_SortingLayerID: 0
  m_SortingLayer: 0
  m_SortingOrder: 0
  m_AdditionalVertexStreams: {fileID: 0}
--- !u!33 &3261166268058261417
MeshFilter:
  m_ObjectHideFlags: 0
  m_CorrespondingSourceObject: {fileID: 0}
  m_PrefabInstance: {fileID: 0}
  m_PrefabAsset: {fileID: 0}
  m_GameObject: {fileID: 3472404603689892819}
  m_Mesh: {fileID: 0}
--- !u!64 &180870303795482199
MeshCollider:
  m_ObjectHideFlags: 0
  m_CorrespondingSourceObject: {fileID: 0}
  m_PrefabInstance: {fileID: 0}
  m_PrefabAsset: {fileID: 0}
  m_GameObject: {fileID: 3472404603689892819}
  m_Material: {fileID: 0}
  m_IsTrigger: 0
  m_Enabled: 1
  serializedVersion: 4
  m_Convex: 0
  m_CookingOptions: 30
  m_Mesh: {fileID: 0}
