%YAML 1.1
%TAG !u! tag:unity3d.com,2011:
--- !u!21 &2100000
Material:
  serializedVersion: 6
  m_ObjectHideFlags: 0
  m_CorrespondingSourceObject: {fileID: 0}
  m_PrefabInstance: {fileID: 0}
  m_PrefabAsset: {fileID: 0}
  m_Name: _CloudMAT
  m_Shader: {fileID: -6465566751694194690, guid: 9e8e2a965b031a140b06b03de5e44779, type: 3}
  m_ShaderKeywords: 
  m_LightmapFlags: 4
  m_EnableInstancingVariants: 0
  m_DoubleSidedGI: 0
  m_CustomRenderQueue: -1
  stringTagMap: {}
  disabledShaderPasses: []
  m_SavedProperties:
    serializedVersion: 3
    m_TexEnvs:
    - unity_Lightmaps:
        m_Texture: {fileID: 0}
        m_Scale: {x: 1, y: 1}
        m_Offset: {x: 0, y: 0}
    - unity_LightmapsInd:
        m_Texture: {fileID: 0}
        m_Scale: {x: 1, y: 1}
        m_Offset: {x: 0, y: 0}
    - unity_ShadowMasks:
        m_Texture: {fileID: 0}
        m_Scale: {x: 1, y: 1}
        m_Offset: {x: 0, y: 0}
    m_Floats:
    - Vector1_34225aa163184ab7a81752995d083c55: 0.8
    - Vector1_633c364ad1ae4fb3bd45c5dd9145d17b: 0.6
    - Vector1_e6119956232a445fab9c7bde578df507: 0.6
    - Vector1_e78a8ecbc6e943a5a8a64a21667ecca8: 100
    - _AlphaCip: 0.65
    - _CloudScale: 100
    - _CloudsAlpha: 0.98
    - _CloudsPower: 0.3
    - _DistortScale: 30
    - _VertextOffset: 0.62
    m_Colors:
    - Vector2_9aa8030e6d384dd1a294aed6a7bae6bc: {r: 0.003, g: 0.003, b: 0, a: 0}
    - _CloudSpeed: {r: 0.001, g: 0.001, b: 0, a: 0}
    - _CloudsColor: {r: 3.1360276, g: 3.1360276, b: 3.1360276, a: 0.3921569}
    - _DistortSpeed: {r: 0.003, g: 0.003, b: 0, a: 0}
  m_BuildTextureStacks: []
