{
    "m_SGVersion": 2,
    "m_Type": "UnityEditor.ShaderGraph.GraphData",
    "m_ObjectId": "13903c1e732445b58ec174dafe12f369",
    "m_Properties": [
        {
            "m_Id": "4169065f17ee4d499928f42826b1c48a"
        },
        {
            "m_Id": "c52fb2675a434c0ab975acb83db59f13"
        },
        {
            "m_Id": "faed1ee9acb84e13814204c42a6d7c9d"
        },
        {
            "m_Id": "7f8a31bb4a36424487ef54f6a656772f"
        }
    ],
    "m_Keywords": [],
    "m_Nodes": [
        {
            "m_Id": "d19f87351c6e472a8b307c96a39dc4fe"
        },
        {
            "m_Id": "96d5d55aeadc4650942630e92524893b"
        },
        {
            "m_Id": "834e4f1e14484508a0d2b22bbfa9eb67"
        },
        {
            "m_Id": "80d02af4149b43819da3178d3a5694d5"
        },
        {
            "m_Id": "2b915e91f708460591ae72a9cec9a291"
        },
        {
            "m_Id": "495c956fd9eb46fdbe97489ebc10e0ef"
        },
        {
            "m_Id": "e870db14807a4a4e9c02810fcb018d6c"
        },
        {
            "m_Id": "236112157e7e46f89ff8463a827219f6"
        },
        {
            "m_Id": "c2b450c0076a45bc9ea0241a19010654"
        },
        {
            "m_Id": "7b950b70ffd74ed088dbc65970de4781"
        },
        {
            "m_Id": "016a2abea3744e0eab9e75bf54008065"
        },
        {
            "m_Id": "a6db3da58ac34aa8ba6ae4d6dbe0b1c7"
        },
        {
            "m_Id": "997423d4ce0c4f86ba2fcc052940c297"
        },
        {
            "m_Id": "1a81d8ece415434998322c945d1374d9"
        },
        {
            "m_Id": "3781edf59b2f400ab3f64671ffdebad7"
        },
        {
            "m_Id": "a9b639b9d94142bd921e6bca32866989"
        },
        {
            "m_Id": "18595d8d1d094951a53122f1491133ac"
        },
        {
            "m_Id": "368cec4eeda54c5394b55f873f747e8a"
        },
        {
            "m_Id": "53fe4ada0a3a40b192a8f969f2f5143e"
        },
        {
            "m_Id": "475c6851938549bb80ac9d0ec39e6aae"
        },
        {
            "m_Id": "92e68fdb58d44d3e912f32316b82cf35"
        },
        {
            "m_Id": "73378006b0cf4384907f16d723a06059"
        },
        {
            "m_Id": "3e13689fc6e44ae0be7a25b88c623926"
        },
        {
            "m_Id": "c69ac6dac7834942ab68dceadb154914"
        },
        {
            "m_Id": "50f14c85d68844c1b0a7ac63d429026c"
        },
        {
            "m_Id": "c8bdc7d1dc2a48a793c64d1e211e85b6"
        },
        {
            "m_Id": "640052c117b641e5afa2222cb1266b7c"
        }
    ],
    "m_GroupDatas": [],
    "m_StickyNoteDatas": [],
    "m_Edges": [
        {
            "m_OutputSlot": {
                "m_Node": {
                    "m_Id": "016a2abea3744e0eab9e75bf54008065"
                },
                "m_SlotId": 0
            },
            "m_InputSlot": {
                "m_Node": {
                    "m_Id": "7b950b70ffd74ed088dbc65970de4781"
                },
                "m_SlotId": 1
            }
        },
        {
            "m_OutputSlot": {
                "m_Node": {
                    "m_Id": "18595d8d1d094951a53122f1491133ac"
                },
                "m_SlotId": 0
            },
            "m_InputSlot": {
                "m_Node": {
                    "m_Id": "a9b639b9d94142bd921e6bca32866989"
                },
                "m_SlotId": 1
            }
        },
        {
            "m_OutputSlot": {
                "m_Node": {
                    "m_Id": "1a81d8ece415434998322c945d1374d9"
                },
                "m_SlotId": 2
            },
            "m_InputSlot": {
                "m_Node": {
                    "m_Id": "a9b639b9d94142bd921e6bca32866989"
                },
                "m_SlotId": 0
            }
        },
        {
            "m_OutputSlot": {
                "m_Node": {
                    "m_Id": "368cec4eeda54c5394b55f873f747e8a"
                },
                "m_SlotId": 0
            },
            "m_InputSlot": {
                "m_Node": {
                    "m_Id": "53fe4ada0a3a40b192a8f969f2f5143e"
                },
                "m_SlotId": 1
            }
        },
        {
            "m_OutputSlot": {
                "m_Node": {
                    "m_Id": "3781edf59b2f400ab3f64671ffdebad7"
                },
                "m_SlotId": 5
            },
            "m_InputSlot": {
                "m_Node": {
                    "m_Id": "d19f87351c6e472a8b307c96a39dc4fe"
                },
                "m_SlotId": 0
            }
        },
        {
            "m_OutputSlot": {
                "m_Node": {
                    "m_Id": "3e13689fc6e44ae0be7a25b88c623926"
                },
                "m_SlotId": 0
            },
            "m_InputSlot": {
                "m_Node": {
                    "m_Id": "73378006b0cf4384907f16d723a06059"
                },
                "m_SlotId": 1
            }
        },
        {
            "m_OutputSlot": {
                "m_Node": {
                    "m_Id": "475c6851938549bb80ac9d0ec39e6aae"
                },
                "m_SlotId": 1
            },
            "m_InputSlot": {
                "m_Node": {
                    "m_Id": "92e68fdb58d44d3e912f32316b82cf35"
                },
                "m_SlotId": 1
            }
        },
        {
            "m_OutputSlot": {
                "m_Node": {
                    "m_Id": "53fe4ada0a3a40b192a8f969f2f5143e"
                },
                "m_SlotId": 0
            },
            "m_InputSlot": {
                "m_Node": {
                    "m_Id": "475c6851938549bb80ac9d0ec39e6aae"
                },
                "m_SlotId": 0
            }
        },
        {
            "m_OutputSlot": {
                "m_Node": {
                    "m_Id": "640052c117b641e5afa2222cb1266b7c"
                },
                "m_SlotId": 2
            },
            "m_InputSlot": {
                "m_Node": {
                    "m_Id": "80d02af4149b43819da3178d3a5694d5"
                },
                "m_SlotId": 0
            }
        },
        {
            "m_OutputSlot": {
                "m_Node": {
                    "m_Id": "73378006b0cf4384907f16d723a06059"
                },
                "m_SlotId": 2
            },
            "m_InputSlot": {
                "m_Node": {
                    "m_Id": "640052c117b641e5afa2222cb1266b7c"
                },
                "m_SlotId": 1
            }
        },
        {
            "m_OutputSlot": {
                "m_Node": {
                    "m_Id": "7b950b70ffd74ed088dbc65970de4781"
                },
                "m_SlotId": 2
            },
            "m_InputSlot": {
                "m_Node": {
                    "m_Id": "92e68fdb58d44d3e912f32316b82cf35"
                },
                "m_SlotId": 0
            }
        },
        {
            "m_OutputSlot": {
                "m_Node": {
                    "m_Id": "92e68fdb58d44d3e912f32316b82cf35"
                },
                "m_SlotId": 2
            },
            "m_InputSlot": {
                "m_Node": {
                    "m_Id": "1a81d8ece415434998322c945d1374d9"
                },
                "m_SlotId": 1
            }
        },
        {
            "m_OutputSlot": {
                "m_Node": {
                    "m_Id": "92e68fdb58d44d3e912f32316b82cf35"
                },
                "m_SlotId": 2
            },
            "m_InputSlot": {
                "m_Node": {
                    "m_Id": "73378006b0cf4384907f16d723a06059"
                },
                "m_SlotId": 0
            }
        },
        {
            "m_OutputSlot": {
                "m_Node": {
                    "m_Id": "997423d4ce0c4f86ba2fcc052940c297"
                },
                "m_SlotId": 1
            },
            "m_InputSlot": {
                "m_Node": {
                    "m_Id": "3781edf59b2f400ab3f64671ffdebad7"
                },
                "m_SlotId": 0
            }
        },
        {
            "m_OutputSlot": {
                "m_Node": {
                    "m_Id": "997423d4ce0c4f86ba2fcc052940c297"
                },
                "m_SlotId": 2
            },
            "m_InputSlot": {
                "m_Node": {
                    "m_Id": "1a81d8ece415434998322c945d1374d9"
                },
                "m_SlotId": 0
            }
        },
        {
            "m_OutputSlot": {
                "m_Node": {
                    "m_Id": "997423d4ce0c4f86ba2fcc052940c297"
                },
                "m_SlotId": 3
            },
            "m_InputSlot": {
                "m_Node": {
                    "m_Id": "3781edf59b2f400ab3f64671ffdebad7"
                },
                "m_SlotId": 2
            }
        },
        {
            "m_OutputSlot": {
                "m_Node": {
                    "m_Id": "a6db3da58ac34aa8ba6ae4d6dbe0b1c7"
                },
                "m_SlotId": 0
            },
            "m_InputSlot": {
                "m_Node": {
                    "m_Id": "997423d4ce0c4f86ba2fcc052940c297"
                },
                "m_SlotId": 0
            }
        },
        {
            "m_OutputSlot": {
                "m_Node": {
                    "m_Id": "a9b639b9d94142bd921e6bca32866989"
                },
                "m_SlotId": 2
            },
            "m_InputSlot": {
                "m_Node": {
                    "m_Id": "3781edf59b2f400ab3f64671ffdebad7"
                },
                "m_SlotId": 1
            }
        },
        {
            "m_OutputSlot": {
                "m_Node": {
                    "m_Id": "c69ac6dac7834942ab68dceadb154914"
                },
                "m_SlotId": 0
            },
            "m_InputSlot": {
                "m_Node": {
                    "m_Id": "c8bdc7d1dc2a48a793c64d1e211e85b6"
                },
                "m_SlotId": 1
            }
        },
        {
            "m_OutputSlot": {
                "m_Node": {
                    "m_Id": "c8bdc7d1dc2a48a793c64d1e211e85b6"
                },
                "m_SlotId": 0
            },
            "m_InputSlot": {
                "m_Node": {
                    "m_Id": "640052c117b641e5afa2222cb1266b7c"
                },
                "m_SlotId": 0
            }
        }
    ],
    "m_VertexContext": {
        "m_Position": {
            "x": 0.0,
            "y": 0.0
        },
        "m_Blocks": [
            {
                "m_Id": "d19f87351c6e472a8b307c96a39dc4fe"
            },
            {
                "m_Id": "96d5d55aeadc4650942630e92524893b"
            },
            {
                "m_Id": "834e4f1e14484508a0d2b22bbfa9eb67"
            }
        ]
    },
    "m_FragmentContext": {
        "m_Position": {
            "x": 0.0,
            "y": 200.0
        },
        "m_Blocks": [
            {
                "m_Id": "80d02af4149b43819da3178d3a5694d5"
            },
            {
                "m_Id": "2b915e91f708460591ae72a9cec9a291"
            },
            {
                "m_Id": "495c956fd9eb46fdbe97489ebc10e0ef"
            },
            {
                "m_Id": "e870db14807a4a4e9c02810fcb018d6c"
            },
            {
                "m_Id": "236112157e7e46f89ff8463a827219f6"
            },
            {
                "m_Id": "c2b450c0076a45bc9ea0241a19010654"
            }
        ]
    },
    "m_PreviewData": {
        "serializedMesh": {
            "m_SerializedMesh": "{\"mesh\":{\"instanceID\":0}}",
            "m_Guid": ""
        }
    },
    "m_Path": "Shader Graphs",
    "m_ConcretePrecision": 0,
    "m_PreviewMode": 2,
    "m_OutputNode": {
        "m_Id": ""
    },
    "m_ActiveTargets": [
        {
            "m_Id": "7e5cfa2650394df9b08caa157af4494e"
        }
    ]
}

{
    "m_SGVersion": 0,
    "m_Type": "UnityEditor.ShaderGraph.PropertyNode",
    "m_ObjectId": "016a2abea3744e0eab9e75bf54008065",
    "m_Group": {
        "m_Id": ""
    },
    "m_Name": "Property",
    "m_DrawState": {
        "m_Expanded": true,
        "m_Position": {
            "serializedVersion": "2",
            "x": -1395.0,
            "y": -159.0,
            "width": 130.0,
            "height": 34.000003814697269
        }
    },
    "m_Slots": [
        {
            "m_Id": "0640f745f4424781b1d29d644fd6f9ed"
        }
    ],
    "synonyms": [],
    "m_Precision": 0,
    "m_PreviewExpanded": true,
    "m_PreviewMode": 0,
    "m_CustomColors": {
        "m_SerializableColors": []
    },
    "m_Property": {
        "m_Id": "4169065f17ee4d499928f42826b1c48a"
    }
}

{
    "m_SGVersion": 0,
    "m_Type": "UnityEditor.ShaderGraph.Vector1MaterialSlot",
    "m_ObjectId": "03ab7ac9f3524692add1387cc60c3bc4",
    "m_Id": 6,
    "m_DisplayName": "G",
    "m_SlotType": 1,
    "m_Hidden": false,
    "m_ShaderOutputName": "G",
    "m_StageCapability": 3,
    "m_Value": 0.0,
    "m_DefaultValue": 0.0,
    "m_Labels": []
}

{
    "m_SGVersion": 0,
    "m_Type": "UnityEditor.ShaderGraph.Vector1MaterialSlot",
    "m_ObjectId": "054ea77d9fce44bfa798854a461e32ba",
    "m_Id": 5,
    "m_DisplayName": "G",
    "m_SlotType": 1,
    "m_Hidden": false,
    "m_ShaderOutputName": "G",
    "m_StageCapability": 2,
    "m_Value": 0.0,
    "m_DefaultValue": 0.0,
    "m_Labels": []
}

{
    "m_SGVersion": 0,
    "m_Type": "UnityEditor.ShaderGraph.Vector1MaterialSlot",
    "m_ObjectId": "0640f745f4424781b1d29d644fd6f9ed",
    "m_Id": 0,
    "m_DisplayName": "SandScale",
    "m_SlotType": 1,
    "m_Hidden": false,
    "m_ShaderOutputName": "Out",
    "m_StageCapability": 3,
    "m_Value": 0.0,
    "m_DefaultValue": 0.0,
    "m_Labels": []
}

{
    "m_SGVersion": 0,
    "m_Type": "UnityEditor.ShaderGraph.Vector1MaterialSlot",
    "m_ObjectId": "06ecdb12d5c74adf9c4bc78141d06ff0",
    "m_Id": 7,
    "m_DisplayName": "A",
    "m_SlotType": 1,
    "m_Hidden": false,
    "m_ShaderOutputName": "A",
    "m_StageCapability": 2,
    "m_Value": 0.0,
    "m_DefaultValue": 0.0,
    "m_Labels": []
}

{
    "m_SGVersion": 0,
    "m_Type": "UnityEditor.ShaderGraph.DynamicVectorMaterialSlot",
    "m_ObjectId": "070117d4dfc74cf595758aa75fc892bf",
    "m_Id": 2,
    "m_DisplayName": "Out",
    "m_SlotType": 1,
    "m_Hidden": false,
    "m_ShaderOutputName": "Out",
    "m_StageCapability": 3,
    "m_Value": {
        "x": 0.0,
        "y": 0.0,
        "z": 0.0,
        "w": 0.0
    },
    "m_DefaultValue": {
        "x": 0.0,
        "y": 0.0,
        "z": 0.0,
        "w": 0.0
    }
}

{
    "m_SGVersion": 0,
    "m_Type": "UnityEditor.ShaderGraph.SamplerStateMaterialSlot",
    "m_ObjectId": "0a4a839718714eb1997d2ffea6e176f0",
    "m_Id": 3,
    "m_DisplayName": "Sampler",
    "m_SlotType": 0,
    "m_Hidden": false,
    "m_ShaderOutputName": "Sampler",
    "m_StageCapability": 3,
    "m_BareResource": false
}

{
    "m_SGVersion": 0,
    "m_Type": "UnityEditor.ShaderGraph.Vector1MaterialSlot",
    "m_ObjectId": "177e6844119a44ef9cb7c693afe16ece",
    "m_Id": 0,
    "m_DisplayName": "VertexOffset",
    "m_SlotType": 1,
    "m_Hidden": false,
    "m_ShaderOutputName": "Out",
    "m_StageCapability": 3,
    "m_Value": 0.0,
    "m_DefaultValue": 0.0,
    "m_Labels": []
}

{
    "m_SGVersion": 0,
    "m_Type": "UnityEditor.ShaderGraph.PropertyNode",
    "m_ObjectId": "18595d8d1d094951a53122f1491133ac",
    "m_Group": {
        "m_Id": ""
    },
    "m_Name": "Property",
    "m_DrawState": {
        "m_Expanded": true,
        "m_Position": {
            "serializedVersion": "2",
            "x": -651.9999389648438,
            "y": -321.0,
            "width": 141.0,
            "height": 34.0
        }
    },
    "m_Slots": [
        {
            "m_Id": "177e6844119a44ef9cb7c693afe16ece"
        }
    ],
    "synonyms": [],
    "m_Precision": 0,
    "m_PreviewExpanded": true,
    "m_PreviewMode": 0,
    "m_CustomColors": {
        "m_SerializableColors": []
    },
    "m_Property": {
        "m_Id": "c52fb2675a434c0ab975acb83db59f13"
    }
}

{
    "m_SGVersion": 0,
    "m_Type": "UnityEditor.ShaderGraph.AddNode",
    "m_ObjectId": "1a81d8ece415434998322c945d1374d9",
    "m_Group": {
        "m_Id": ""
    },
    "m_Name": "Add",
    "m_DrawState": {
        "m_Expanded": true,
        "m_Position": {
            "serializedVersion": "2",
            "x": -765.0,
            "y": -479.99993896484377,
            "width": 125.99999237060547,
            "height": 118.0
        }
    },
    "m_Slots": [
        {
            "m_Id": "5fbbb6e2f61249daa513c4a1855894aa"
        },
        {
            "m_Id": "7a2e716a7b854875b6a9d46253c6e841"
        },
        {
            "m_Id": "b98b18c419a54bed8b5bfc34e96cbbe6"
        }
    ],
    "synonyms": [],
    "m_Precision": 0,
    "m_PreviewExpanded": false,
    "m_PreviewMode": 0,
    "m_CustomColors": {
        "m_SerializableColors": []
    }
}

{
    "m_SGVersion": 0,
    "m_Type": "UnityEditor.ShaderGraph.DynamicValueMaterialSlot",
    "m_ObjectId": "1f542c675b6041719f9656eea7b626c5",
    "m_Id": 0,
    "m_DisplayName": "A",
    "m_SlotType": 0,
    "m_Hidden": false,
    "m_ShaderOutputName": "A",
    "m_StageCapability": 3,
    "m_Value": {
        "e00": 0.0,
        "e01": 0.0,
        "e02": 0.0,
        "e03": 0.0,
        "e10": 0.0,
        "e11": 0.0,
        "e12": 0.0,
        "e13": 0.0,
        "e20": 0.0,
        "e21": 0.0,
        "e22": 0.0,
        "e23": 0.0,
        "e30": 0.0,
        "e31": 0.0,
        "e32": 0.0,
        "e33": 0.0
    },
    "m_DefaultValue": {
        "e00": 1.0,
        "e01": 0.0,
        "e02": 0.0,
        "e03": 0.0,
        "e10": 0.0,
        "e11": 1.0,
        "e12": 0.0,
        "e13": 0.0,
        "e20": 0.0,
        "e21": 0.0,
        "e22": 1.0,
        "e23": 0.0,
        "e30": 0.0,
        "e31": 0.0,
        "e32": 0.0,
        "e33": 1.0
    }
}

{
    "m_SGVersion": 0,
    "m_Type": "UnityEditor.ShaderGraph.Vector1MaterialSlot",
    "m_ObjectId": "2288d64fe2734636b284dea03c26dc3a",
    "m_Id": 6,
    "m_DisplayName": "B",
    "m_SlotType": 1,
    "m_Hidden": false,
    "m_ShaderOutputName": "B",
    "m_StageCapability": 2,
    "m_Value": 0.0,
    "m_DefaultValue": 0.0,
    "m_Labels": []
}

{
    "m_SGVersion": 0,
    "m_Type": "UnityEditor.ShaderGraph.BlockNode",
    "m_ObjectId": "236112157e7e46f89ff8463a827219f6",
    "m_Group": {
        "m_Id": ""
    },
    "m_Name": "SurfaceDescription.Occlusion",
    "m_DrawState": {
        "m_Expanded": true,
        "m_Position": {
            "serializedVersion": "2",
            "x": 0.0,
            "y": 0.0,
            "width": 0.0,
            "height": 0.0
        }
    },
    "m_Slots": [
        {
            "m_Id": "c08c1214e93946199df022b42b6010b7"
        }
    ],
    "synonyms": [],
    "m_Precision": 0,
    "m_PreviewExpanded": true,
    "m_PreviewMode": 0,
    "m_CustomColors": {
        "m_SerializableColors": []
    },
    "m_SerializedDescriptor": "SurfaceDescription.Occlusion"
}

{
    "m_SGVersion": 0,
    "m_Type": "UnityEditor.ShaderGraph.Vector1MaterialSlot",
    "m_ObjectId": "2aeb2b120f4644879161ff148522ee07",
    "m_Id": 4,
    "m_DisplayName": "A",
    "m_SlotType": 1,
    "m_Hidden": false,
    "m_ShaderOutputName": "A",
    "m_StageCapability": 3,
    "m_Value": 0.0,
    "m_DefaultValue": 0.0,
    "m_Labels": []
}

{
    "m_SGVersion": 0,
    "m_Type": "UnityEditor.ShaderGraph.BlockNode",
    "m_ObjectId": "2b915e91f708460591ae72a9cec9a291",
    "m_Group": {
        "m_Id": ""
    },
    "m_Name": "SurfaceDescription.Smoothness",
    "m_DrawState": {
        "m_Expanded": true,
        "m_Position": {
            "serializedVersion": "2",
            "x": 0.0,
            "y": 0.0,
            "width": 0.0,
            "height": 0.0
        }
    },
    "m_Slots": [
        {
            "m_Id": "caca1a2a2daf44a3af7c412523cf066a"
        }
    ],
    "synonyms": [],
    "m_Precision": 0,
    "m_PreviewExpanded": true,
    "m_PreviewMode": 0,
    "m_CustomColors": {
        "m_SerializableColors": []
    },
    "m_SerializedDescriptor": "SurfaceDescription.Smoothness"
}

{
    "m_SGVersion": 0,
    "m_Type": "UnityEditor.ShaderGraph.DynamicVectorMaterialSlot",
    "m_ObjectId": "3085a7a14b1041c5885a5af9c150116c",
    "m_Id": 2,
    "m_DisplayName": "Out",
    "m_SlotType": 1,
    "m_Hidden": false,
    "m_ShaderOutputName": "Out",
    "m_StageCapability": 3,
    "m_Value": {
        "x": 0.0,
        "y": 0.0,
        "z": 0.0,
        "w": 0.0
    },
    "m_DefaultValue": {
        "x": 0.0,
        "y": 0.0,
        "z": 0.0,
        "w": 0.0
    }
}

{
    "m_SGVersion": 0,
    "m_Type": "UnityEditor.ShaderGraph.Vector4MaterialSlot",
    "m_ObjectId": "36370041aede44d28c84d3ed6ebe952f",
    "m_Id": 0,
    "m_DisplayName": "RGBA",
    "m_SlotType": 1,
    "m_Hidden": false,
    "m_ShaderOutputName": "RGBA",
    "m_StageCapability": 3,
    "m_Value": {
        "x": 0.0,
        "y": 0.0,
        "z": 0.0,
        "w": 0.0
    },
    "m_DefaultValue": {
        "x": 0.0,
        "y": 0.0,
        "z": 0.0,
        "w": 0.0
    },
    "m_Labels": []
}

{
    "m_SGVersion": 0,
    "m_Type": "UnityEditor.ShaderGraph.PropertyNode",
    "m_ObjectId": "368cec4eeda54c5394b55f873f747e8a",
    "m_Group": {
        "m_Id": ""
    },
    "m_Name": "Property",
    "m_DrawState": {
        "m_Expanded": true,
        "m_Position": {
            "serializedVersion": "2",
            "x": -1607.0,
            "y": 226.0,
            "width": 144.0,
            "height": 34.000003814697269
        }
    },
    "m_Slots": [
        {
            "m_Id": "67b7659a9f0b4b1aa201ca89fafd8109"
        }
    ],
    "synonyms": [],
    "m_Precision": 0,
    "m_PreviewExpanded": true,
    "m_PreviewMode": 0,
    "m_CustomColors": {
        "m_SerializableColors": []
    },
    "m_Property": {
        "m_Id": "faed1ee9acb84e13814204c42a6d7c9d"
    }
}

{
    "m_SGVersion": 0,
    "m_Type": "UnityEditor.ShaderGraph.CombineNode",
    "m_ObjectId": "3781edf59b2f400ab3f64671ffdebad7",
    "m_Group": {
        "m_Id": ""
    },
    "m_Name": "Combine",
    "m_DrawState": {
        "m_Expanded": true,
        "m_Position": {
            "serializedVersion": "2",
            "x": -391.0000305175781,
            "y": -627.0,
            "width": 207.99998474121095,
            "height": 349.9999694824219
        }
    },
    "m_Slots": [
        {
            "m_Id": "c102352afd6942bfb7b8ee6f422c007f"
        },
        {
            "m_Id": "ccb644ca437a4369a4f65ff18adba64e"
        },
        {
            "m_Id": "bf92b74396224d5b8f9d9938d1a71f89"
        },
        {
            "m_Id": "e9bf39b5720347d8bd0d28a980de5709"
        },
        {
            "m_Id": "cdad5abcb7a84fadb1ba30a8c95702a2"
        },
        {
            "m_Id": "a4816b164467498ca870f1e45f54a34c"
        },
        {
            "m_Id": "626a6f2282824c708abdae29b8733885"
        }
    ],
    "synonyms": [],
    "m_Precision": 0,
    "m_PreviewExpanded": true,
    "m_PreviewMode": 0,
    "m_CustomColors": {
        "m_SerializableColors": []
    }
}

{
    "m_SGVersion": 0,
    "m_Type": "UnityEditor.ShaderGraph.UVMaterialSlot",
    "m_ObjectId": "39f3ec2b69ce4c1da4ac2decdb516e28",
    "m_Id": 2,
    "m_DisplayName": "UV",
    "m_SlotType": 0,
    "m_Hidden": false,
    "m_ShaderOutputName": "UV",
    "m_StageCapability": 3,
    "m_Value": {
        "x": 0.0,
        "y": 0.0
    },
    "m_DefaultValue": {
        "x": 0.0,
        "y": 0.0
    },
    "m_Labels": [],
    "m_Channel": 0
}

{
    "m_SGVersion": 0,
    "m_Type": "UnityEditor.ShaderGraph.Vector4MaterialSlot",
    "m_ObjectId": "3c8d529f8a8a407fbc58ab5af0643439",
    "m_Id": 0,
    "m_DisplayName": "Color",
    "m_SlotType": 1,
    "m_Hidden": false,
    "m_ShaderOutputName": "Out",
    "m_StageCapability": 3,
    "m_Value": {
        "x": 0.0,
        "y": 0.0,
        "z": 0.0,
        "w": 0.0
    },
    "m_DefaultValue": {
        "x": 0.0,
        "y": 0.0,
        "z": 0.0,
        "w": 0.0
    },
    "m_Labels": []
}

{
    "m_SGVersion": 0,
    "m_Type": "UnityEditor.ShaderGraph.PropertyNode",
    "m_ObjectId": "3e13689fc6e44ae0be7a25b88c623926",
    "m_Group": {
        "m_Id": ""
    },
    "m_Name": "Property",
    "m_DrawState": {
        "m_Expanded": true,
        "m_Position": {
            "serializedVersion": "2",
            "x": -534.0,
            "y": 225.0,
            "width": 107.0,
            "height": 34.0
        }
    },
    "m_Slots": [
        {
            "m_Id": "3c8d529f8a8a407fbc58ab5af0643439"
        }
    ],
    "synonyms": [],
    "m_Precision": 0,
    "m_PreviewExpanded": true,
    "m_PreviewMode": 0,
    "m_CustomColors": {
        "m_SerializableColors": []
    },
    "m_Property": {
        "m_Id": "7f8a31bb4a36424487ef54f6a656772f"
    }
}

{
    "m_SGVersion": 0,
    "m_Type": "UnityEditor.ShaderGraph.Texture2DMaterialSlot",
    "m_ObjectId": "3ee5d944c3a646c095560b9466c5ba0f",
    "m_Id": 0,
    "m_DisplayName": "Out",
    "m_SlotType": 1,
    "m_Hidden": false,
    "m_ShaderOutputName": "Out",
    "m_StageCapability": 3,
    "m_BareResource": false
}

{
    "m_SGVersion": 1,
    "m_Type": "UnityEditor.ShaderGraph.Internal.Vector1ShaderProperty",
    "m_ObjectId": "4169065f17ee4d499928f42826b1c48a",
    "m_Guid": {
        "m_GuidSerialized": "124fa003-db44-4514-840c-062d39d65fa7"
    },
    "m_Name": "SandScale",
    "m_DefaultReferenceName": "Vector1_4169065f17ee4d499928f42826b1c48a",
    "m_OverrideReferenceName": "",
    "m_GeneratePropertyBlock": true,
    "m_Precision": 0,
    "overrideHLSLDeclaration": false,
    "hlslDeclarationOverride": 0,
    "m_Hidden": false,
    "m_Value": 221.5,
    "m_FloatType": 0,
    "m_RangeValues": {
        "x": 0.0,
        "y": 1.0
    }
}

{
    "m_SGVersion": 0,
    "m_Type": "UnityEditor.ShaderGraph.OneMinusNode",
    "m_ObjectId": "475c6851938549bb80ac9d0ec39e6aae",
    "m_Group": {
        "m_Id": ""
    },
    "m_Name": "One Minus",
    "m_DrawState": {
        "m_Expanded": true,
        "m_Position": {
            "serializedVersion": "2",
            "x": -1199.0,
            "y": 232.0,
            "width": 132.0,
            "height": 94.0
        }
    },
    "m_Slots": [
        {
            "m_Id": "c9f998b37ee74366846ef46c2f7c27d0"
        },
        {
            "m_Id": "8fba9b2ef55d40eb801d86804f2db207"
        }
    ],
    "synonyms": [],
    "m_Precision": 0,
    "m_PreviewExpanded": false,
    "m_PreviewMode": 0,
    "m_CustomColors": {
        "m_SerializableColors": []
    }
}

{
    "m_SGVersion": 0,
    "m_Type": "UnityEditor.ShaderGraph.BlockNode",
    "m_ObjectId": "495c956fd9eb46fdbe97489ebc10e0ef",
    "m_Group": {
        "m_Id": ""
    },
    "m_Name": "SurfaceDescription.NormalTS",
    "m_DrawState": {
        "m_Expanded": true,
        "m_Position": {
            "serializedVersion": "2",
            "x": 0.0,
            "y": 0.0,
            "width": 0.0,
            "height": 0.0
        }
    },
    "m_Slots": [
        {
            "m_Id": "528d5be1bb4445139c9de63c10b18935"
        }
    ],
    "synonyms": [],
    "m_Precision": 0,
    "m_PreviewExpanded": true,
    "m_PreviewMode": 0,
    "m_CustomColors": {
        "m_SerializableColors": []
    },
    "m_SerializedDescriptor": "SurfaceDescription.NormalTS"
}

{
    "m_SGVersion": 0,
    "m_Type": "UnityEditor.ShaderGraph.AddNode",
    "m_ObjectId": "50f14c85d68844c1b0a7ac63d429026c",
    "m_Group": {
        "m_Id": ""
    },
    "m_Name": "Add",
    "m_DrawState": {
        "m_Expanded": true,
        "m_Position": {
            "serializedVersion": "2",
            "x": -106.00001525878906,
            "y": -110.0,
            "width": 126.0,
            "height": 117.99999237060547
        }
    },
    "m_Slots": [
        {
            "m_Id": "59499e8250294efa86eaba107cda248c"
        },
        {
            "m_Id": "609b307049664767932bb891bc06690c"
        },
        {
            "m_Id": "3085a7a14b1041c5885a5af9c150116c"
        }
    ],
    "synonyms": [],
    "m_Precision": 0,
    "m_PreviewExpanded": false,
    "m_PreviewMode": 0,
    "m_CustomColors": {
        "m_SerializableColors": []
    }
}

{
    "m_SGVersion": 0,
    "m_Type": "UnityEditor.ShaderGraph.NormalMaterialSlot",
    "m_ObjectId": "528d5be1bb4445139c9de63c10b18935",
    "m_Id": 0,
    "m_DisplayName": "Normal (Tangent Space)",
    "m_SlotType": 0,
    "m_Hidden": false,
    "m_ShaderOutputName": "NormalTS",
    "m_StageCapability": 2,
    "m_Value": {
        "x": 0.0,
        "y": 0.0,
        "z": 0.0
    },
    "m_DefaultValue": {
        "x": 0.0,
        "y": 0.0,
        "z": 0.0
    },
    "m_Labels": [],
    "m_Space": 3
}

{
    "m_SGVersion": 0,
    "m_Type": "UnityEditor.ShaderGraph.Vector1MaterialSlot",
    "m_ObjectId": "529c6f66375643fd88845158aad7575d",
    "m_Id": 4,
    "m_DisplayName": "LOD",
    "m_SlotType": 0,
    "m_Hidden": false,
    "m_ShaderOutputName": "LOD",
    "m_StageCapability": 3,
    "m_Value": 0.0,
    "m_DefaultValue": 0.0,
    "m_Labels": []
}

{
    "m_SGVersion": 0,
    "m_Type": "UnityEditor.ShaderGraph.SampleTexture2DLODNode",
    "m_ObjectId": "53fe4ada0a3a40b192a8f969f2f5143e",
    "m_Group": {
        "m_Id": ""
    },
    "m_Name": "Sample Texture 2D LOD",
    "m_DrawState": {
        "m_Expanded": true,
        "m_Position": {
            "serializedVersion": "2",
            "x": -1435.0,
            "y": 232.0,
            "width": 208.0,
            "height": 437.0000305175781
        }
    },
    "m_Slots": [
        {
            "m_Id": "36370041aede44d28c84d3ed6ebe952f"
        },
        {
            "m_Id": "f5903e7a506f45098dd01594aa71009f"
        },
        {
            "m_Id": "03ab7ac9f3524692add1387cc60c3bc4"
        },
        {
            "m_Id": "b4b52ca937174c1da20295f67347cc1a"
        },
        {
            "m_Id": "5f4505d9d81040cebe9e717ce4028c5d"
        },
        {
            "m_Id": "947ad98795064261bbac93ec2e55bff6"
        },
        {
            "m_Id": "96f71ff960024ff1a54bc0313cb65fcc"
        },
        {
            "m_Id": "55e6cdd888cf42558b018dfc2e13e5c0"
        },
        {
            "m_Id": "529c6f66375643fd88845158aad7575d"
        }
    ],
    "synonyms": [],
    "m_Precision": 0,
    "m_PreviewExpanded": true,
    "m_PreviewMode": 0,
    "m_CustomColors": {
        "m_SerializableColors": []
    },
    "m_TextureType": 0,
    "m_NormalMapSpace": 0
}

{
    "m_SGVersion": 0,
    "m_Type": "UnityEditor.ShaderGraph.SamplerStateMaterialSlot",
    "m_ObjectId": "55e6cdd888cf42558b018dfc2e13e5c0",
    "m_Id": 3,
    "m_DisplayName": "Sampler",
    "m_SlotType": 0,
    "m_Hidden": false,
    "m_ShaderOutputName": "Sampler",
    "m_StageCapability": 3,
    "m_BareResource": false
}

{
    "m_SGVersion": 0,
    "m_Type": "UnityEditor.ShaderGraph.DynamicVectorMaterialSlot",
    "m_ObjectId": "59499e8250294efa86eaba107cda248c",
    "m_Id": 0,
    "m_DisplayName": "A",
    "m_SlotType": 0,
    "m_Hidden": false,
    "m_ShaderOutputName": "A",
    "m_StageCapability": 3,
    "m_Value": {
        "x": 0.0,
        "y": 0.0,
        "z": 0.0,
        "w": 0.0
    },
    "m_DefaultValue": {
        "x": 0.0,
        "y": 0.0,
        "z": 0.0,
        "w": 0.0
    }
}

{
    "m_SGVersion": 0,
    "m_Type": "UnityEditor.ShaderGraph.Vector1MaterialSlot",
    "m_ObjectId": "5e067fc64f454cb4b7f0f03666cc38e8",
    "m_Id": 1,
    "m_DisplayName": "Scale",
    "m_SlotType": 0,
    "m_Hidden": false,
    "m_ShaderOutputName": "Scale",
    "m_StageCapability": 3,
    "m_Value": 50.0,
    "m_DefaultValue": 500.0,
    "m_Labels": []
}

{
    "m_SGVersion": 0,
    "m_Type": "UnityEditor.ShaderGraph.Vector1MaterialSlot",
    "m_ObjectId": "5f4505d9d81040cebe9e717ce4028c5d",
    "m_Id": 8,
    "m_DisplayName": "A",
    "m_SlotType": 1,
    "m_Hidden": false,
    "m_ShaderOutputName": "A",
    "m_StageCapability": 3,
    "m_Value": 0.0,
    "m_DefaultValue": 0.0,
    "m_Labels": []
}

{
    "m_SGVersion": 0,
    "m_Type": "UnityEditor.ShaderGraph.DynamicVectorMaterialSlot",
    "m_ObjectId": "5fbbb6e2f61249daa513c4a1855894aa",
    "m_Id": 0,
    "m_DisplayName": "A",
    "m_SlotType": 0,
    "m_Hidden": false,
    "m_ShaderOutputName": "A",
    "m_StageCapability": 3,
    "m_Value": {
        "x": 0.0,
        "y": 0.0,
        "z": 0.0,
        "w": 0.0
    },
    "m_DefaultValue": {
        "x": 0.0,
        "y": 0.0,
        "z": 0.0,
        "w": 0.0
    }
}

{
    "m_SGVersion": 0,
    "m_Type": "UnityEditor.ShaderGraph.DynamicVectorMaterialSlot",
    "m_ObjectId": "609b307049664767932bb891bc06690c",
    "m_Id": 1,
    "m_DisplayName": "B",
    "m_SlotType": 0,
    "m_Hidden": false,
    "m_ShaderOutputName": "B",
    "m_StageCapability": 3,
    "m_Value": {
        "x": 0.0,
        "y": 0.0,
        "z": 0.0,
        "w": 0.0
    },
    "m_DefaultValue": {
        "x": 0.0,
        "y": 0.0,
        "z": 0.0,
        "w": 0.0
    }
}

{
    "m_SGVersion": 0,
    "m_Type": "UnityEditor.ShaderGraph.Vector2MaterialSlot",
    "m_ObjectId": "626a6f2282824c708abdae29b8733885",
    "m_Id": 6,
    "m_DisplayName": "RG",
    "m_SlotType": 1,
    "m_Hidden": false,
    "m_ShaderOutputName": "RG",
    "m_StageCapability": 3,
    "m_Value": {
        "x": 0.0,
        "y": 0.0
    },
    "m_DefaultValue": {
        "x": 0.0,
        "y": 0.0
    },
    "m_Labels": []
}

{
    "m_SGVersion": 0,
    "m_Type": "UnityEditor.ShaderGraph.MultiplyNode",
    "m_ObjectId": "640052c117b641e5afa2222cb1266b7c",
    "m_Group": {
        "m_Id": ""
    },
    "m_Name": "Multiply",
    "m_DrawState": {
        "m_Expanded": true,
        "m_Position": {
            "serializedVersion": "2",
            "x": -181.00001525878907,
            "y": 46.0000114440918,
            "width": 130.0,
            "height": 117.99999237060547
        }
    },
    "m_Slots": [
        {
            "m_Id": "d545dc3eb323463fa29ebe9e67b992c2"
        },
        {
            "m_Id": "91b7a4f50eb446deb3178be4d0442731"
        },
        {
            "m_Id": "eb7086ec728e4a6d9679341e4516b4f2"
        }
    ],
    "synonyms": [],
    "m_Precision": 0,
    "m_PreviewExpanded": false,
    "m_PreviewMode": 0,
    "m_CustomColors": {
        "m_SerializableColors": []
    }
}

{
    "m_SGVersion": 0,
    "m_Type": "UnityEditor.ShaderGraph.DynamicValueMaterialSlot",
    "m_ObjectId": "6420aa5132ec46249b717a7f8c8dccdb",
    "m_Id": 1,
    "m_DisplayName": "B",
    "m_SlotType": 0,
    "m_Hidden": false,
    "m_ShaderOutputName": "B",
    "m_StageCapability": 3,
    "m_Value": {
        "e00": 2.0,
        "e01": 2.0,
        "e02": 2.0,
        "e03": 2.0,
        "e10": 2.0,
        "e11": 2.0,
        "e12": 2.0,
        "e13": 2.0,
        "e20": 2.0,
        "e21": 2.0,
        "e22": 2.0,
        "e23": 2.0,
        "e30": 2.0,
        "e31": 2.0,
        "e32": 2.0,
        "e33": 2.0
    },
    "m_DefaultValue": {
        "e00": 1.0,
        "e01": 0.0,
        "e02": 0.0,
        "e03": 0.0,
        "e10": 0.0,
        "e11": 1.0,
        "e12": 0.0,
        "e13": 0.0,
        "e20": 0.0,
        "e21": 0.0,
        "e22": 1.0,
        "e23": 0.0,
        "e30": 0.0,
        "e31": 0.0,
        "e32": 0.0,
        "e33": 1.0
    }
}

{
    "m_SGVersion": 0,
    "m_Type": "UnityEditor.ShaderGraph.DynamicValueMaterialSlot",
    "m_ObjectId": "6601dfdb897e48e88b08a1b435382e0f",
    "m_Id": 2,
    "m_DisplayName": "Out",
    "m_SlotType": 1,
    "m_Hidden": false,
    "m_ShaderOutputName": "Out",
    "m_StageCapability": 3,
    "m_Value": {
        "e00": 0.0,
        "e01": 0.0,
        "e02": 0.0,
        "e03": 0.0,
        "e10": 0.0,
        "e11": 0.0,
        "e12": 0.0,
        "e13": 0.0,
        "e20": 0.0,
        "e21": 0.0,
        "e22": 0.0,
        "e23": 0.0,
        "e30": 0.0,
        "e31": 0.0,
        "e32": 0.0,
        "e33": 0.0
    },
    "m_DefaultValue": {
        "e00": 1.0,
        "e01": 0.0,
        "e02": 0.0,
        "e03": 0.0,
        "e10": 0.0,
        "e11": 1.0,
        "e12": 0.0,
        "e13": 0.0,
        "e20": 0.0,
        "e21": 0.0,
        "e22": 1.0,
        "e23": 0.0,
        "e30": 0.0,
        "e31": 0.0,
        "e32": 0.0,
        "e33": 1.0
    }
}

{
    "m_SGVersion": 0,
    "m_Type": "UnityEditor.ShaderGraph.Vector1MaterialSlot",
    "m_ObjectId": "67574f42ae1345999b840f09b208bed4",
    "m_Id": 2,
    "m_DisplayName": "G",
    "m_SlotType": 1,
    "m_Hidden": false,
    "m_ShaderOutputName": "G",
    "m_StageCapability": 3,
    "m_Value": 0.0,
    "m_DefaultValue": 0.0,
    "m_Labels": []
}

{
    "m_SGVersion": 0,
    "m_Type": "UnityEditor.ShaderGraph.Texture2DMaterialSlot",
    "m_ObjectId": "67b7659a9f0b4b1aa201ca89fafd8109",
    "m_Id": 0,
    "m_DisplayName": "RenderText",
    "m_SlotType": 1,
    "m_Hidden": false,
    "m_ShaderOutputName": "Out",
    "m_StageCapability": 3,
    "m_BareResource": false
}

{
    "m_SGVersion": 0,
    "m_Type": "UnityEditor.ShaderGraph.DynamicValueMaterialSlot",
    "m_ObjectId": "6ac567360b224351b09863abcbd64b88",
    "m_Id": 1,
    "m_DisplayName": "B",
    "m_SlotType": 0,
    "m_Hidden": false,
    "m_ShaderOutputName": "B",
    "m_StageCapability": 3,
    "m_Value": {
        "e00": 2.0,
        "e01": 2.0,
        "e02": 2.0,
        "e03": 2.0,
        "e10": 2.0,
        "e11": 2.0,
        "e12": 2.0,
        "e13": 2.0,
        "e20": 2.0,
        "e21": 2.0,
        "e22": 2.0,
        "e23": 2.0,
        "e30": 2.0,
        "e31": 2.0,
        "e32": 2.0,
        "e33": 2.0
    },
    "m_DefaultValue": {
        "e00": 1.0,
        "e01": 0.0,
        "e02": 0.0,
        "e03": 0.0,
        "e10": 0.0,
        "e11": 1.0,
        "e12": 0.0,
        "e13": 0.0,
        "e20": 0.0,
        "e21": 0.0,
        "e22": 1.0,
        "e23": 0.0,
        "e30": 0.0,
        "e31": 0.0,
        "e32": 0.0,
        "e33": 1.0
    }
}

{
    "m_SGVersion": 0,
    "m_Type": "UnityEditor.ShaderGraph.MultiplyNode",
    "m_ObjectId": "73378006b0cf4384907f16d723a06059",
    "m_Group": {
        "m_Id": ""
    },
    "m_Name": "Multiply",
    "m_DrawState": {
        "m_Expanded": true,
        "m_Position": {
            "serializedVersion": "2",
            "x": -407.09869384765627,
            "y": 99.4616470336914,
            "width": 0.0,
            "height": 0.0
        }
    },
    "m_Slots": [
        {
            "m_Id": "1f542c675b6041719f9656eea7b626c5"
        },
        {
            "m_Id": "6420aa5132ec46249b717a7f8c8dccdb"
        },
        {
            "m_Id": "c4b7f2335b4446d4b3aa22fba9e7b00d"
        }
    ],
    "synonyms": [],
    "m_Precision": 0,
    "m_PreviewExpanded": true,
    "m_PreviewMode": 0,
    "m_CustomColors": {
        "m_SerializableColors": []
    }
}

{
    "m_SGVersion": 0,
    "m_Type": "UnityEditor.ShaderGraph.UVMaterialSlot",
    "m_ObjectId": "761d976e7bf543e7a3ed26b038abb7e6",
    "m_Id": 0,
    "m_DisplayName": "UV",
    "m_SlotType": 0,
    "m_Hidden": false,
    "m_ShaderOutputName": "UV",
    "m_StageCapability": 3,
    "m_Value": {
        "x": 0.0,
        "y": 0.0
    },
    "m_DefaultValue": {
        "x": 0.0,
        "y": 0.0
    },
    "m_Labels": [],
    "m_Channel": 0
}

{
    "m_SGVersion": 0,
    "m_Type": "UnityEditor.ShaderGraph.DynamicVectorMaterialSlot",
    "m_ObjectId": "7a2e716a7b854875b6a9d46253c6e841",
    "m_Id": 1,
    "m_DisplayName": "B",
    "m_SlotType": 0,
    "m_Hidden": false,
    "m_ShaderOutputName": "B",
    "m_StageCapability": 3,
    "m_Value": {
        "x": 0.0,
        "y": 0.0,
        "z": 0.0,
        "w": 0.0
    },
    "m_DefaultValue": {
        "x": 0.0,
        "y": 0.0,
        "z": 0.0,
        "w": 0.0
    }
}

{
    "m_SGVersion": 0,
    "m_Type": "UnityEditor.ShaderGraph.NoiseNode",
    "m_ObjectId": "7b950b70ffd74ed088dbc65970de4781",
    "m_Group": {
        "m_Id": ""
    },
    "m_Name": "Simple Noise",
    "m_DrawState": {
        "m_Expanded": true,
        "m_Position": {
            "serializedVersion": "2",
            "x": -1195.0,
            "y": -110.99999237060547,
            "width": 208.0,
            "height": 302.0
        }
    },
    "m_Slots": [
        {
            "m_Id": "761d976e7bf543e7a3ed26b038abb7e6"
        },
        {
            "m_Id": "5e067fc64f454cb4b7f0f03666cc38e8"
        },
        {
            "m_Id": "f7ff8249d55144569041a48454bf88e0"
        }
    ],
    "synonyms": [],
    "m_Precision": 0,
    "m_PreviewExpanded": true,
    "m_PreviewMode": 0,
    "m_CustomColors": {
        "m_SerializableColors": []
    }
}

{
    "m_SGVersion": 0,
    "m_Type": "UnityEditor.Rendering.Universal.ShaderGraph.UniversalTarget",
    "m_ObjectId": "7e5cfa2650394df9b08caa157af4494e",
    "m_ActiveSubTarget": {
        "m_Id": "cc364b488cd34d44a31ca081d70e7e07"
    },
    "m_SurfaceType": 0,
    "m_AlphaMode": 0,
    "m_TwoSided": false,
    "m_AlphaClip": false,
    "m_CustomEditorGUI": ""
}

{
    "m_SGVersion": 3,
    "m_Type": "UnityEditor.ShaderGraph.Internal.ColorShaderProperty",
    "m_ObjectId": "7f8a31bb4a36424487ef54f6a656772f",
    "m_Guid": {
        "m_GuidSerialized": "23c15136-0341-4430-bd5f-34ba3c4192ff"
    },
    "m_Name": "Color",
    "m_DefaultReferenceName": "Color_7f8a31bb4a36424487ef54f6a656772f",
    "m_OverrideReferenceName": "",
    "m_GeneratePropertyBlock": true,
    "m_Precision": 0,
    "overrideHLSLDeclaration": false,
    "hlslDeclarationOverride": 0,
    "m_Hidden": false,
    "m_Value": {
        "r": 0.8301886916160584,
        "g": 0.8301886916160584,
        "b": 0.8301886916160584,
        "a": 1.0
    },
    "m_ColorMode": 1
}

{
    "m_SGVersion": 0,
    "m_Type": "UnityEditor.ShaderGraph.BlockNode",
    "m_ObjectId": "80d02af4149b43819da3178d3a5694d5",
    "m_Group": {
        "m_Id": ""
    },
    "m_Name": "SurfaceDescription.BaseColor",
    "m_DrawState": {
        "m_Expanded": true,
        "m_Position": {
            "serializedVersion": "2",
            "x": 0.0,
            "y": 0.0,
            "width": 0.0,
            "height": 0.0
        }
    },
    "m_Slots": [
        {
            "m_Id": "a6945f1ba57b44d49ddcb566d607fa3a"
        }
    ],
    "synonyms": [],
    "m_Precision": 0,
    "m_PreviewExpanded": true,
    "m_PreviewMode": 0,
    "m_CustomColors": {
        "m_SerializableColors": []
    },
    "m_SerializedDescriptor": "SurfaceDescription.BaseColor"
}

{
    "m_SGVersion": 0,
    "m_Type": "UnityEditor.ShaderGraph.Vector1MaterialSlot",
    "m_ObjectId": "82b91963c4ac4a30830bbf601589fdf3",
    "m_Id": 3,
    "m_DisplayName": "B",
    "m_SlotType": 1,
    "m_Hidden": false,
    "m_ShaderOutputName": "B",
    "m_StageCapability": 3,
    "m_Value": 0.0,
    "m_DefaultValue": 0.0,
    "m_Labels": []
}

{
    "m_SGVersion": 0,
    "m_Type": "UnityEditor.ShaderGraph.BlockNode",
    "m_ObjectId": "834e4f1e14484508a0d2b22bbfa9eb67",
    "m_Group": {
        "m_Id": ""
    },
    "m_Name": "VertexDescription.Tangent",
    "m_DrawState": {
        "m_Expanded": true,
        "m_Position": {
            "serializedVersion": "2",
            "x": 0.0,
            "y": 0.0,
            "width": 0.0,
            "height": 0.0
        }
    },
    "m_Slots": [
        {
            "m_Id": "8a83715726474506b542f0efc3bb2f97"
        }
    ],
    "synonyms": [],
    "m_Precision": 0,
    "m_PreviewExpanded": true,
    "m_PreviewMode": 0,
    "m_CustomColors": {
        "m_SerializableColors": []
    },
    "m_SerializedDescriptor": "VertexDescription.Tangent"
}

{
    "m_SGVersion": 0,
    "m_Type": "UnityEditor.ShaderGraph.TangentMaterialSlot",
    "m_ObjectId": "8a83715726474506b542f0efc3bb2f97",
    "m_Id": 0,
    "m_DisplayName": "Tangent",
    "m_SlotType": 0,
    "m_Hidden": false,
    "m_ShaderOutputName": "Tangent",
    "m_StageCapability": 1,
    "m_Value": {
        "x": 0.0,
        "y": 0.0,
        "z": 0.0
    },
    "m_DefaultValue": {
        "x": 0.0,
        "y": 0.0,
        "z": 0.0
    },
    "m_Labels": [],
    "m_Space": 0
}

{
    "m_SGVersion": 0,
    "m_Type": "UnityEditor.ShaderGraph.DynamicVectorMaterialSlot",
    "m_ObjectId": "8fba9b2ef55d40eb801d86804f2db207",
    "m_Id": 1,
    "m_DisplayName": "Out",
    "m_SlotType": 1,
    "m_Hidden": false,
    "m_ShaderOutputName": "Out",
    "m_StageCapability": 3,
    "m_Value": {
        "x": 0.0,
        "y": 0.0,
        "z": 0.0,
        "w": 0.0
    },
    "m_DefaultValue": {
        "x": 0.0,
        "y": 0.0,
        "z": 0.0,
        "w": 0.0
    }
}

{
    "m_SGVersion": 0,
    "m_Type": "UnityEditor.ShaderGraph.DynamicValueMaterialSlot",
    "m_ObjectId": "91b7a4f50eb446deb3178be4d0442731",
    "m_Id": 1,
    "m_DisplayName": "B",
    "m_SlotType": 0,
    "m_Hidden": false,
    "m_ShaderOutputName": "B",
    "m_StageCapability": 3,
    "m_Value": {
        "e00": 2.0,
        "e01": 2.0,
        "e02": 2.0,
        "e03": 2.0,
        "e10": 2.0,
        "e11": 2.0,
        "e12": 2.0,
        "e13": 2.0,
        "e20": 2.0,
        "e21": 2.0,
        "e22": 2.0,
        "e23": 2.0,
        "e30": 2.0,
        "e31": 2.0,
        "e32": 2.0,
        "e33": 2.0
    },
    "m_DefaultValue": {
        "e00": 1.0,
        "e01": 0.0,
        "e02": 0.0,
        "e03": 0.0,
        "e10": 0.0,
        "e11": 1.0,
        "e12": 0.0,
        "e13": 0.0,
        "e20": 0.0,
        "e21": 0.0,
        "e22": 1.0,
        "e23": 0.0,
        "e30": 0.0,
        "e31": 0.0,
        "e32": 0.0,
        "e33": 1.0
    }
}

{
    "m_SGVersion": 0,
    "m_Type": "UnityEditor.ShaderGraph.AddNode",
    "m_ObjectId": "92e68fdb58d44d3e912f32316b82cf35",
    "m_Group": {
        "m_Id": ""
    },
    "m_Name": "Add",
    "m_DrawState": {
        "m_Expanded": true,
        "m_Position": {
            "serializedVersion": "2",
            "x": -789.0,
            "y": 180.99998474121095,
            "width": 208.0,
            "height": 302.0
        }
    },
    "m_Slots": [
        {
            "m_Id": "bed4ba0de9154ae3a39325e00bd83f21"
        },
        {
            "m_Id": "a67c79ea56e1479691d406c182f99c58"
        },
        {
            "m_Id": "070117d4dfc74cf595758aa75fc892bf"
        }
    ],
    "synonyms": [],
    "m_Precision": 0,
    "m_PreviewExpanded": true,
    "m_PreviewMode": 0,
    "m_CustomColors": {
        "m_SerializableColors": []
    }
}

{
    "m_SGVersion": 0,
    "m_Type": "UnityEditor.ShaderGraph.Texture2DInputMaterialSlot",
    "m_ObjectId": "947ad98795064261bbac93ec2e55bff6",
    "m_Id": 1,
    "m_DisplayName": "Texture",
    "m_SlotType": 0,
    "m_Hidden": false,
    "m_ShaderOutputName": "Texture",
    "m_StageCapability": 3,
    "m_BareResource": false,
    "m_Texture": {
        "m_SerializedTexture": "{\"texture\":{\"instanceID\":0}}",
        "m_Guid": ""
    },
    "m_DefaultType": 0
}

{
    "m_SGVersion": 0,
    "m_Type": "UnityEditor.ShaderGraph.BlockNode",
    "m_ObjectId": "96d5d55aeadc4650942630e92524893b",
    "m_Group": {
        "m_Id": ""
    },
    "m_Name": "VertexDescription.Normal",
    "m_DrawState": {
        "m_Expanded": true,
        "m_Position": {
            "serializedVersion": "2",
            "x": 0.0,
            "y": 0.0,
            "width": 0.0,
            "height": 0.0
        }
    },
    "m_Slots": [
        {
            "m_Id": "f49a761805f14c3a969a4a41b34fea79"
        }
    ],
    "synonyms": [],
    "m_Precision": 0,
    "m_PreviewExpanded": true,
    "m_PreviewMode": 0,
    "m_CustomColors": {
        "m_SerializableColors": []
    },
    "m_SerializedDescriptor": "VertexDescription.Normal"
}

{
    "m_SGVersion": 0,
    "m_Type": "UnityEditor.ShaderGraph.UVMaterialSlot",
    "m_ObjectId": "96f71ff960024ff1a54bc0313cb65fcc",
    "m_Id": 2,
    "m_DisplayName": "UV",
    "m_SlotType": 0,
    "m_Hidden": false,
    "m_ShaderOutputName": "UV",
    "m_StageCapability": 3,
    "m_Value": {
        "x": 0.0,
        "y": 0.0
    },
    "m_DefaultValue": {
        "x": 0.0,
        "y": 0.0
    },
    "m_Labels": [],
    "m_Channel": 0
}

{
    "m_SGVersion": 0,
    "m_Type": "UnityEditor.ShaderGraph.SplitNode",
    "m_ObjectId": "997423d4ce0c4f86ba2fcc052940c297",
    "m_Group": {
        "m_Id": ""
    },
    "m_Name": "Split",
    "m_DrawState": {
        "m_Expanded": true,
        "m_Position": {
            "serializedVersion": "2",
            "x": -933.0000610351563,
            "y": -626.9999389648438,
            "width": 120.0,
            "height": 149.0
        }
    },
    "m_Slots": [
        {
            "m_Id": "9bd023c5d6114ab5b7e683ba876518e6"
        },
        {
            "m_Id": "c642f3d7ea434bfa94c652a4244e1309"
        },
        {
            "m_Id": "67574f42ae1345999b840f09b208bed4"
        },
        {
            "m_Id": "82b91963c4ac4a30830bbf601589fdf3"
        },
        {
            "m_Id": "2aeb2b120f4644879161ff148522ee07"
        }
    ],
    "synonyms": [],
    "m_Precision": 0,
    "m_PreviewExpanded": true,
    "m_PreviewMode": 0,
    "m_CustomColors": {
        "m_SerializableColors": []
    }
}

{
    "m_SGVersion": 0,
    "m_Type": "UnityEditor.ShaderGraph.DynamicVectorMaterialSlot",
    "m_ObjectId": "9bd023c5d6114ab5b7e683ba876518e6",
    "m_Id": 0,
    "m_DisplayName": "In",
    "m_SlotType": 0,
    "m_Hidden": false,
    "m_ShaderOutputName": "In",
    "m_StageCapability": 3,
    "m_Value": {
        "x": 0.0,
        "y": 0.0,
        "z": 0.0,
        "w": 0.0
    },
    "m_DefaultValue": {
        "x": 0.0,
        "y": 0.0,
        "z": 0.0,
        "w": 0.0
    }
}

{
    "m_SGVersion": 0,
    "m_Type": "UnityEditor.ShaderGraph.Vector1MaterialSlot",
    "m_ObjectId": "9beb736b36594cd5a7ba432cde768e8d",
    "m_Id": 4,
    "m_DisplayName": "R",
    "m_SlotType": 1,
    "m_Hidden": false,
    "m_ShaderOutputName": "R",
    "m_StageCapability": 2,
    "m_Value": 0.0,
    "m_DefaultValue": 0.0,
    "m_Labels": []
}

{
    "m_SGVersion": 0,
    "m_Type": "UnityEditor.ShaderGraph.Vector3MaterialSlot",
    "m_ObjectId": "a1a8be7becd9440a8f6d1835bc40d44a",
    "m_Id": 0,
    "m_DisplayName": "Out",
    "m_SlotType": 1,
    "m_Hidden": false,
    "m_ShaderOutputName": "Out",
    "m_StageCapability": 3,
    "m_Value": {
        "x": 0.0,
        "y": 0.0,
        "z": 0.0
    },
    "m_DefaultValue": {
        "x": 0.0,
        "y": 0.0,
        "z": 0.0
    },
    "m_Labels": []
}

{
    "m_SGVersion": 0,
    "m_Type": "UnityEditor.ShaderGraph.Vector3MaterialSlot",
    "m_ObjectId": "a4816b164467498ca870f1e45f54a34c",
    "m_Id": 5,
    "m_DisplayName": "RGB",
    "m_SlotType": 1,
    "m_Hidden": false,
    "m_ShaderOutputName": "RGB",
    "m_StageCapability": 3,
    "m_Value": {
        "x": 0.0,
        "y": 0.0,
        "z": 0.0
    },
    "m_DefaultValue": {
        "x": 0.0,
        "y": 0.0,
        "z": 0.0
    },
    "m_Labels": []
}

{
    "m_SGVersion": 0,
    "m_Type": "UnityEditor.ShaderGraph.DynamicVectorMaterialSlot",
    "m_ObjectId": "a67c79ea56e1479691d406c182f99c58",
    "m_Id": 1,
    "m_DisplayName": "B",
    "m_SlotType": 0,
    "m_Hidden": false,
    "m_ShaderOutputName": "B",
    "m_StageCapability": 3,
    "m_Value": {
        "x": 0.0,
        "y": 0.0,
        "z": 0.0,
        "w": 0.0
    },
    "m_DefaultValue": {
        "x": 0.0,
        "y": 0.0,
        "z": 0.0,
        "w": 0.0
    }
}

{
    "m_SGVersion": 0,
    "m_Type": "UnityEditor.ShaderGraph.ColorRGBMaterialSlot",
    "m_ObjectId": "a6945f1ba57b44d49ddcb566d607fa3a",
    "m_Id": 0,
    "m_DisplayName": "Base Color",
    "m_SlotType": 0,
    "m_Hidden": false,
    "m_ShaderOutputName": "BaseColor",
    "m_StageCapability": 2,
    "m_Value": {
        "x": 0.5,
        "y": 0.5,
        "z": 0.5
    },
    "m_DefaultValue": {
        "x": 0.0,
        "y": 0.0,
        "z": 0.0
    },
    "m_Labels": [],
    "m_ColorMode": 0,
    "m_DefaultColor": {
        "r": 0.5,
        "g": 0.5,
        "b": 0.5,
        "a": 1.0
    }
}

{
    "m_SGVersion": 1,
    "m_Type": "UnityEditor.ShaderGraph.PositionNode",
    "m_ObjectId": "a6db3da58ac34aa8ba6ae4d6dbe0b1c7",
    "m_Group": {
        "m_Id": ""
    },
    "m_Name": "Position",
    "m_DrawState": {
        "m_Expanded": true,
        "m_Position": {
            "serializedVersion": "2",
            "x": -1211.0,
            "y": -626.0,
            "width": 208.00001525878907,
            "height": 316.0
        }
    },
    "m_Slots": [
        {
            "m_Id": "a1a8be7becd9440a8f6d1835bc40d44a"
        }
    ],
    "synonyms": [],
    "m_Precision": 1,
    "m_PreviewExpanded": true,
    "m_PreviewMode": 2,
    "m_CustomColors": {
        "m_SerializableColors": []
    },
    "m_Space": 0
}

{
    "m_SGVersion": 0,
    "m_Type": "UnityEditor.ShaderGraph.MultiplyNode",
    "m_ObjectId": "a9b639b9d94142bd921e6bca32866989",
    "m_Group": {
        "m_Id": ""
    },
    "m_Name": "Multiply",
    "m_DrawState": {
        "m_Expanded": true,
        "m_Position": {
            "serializedVersion": "2",
            "x": -555.9999389648438,
            "y": -482.0,
            "width": 126.0,
            "height": 117.99999237060547
        }
    },
    "m_Slots": [
        {
            "m_Id": "cc1b4f66a76f414abdf1b18c0b367783"
        },
        {
            "m_Id": "6ac567360b224351b09863abcbd64b88"
        },
        {
            "m_Id": "6601dfdb897e48e88b08a1b435382e0f"
        }
    ],
    "synonyms": [],
    "m_Precision": 0,
    "m_PreviewExpanded": false,
    "m_PreviewMode": 0,
    "m_CustomColors": {
        "m_SerializableColors": []
    }
}

{
    "m_SGVersion": 0,
    "m_Type": "UnityEditor.ShaderGraph.Vector1MaterialSlot",
    "m_ObjectId": "b4b52ca937174c1da20295f67347cc1a",
    "m_Id": 7,
    "m_DisplayName": "B",
    "m_SlotType": 1,
    "m_Hidden": false,
    "m_ShaderOutputName": "B",
    "m_StageCapability": 3,
    "m_Value": 0.0,
    "m_DefaultValue": 0.0,
    "m_Labels": []
}

{
    "m_SGVersion": 0,
    "m_Type": "UnityEditor.ShaderGraph.DynamicVectorMaterialSlot",
    "m_ObjectId": "b98b18c419a54bed8b5bfc34e96cbbe6",
    "m_Id": 2,
    "m_DisplayName": "Out",
    "m_SlotType": 1,
    "m_Hidden": false,
    "m_ShaderOutputName": "Out",
    "m_StageCapability": 3,
    "m_Value": {
        "x": 0.0,
        "y": 0.0,
        "z": 0.0,
        "w": 0.0
    },
    "m_DefaultValue": {
        "x": 0.0,
        "y": 0.0,
        "z": 0.0,
        "w": 0.0
    }
}

{
    "m_SGVersion": 0,
    "m_Type": "UnityEditor.ShaderGraph.DynamicVectorMaterialSlot",
    "m_ObjectId": "bed4ba0de9154ae3a39325e00bd83f21",
    "m_Id": 0,
    "m_DisplayName": "A",
    "m_SlotType": 0,
    "m_Hidden": false,
    "m_ShaderOutputName": "A",
    "m_StageCapability": 3,
    "m_Value": {
        "x": 0.0,
        "y": 0.0,
        "z": 0.0,
        "w": 0.0
    },
    "m_DefaultValue": {
        "x": 0.0,
        "y": 0.0,
        "z": 0.0,
        "w": 0.0
    }
}

{
    "m_SGVersion": 0,
    "m_Type": "UnityEditor.ShaderGraph.Vector1MaterialSlot",
    "m_ObjectId": "bf92b74396224d5b8f9d9938d1a71f89",
    "m_Id": 2,
    "m_DisplayName": "B",
    "m_SlotType": 0,
    "m_Hidden": false,
    "m_ShaderOutputName": "B",
    "m_StageCapability": 3,
    "m_Value": 0.0,
    "m_DefaultValue": 0.0,
    "m_Labels": []
}

{
    "m_SGVersion": 0,
    "m_Type": "UnityEditor.ShaderGraph.Vector1MaterialSlot",
    "m_ObjectId": "c08c1214e93946199df022b42b6010b7",
    "m_Id": 0,
    "m_DisplayName": "Ambient Occlusion",
    "m_SlotType": 0,
    "m_Hidden": false,
    "m_ShaderOutputName": "Occlusion",
    "m_StageCapability": 2,
    "m_Value": 1.0,
    "m_DefaultValue": 1.0,
    "m_Labels": []
}

{
    "m_SGVersion": 0,
    "m_Type": "UnityEditor.ShaderGraph.Vector1MaterialSlot",
    "m_ObjectId": "c102352afd6942bfb7b8ee6f422c007f",
    "m_Id": 0,
    "m_DisplayName": "R",
    "m_SlotType": 0,
    "m_Hidden": false,
    "m_ShaderOutputName": "R",
    "m_StageCapability": 3,
    "m_Value": 0.0,
    "m_DefaultValue": 0.0,
    "m_Labels": []
}

{
    "m_SGVersion": 0,
    "m_Type": "UnityEditor.ShaderGraph.Texture2DInputMaterialSlot",
    "m_ObjectId": "c1393fbe475f414a956d817978dae112",
    "m_Id": 1,
    "m_DisplayName": "Texture",
    "m_SlotType": 0,
    "m_Hidden": false,
    "m_ShaderOutputName": "Texture",
    "m_StageCapability": 3,
    "m_BareResource": false,
    "m_Texture": {
        "m_SerializedTexture": "{\"texture\":{\"instanceID\":0}}",
        "m_Guid": ""
    },
    "m_DefaultType": 0
}

{
    "m_SGVersion": 0,
    "m_Type": "UnityEditor.ShaderGraph.BlockNode",
    "m_ObjectId": "c2b450c0076a45bc9ea0241a19010654",
    "m_Group": {
        "m_Id": ""
    },
    "m_Name": "SurfaceDescription.Metallic",
    "m_DrawState": {
        "m_Expanded": true,
        "m_Position": {
            "serializedVersion": "2",
            "x": 0.0,
            "y": 0.0,
            "width": 0.0,
            "height": 0.0
        }
    },
    "m_Slots": [
        {
            "m_Id": "cbc8777f1c4f4c798cc8c24e83169bd6"
        }
    ],
    "synonyms": [],
    "m_Precision": 0,
    "m_PreviewExpanded": true,
    "m_PreviewMode": 0,
    "m_CustomColors": {
        "m_SerializableColors": []
    },
    "m_SerializedDescriptor": "SurfaceDescription.Metallic"
}

{
    "m_SGVersion": 0,
    "m_Type": "UnityEditor.ShaderGraph.PositionMaterialSlot",
    "m_ObjectId": "c40562280aac4de399bbaa58da6174c2",
    "m_Id": 0,
    "m_DisplayName": "Position",
    "m_SlotType": 0,
    "m_Hidden": false,
    "m_ShaderOutputName": "Position",
    "m_StageCapability": 1,
    "m_Value": {
        "x": 0.0,
        "y": 0.0,
        "z": 0.0
    },
    "m_DefaultValue": {
        "x": 0.0,
        "y": 0.0,
        "z": 0.0
    },
    "m_Labels": [],
    "m_Space": 0
}

{
    "m_SGVersion": 0,
    "m_Type": "UnityEditor.ShaderGraph.DynamicValueMaterialSlot",
    "m_ObjectId": "c4b7f2335b4446d4b3aa22fba9e7b00d",
    "m_Id": 2,
    "m_DisplayName": "Out",
    "m_SlotType": 1,
    "m_Hidden": false,
    "m_ShaderOutputName": "Out",
    "m_StageCapability": 3,
    "m_Value": {
        "e00": 0.0,
        "e01": 0.0,
        "e02": 0.0,
        "e03": 0.0,
        "e10": 0.0,
        "e11": 0.0,
        "e12": 0.0,
        "e13": 0.0,
        "e20": 0.0,
        "e21": 0.0,
        "e22": 0.0,
        "e23": 0.0,
        "e30": 0.0,
        "e31": 0.0,
        "e32": 0.0,
        "e33": 0.0
    },
    "m_DefaultValue": {
        "e00": 1.0,
        "e01": 0.0,
        "e02": 0.0,
        "e03": 0.0,
        "e10": 0.0,
        "e11": 1.0,
        "e12": 0.0,
        "e13": 0.0,
        "e20": 0.0,
        "e21": 0.0,
        "e22": 1.0,
        "e23": 0.0,
        "e30": 0.0,
        "e31": 0.0,
        "e32": 0.0,
        "e33": 1.0
    }
}

{
    "m_SGVersion": 1,
    "m_Type": "UnityEditor.ShaderGraph.Internal.Vector1ShaderProperty",
    "m_ObjectId": "c52fb2675a434c0ab975acb83db59f13",
    "m_Guid": {
        "m_GuidSerialized": "e89a0341-68ba-49c7-88de-0c37589577b3"
    },
    "m_Name": "VertexOffset",
    "m_DefaultReferenceName": "Vector1_c52fb2675a434c0ab975acb83db59f13",
    "m_OverrideReferenceName": "",
    "m_GeneratePropertyBlock": true,
    "m_Precision": 0,
    "overrideHLSLDeclaration": false,
    "hlslDeclarationOverride": 0,
    "m_Hidden": false,
    "m_Value": 0.15000000596046449,
    "m_FloatType": 0,
    "m_RangeValues": {
        "x": 0.0,
        "y": 1.0
    }
}

{
    "m_SGVersion": 0,
    "m_Type": "UnityEditor.ShaderGraph.Vector1MaterialSlot",
    "m_ObjectId": "c642f3d7ea434bfa94c652a4244e1309",
    "m_Id": 1,
    "m_DisplayName": "R",
    "m_SlotType": 1,
    "m_Hidden": false,
    "m_ShaderOutputName": "R",
    "m_StageCapability": 3,
    "m_Value": 0.0,
    "m_DefaultValue": 0.0,
    "m_Labels": []
}

{
    "m_SGVersion": 0,
    "m_Type": "UnityEditor.ShaderGraph.Texture2DAssetNode",
    "m_ObjectId": "c69ac6dac7834942ab68dceadb154914",
    "m_Group": {
        "m_Id": ""
    },
    "m_Name": "Texture 2D Asset",
    "m_DrawState": {
        "m_Expanded": true,
        "m_Position": {
            "serializedVersion": "2",
            "x": -667.0,
            "y": -85.00000762939453,
            "width": 143.0,
            "height": 105.99999237060547
        }
    },
    "m_Slots": [
        {
            "m_Id": "3ee5d944c3a646c095560b9466c5ba0f"
        }
    ],
    "synonyms": [],
    "m_Precision": 0,
    "m_PreviewExpanded": true,
    "m_PreviewMode": 0,
    "m_CustomColors": {
        "m_SerializableColors": []
    },
    "m_Texture": {
        "m_SerializedTexture": "{\"texture\":{\"fileID\":2800000,\"guid\":\"f57ac3f3902c84a4e89778ff0c7f7118\",\"type\":3}}",
        "m_Guid": ""
    }
}

{
    "m_SGVersion": 0,
    "m_Type": "UnityEditor.ShaderGraph.SampleTexture2DNode",
    "m_ObjectId": "c8bdc7d1dc2a48a793c64d1e211e85b6",
    "m_Group": {
        "m_Id": ""
    },
    "m_Name": "Sample Texture 2D",
    "m_DrawState": {
        "m_Expanded": true,
        "m_Position": {
            "serializedVersion": "2",
            "x": -439.9999694824219,
            "y": -160.99998474121095,
            "width": 184.0,
            "height": 252.99998474121095
        }
    },
    "m_Slots": [
        {
            "m_Id": "e8d2bd88292c489ab155deb9fa42da63"
        },
        {
            "m_Id": "9beb736b36594cd5a7ba432cde768e8d"
        },
        {
            "m_Id": "054ea77d9fce44bfa798854a461e32ba"
        },
        {
            "m_Id": "2288d64fe2734636b284dea03c26dc3a"
        },
        {
            "m_Id": "06ecdb12d5c74adf9c4bc78141d06ff0"
        },
        {
            "m_Id": "c1393fbe475f414a956d817978dae112"
        },
        {
            "m_Id": "39f3ec2b69ce4c1da4ac2decdb516e28"
        },
        {
            "m_Id": "0a4a839718714eb1997d2ffea6e176f0"
        }
    ],
    "synonyms": [],
    "m_Precision": 0,
    "m_PreviewExpanded": false,
    "m_PreviewMode": 0,
    "m_CustomColors": {
        "m_SerializableColors": []
    },
    "m_TextureType": 0,
    "m_NormalMapSpace": 0
}

{
    "m_SGVersion": 0,
    "m_Type": "UnityEditor.ShaderGraph.DynamicVectorMaterialSlot",
    "m_ObjectId": "c9f998b37ee74366846ef46c2f7c27d0",
    "m_Id": 0,
    "m_DisplayName": "In",
    "m_SlotType": 0,
    "m_Hidden": false,
    "m_ShaderOutputName": "In",
    "m_StageCapability": 3,
    "m_Value": {
        "x": 1.0,
        "y": 1.0,
        "z": 1.0,
        "w": 1.0
    },
    "m_DefaultValue": {
        "x": 0.0,
        "y": 0.0,
        "z": 0.0,
        "w": 0.0
    }
}

{
    "m_SGVersion": 0,
    "m_Type": "UnityEditor.ShaderGraph.Vector1MaterialSlot",
    "m_ObjectId": "caca1a2a2daf44a3af7c412523cf066a",
    "m_Id": 0,
    "m_DisplayName": "Smoothness",
    "m_SlotType": 0,
    "m_Hidden": false,
    "m_ShaderOutputName": "Smoothness",
    "m_StageCapability": 2,
    "m_Value": 0.0,
    "m_DefaultValue": 0.5,
    "m_Labels": []
}

{
    "m_SGVersion": 0,
    "m_Type": "UnityEditor.ShaderGraph.Vector1MaterialSlot",
    "m_ObjectId": "cbc8777f1c4f4c798cc8c24e83169bd6",
    "m_Id": 0,
    "m_DisplayName": "Metallic",
    "m_SlotType": 0,
    "m_Hidden": false,
    "m_ShaderOutputName": "Metallic",
    "m_StageCapability": 2,
    "m_Value": 0.0,
    "m_DefaultValue": 0.0,
    "m_Labels": []
}

{
    "m_SGVersion": 0,
    "m_Type": "UnityEditor.ShaderGraph.DynamicValueMaterialSlot",
    "m_ObjectId": "cc1b4f66a76f414abdf1b18c0b367783",
    "m_Id": 0,
    "m_DisplayName": "A",
    "m_SlotType": 0,
    "m_Hidden": false,
    "m_ShaderOutputName": "A",
    "m_StageCapability": 3,
    "m_Value": {
        "e00": 0.0,
        "e01": 0.0,
        "e02": 0.0,
        "e03": 0.0,
        "e10": 0.0,
        "e11": 0.0,
        "e12": 0.0,
        "e13": 0.0,
        "e20": 0.0,
        "e21": 0.0,
        "e22": 0.0,
        "e23": 0.0,
        "e30": 0.0,
        "e31": 0.0,
        "e32": 0.0,
        "e33": 0.0
    },
    "m_DefaultValue": {
        "e00": 1.0,
        "e01": 0.0,
        "e02": 0.0,
        "e03": 0.0,
        "e10": 0.0,
        "e11": 1.0,
        "e12": 0.0,
        "e13": 0.0,
        "e20": 0.0,
        "e21": 0.0,
        "e22": 1.0,
        "e23": 0.0,
        "e30": 0.0,
        "e31": 0.0,
        "e32": 0.0,
        "e33": 1.0
    }
}

{
    "m_SGVersion": 0,
    "m_Type": "UnityEditor.Rendering.Universal.ShaderGraph.UniversalLitSubTarget",
    "m_ObjectId": "cc364b488cd34d44a31ca081d70e7e07",
    "m_WorkflowMode": 1,
    "m_NormalDropOffSpace": 0,
    "m_ClearCoat": false
}

{
    "m_SGVersion": 0,
    "m_Type": "UnityEditor.ShaderGraph.Vector1MaterialSlot",
    "m_ObjectId": "ccb644ca437a4369a4f65ff18adba64e",
    "m_Id": 1,
    "m_DisplayName": "G",
    "m_SlotType": 0,
    "m_Hidden": false,
    "m_ShaderOutputName": "G",
    "m_StageCapability": 3,
    "m_Value": 0.0,
    "m_DefaultValue": 0.0,
    "m_Labels": []
}

{
    "m_SGVersion": 0,
    "m_Type": "UnityEditor.ShaderGraph.Vector4MaterialSlot",
    "m_ObjectId": "cdad5abcb7a84fadb1ba30a8c95702a2",
    "m_Id": 4,
    "m_DisplayName": "RGBA",
    "m_SlotType": 1,
    "m_Hidden": false,
    "m_ShaderOutputName": "RGBA",
    "m_StageCapability": 3,
    "m_Value": {
        "x": 0.0,
        "y": 0.0,
        "z": 0.0,
        "w": 0.0
    },
    "m_DefaultValue": {
        "x": 0.0,
        "y": 0.0,
        "z": 0.0,
        "w": 0.0
    },
    "m_Labels": []
}

{
    "m_SGVersion": 0,
    "m_Type": "UnityEditor.ShaderGraph.BlockNode",
    "m_ObjectId": "d19f87351c6e472a8b307c96a39dc4fe",
    "m_Group": {
        "m_Id": ""
    },
    "m_Name": "VertexDescription.Position",
    "m_DrawState": {
        "m_Expanded": true,
        "m_Position": {
            "serializedVersion": "2",
            "x": 0.0,
            "y": 0.0,
            "width": 0.0,
            "height": 0.0
        }
    },
    "m_Slots": [
        {
            "m_Id": "c40562280aac4de399bbaa58da6174c2"
        }
    ],
    "synonyms": [],
    "m_Precision": 0,
    "m_PreviewExpanded": true,
    "m_PreviewMode": 0,
    "m_CustomColors": {
        "m_SerializableColors": []
    },
    "m_SerializedDescriptor": "VertexDescription.Position"
}

{
    "m_SGVersion": 0,
    "m_Type": "UnityEditor.ShaderGraph.DynamicValueMaterialSlot",
    "m_ObjectId": "d545dc3eb323463fa29ebe9e67b992c2",
    "m_Id": 0,
    "m_DisplayName": "A",
    "m_SlotType": 0,
    "m_Hidden": false,
    "m_ShaderOutputName": "A",
    "m_StageCapability": 3,
    "m_Value": {
        "e00": 0.0,
        "e01": 0.0,
        "e02": 0.0,
        "e03": 0.0,
        "e10": 0.0,
        "e11": 0.0,
        "e12": 0.0,
        "e13": 0.0,
        "e20": 0.0,
        "e21": 0.0,
        "e22": 0.0,
        "e23": 0.0,
        "e30": 0.0,
        "e31": 0.0,
        "e32": 0.0,
        "e33": 0.0
    },
    "m_DefaultValue": {
        "e00": 1.0,
        "e01": 0.0,
        "e02": 0.0,
        "e03": 0.0,
        "e10": 0.0,
        "e11": 1.0,
        "e12": 0.0,
        "e13": 0.0,
        "e20": 0.0,
        "e21": 0.0,
        "e22": 1.0,
        "e23": 0.0,
        "e30": 0.0,
        "e31": 0.0,
        "e32": 0.0,
        "e33": 1.0
    }
}

{
    "m_SGVersion": 0,
    "m_Type": "UnityEditor.ShaderGraph.BlockNode",
    "m_ObjectId": "e870db14807a4a4e9c02810fcb018d6c",
    "m_Group": {
        "m_Id": ""
    },
    "m_Name": "SurfaceDescription.Emission",
    "m_DrawState": {
        "m_Expanded": true,
        "m_Position": {
            "serializedVersion": "2",
            "x": 0.0,
            "y": 0.0,
            "width": 0.0,
            "height": 0.0
        }
    },
    "m_Slots": [
        {
            "m_Id": "ff46b4cc02dc4014b58eb2009e0d8d2b"
        }
    ],
    "synonyms": [],
    "m_Precision": 0,
    "m_PreviewExpanded": true,
    "m_PreviewMode": 0,
    "m_CustomColors": {
        "m_SerializableColors": []
    },
    "m_SerializedDescriptor": "SurfaceDescription.Emission"
}

{
    "m_SGVersion": 0,
    "m_Type": "UnityEditor.ShaderGraph.Vector4MaterialSlot",
    "m_ObjectId": "e8d2bd88292c489ab155deb9fa42da63",
    "m_Id": 0,
    "m_DisplayName": "RGBA",
    "m_SlotType": 1,
    "m_Hidden": false,
    "m_ShaderOutputName": "RGBA",
    "m_StageCapability": 2,
    "m_Value": {
        "x": 0.0,
        "y": 0.0,
        "z": 0.0,
        "w": 0.0
    },
    "m_DefaultValue": {
        "x": 0.0,
        "y": 0.0,
        "z": 0.0,
        "w": 0.0
    },
    "m_Labels": []
}

{
    "m_SGVersion": 0,
    "m_Type": "UnityEditor.ShaderGraph.Vector1MaterialSlot",
    "m_ObjectId": "e9bf39b5720347d8bd0d28a980de5709",
    "m_Id": 3,
    "m_DisplayName": "A",
    "m_SlotType": 0,
    "m_Hidden": false,
    "m_ShaderOutputName": "A",
    "m_StageCapability": 3,
    "m_Value": 0.0,
    "m_DefaultValue": 0.0,
    "m_Labels": []
}

{
    "m_SGVersion": 0,
    "m_Type": "UnityEditor.ShaderGraph.DynamicValueMaterialSlot",
    "m_ObjectId": "eb7086ec728e4a6d9679341e4516b4f2",
    "m_Id": 2,
    "m_DisplayName": "Out",
    "m_SlotType": 1,
    "m_Hidden": false,
    "m_ShaderOutputName": "Out",
    "m_StageCapability": 3,
    "m_Value": {
        "e00": 0.0,
        "e01": 0.0,
        "e02": 0.0,
        "e03": 0.0,
        "e10": 0.0,
        "e11": 0.0,
        "e12": 0.0,
        "e13": 0.0,
        "e20": 0.0,
        "e21": 0.0,
        "e22": 0.0,
        "e23": 0.0,
        "e30": 0.0,
        "e31": 0.0,
        "e32": 0.0,
        "e33": 0.0
    },
    "m_DefaultValue": {
        "e00": 1.0,
        "e01": 0.0,
        "e02": 0.0,
        "e03": 0.0,
        "e10": 0.0,
        "e11": 1.0,
        "e12": 0.0,
        "e13": 0.0,
        "e20": 0.0,
        "e21": 0.0,
        "e22": 1.0,
        "e23": 0.0,
        "e30": 0.0,
        "e31": 0.0,
        "e32": 0.0,
        "e33": 1.0
    }
}

{
    "m_SGVersion": 0,
    "m_Type": "UnityEditor.ShaderGraph.NormalMaterialSlot",
    "m_ObjectId": "f49a761805f14c3a969a4a41b34fea79",
    "m_Id": 0,
    "m_DisplayName": "Normal",
    "m_SlotType": 0,
    "m_Hidden": false,
    "m_ShaderOutputName": "Normal",
    "m_StageCapability": 1,
    "m_Value": {
        "x": 0.0,
        "y": 0.0,
        "z": 0.0
    },
    "m_DefaultValue": {
        "x": 0.0,
        "y": 0.0,
        "z": 0.0
    },
    "m_Labels": [],
    "m_Space": 0
}

{
    "m_SGVersion": 0,
    "m_Type": "UnityEditor.ShaderGraph.Vector1MaterialSlot",
    "m_ObjectId": "f5903e7a506f45098dd01594aa71009f",
    "m_Id": 5,
    "m_DisplayName": "R",
    "m_SlotType": 1,
    "m_Hidden": false,
    "m_ShaderOutputName": "R",
    "m_StageCapability": 3,
    "m_Value": 0.0,
    "m_DefaultValue": 0.0,
    "m_Labels": []
}

{
    "m_SGVersion": 0,
    "m_Type": "UnityEditor.ShaderGraph.Vector1MaterialSlot",
    "m_ObjectId": "f7ff8249d55144569041a48454bf88e0",
    "m_Id": 2,
    "m_DisplayName": "Out",
    "m_SlotType": 1,
    "m_Hidden": false,
    "m_ShaderOutputName": "Out",
    "m_StageCapability": 3,
    "m_Value": 0.0,
    "m_DefaultValue": 0.0,
    "m_Labels": []
}

{
    "m_SGVersion": 0,
    "m_Type": "UnityEditor.ShaderGraph.Internal.Texture2DShaderProperty",
    "m_ObjectId": "faed1ee9acb84e13814204c42a6d7c9d",
    "m_Guid": {
        "m_GuidSerialized": "f8759b35-9531-468f-8fd8-a5ea4acda552"
    },
    "m_Name": "RenderText",
    "m_DefaultReferenceName": "Texture2D_faed1ee9acb84e13814204c42a6d7c9d",
    "m_OverrideReferenceName": "",
    "m_GeneratePropertyBlock": true,
    "m_Precision": 0,
    "overrideHLSLDeclaration": false,
    "hlslDeclarationOverride": 0,
    "m_Hidden": false,
    "m_Value": {
        "m_SerializedTexture": "{\"texture\":{\"instanceID\":0}}",
        "m_Guid": ""
    },
    "m_Modifiable": true,
    "m_DefaultType": 0
}

{
    "m_SGVersion": 0,
    "m_Type": "UnityEditor.ShaderGraph.ColorRGBMaterialSlot",
    "m_ObjectId": "ff46b4cc02dc4014b58eb2009e0d8d2b",
    "m_Id": 0,
    "m_DisplayName": "Emission",
    "m_SlotType": 0,
    "m_Hidden": false,
    "m_ShaderOutputName": "Emission",
    "m_StageCapability": 2,
    "m_Value": {
        "x": 0.0,
        "y": 0.0,
        "z": 0.0
    },
    "m_DefaultValue": {
        "x": 0.0,
        "y": 0.0,
        "z": 0.0
    },
    "m_Labels": [],
    "m_ColorMode": 1,
    "m_DefaultColor": {
        "r": 0.0,
        "g": 0.0,
        "b": 0.0,
        "a": 1.0
    }
}

